{
	"type": "object",
	"version": "2.1.0",
	"animations": {
		"list": [],
		"default": null
	},
	"images": {
		"list": [
			{
				"id": "fb6e9bf0-66a1-11eb-a725-c9245fbfc40d",
				"type": "image",
				"ext": "png",
				"image_name": "frame_highscore",
				"data_path": "image/gameplay/frame_highscore.png",
				"folder_name": "gameplay",
				"width": 278,
				"height": 137
			}
		]
	},
	"image": "fb6e9bf0-66a1-11eb-a725-c9245fbfc40d",
	"collisionMask": [
		"ALL_OBJECT"
	],
	"event": "<xml xmlns=\"http://www.w3.org/1999/xhtml\"><variables><variable type=\"\" id=\";j`XinZ01md~]^)#F-^^\">variable</variable></variables></xml>",
	"variables": [
		{
			"name": "variable"
		}
	],
	"userCode": {
		"global": [
			""
		],
		"pre-super": [
			"        "
		],
		"init": [
			"        "
		],
		"update": [
			"        "
		],
		"onDraw": [
			"        "
		],
		"onActivateEvent": [
			"        "
		],
		"onDeactivateEvent": [
			"        "
		],
		"userFunction": [
			"    "
		],
		"global-end": [
			""
		]
	},
	"frameWidth": 100,
	"frameHeight": 100,
	"width": 100,
	"height": 100,
	"hasBody": false,
	"alpha": 1,
	"flipX": false,
	"flipY": false,
	"floating": true,
	"relativeX": "0.5",
	"relativeY": "0.5",
	"anchorX": 0.5,
	"anchorY": 0.5,
	"followed": "NONE",
	"alwaysUpdate": false,
	"updateWhenPaused": false,
	"isPersistent": false,
	"click": false,
	"keyUp": false,
	"keyDown": false,
	"collisionCheck": false,
	"gravityX": 0,
	"gravityY": 0.98,
	"collisionType": "ENEMY_OBJECT"
}