{
	"type": "object",
	"version": "0.0.2",
	"layers": [],
	"collisionMask": [
		"ALL_OBJECT"
	],
	"event": "<xml xmlns=\"http://www.w3.org/1999/xhtml\"><variables><variable type=\"\" id=\"i9scPo,tK/E92=g(*;[|\">variable</variable></variables></xml>",
	"variables": [
		{
			"name": "variable",
			"description": "",
			"public": true,
			"init": false
		}
	],
	"userCode": {
		"global": [
			" "
		],
		"pre-super": [
			"        "
		],
		"init": [
			"        verify(settings, [\"container\"]);",
			"        game.util.spread(this, settings, [\"container\"]);",
			"        ",
			"        this.getScore       = 5;",
			"        this.bonusScore     = 5;",
			"        ",
			"        this.list = [\"karakter01\",\"karakter02\",\"karakter03\",\"karakter04\",\"karakter06\",\"karakter07\",\"karakter08\",",
			"        \"karakter09\",\"karakter10\",\"karakter11\",\"karakter12\",\"karakter13\",\"karakter14\",\"karakter15\",\"karakter17\",\"karakter18\",",
			"        \"karakter20\",\"karakter21\"];",
			"        this.totalKarakter = this.list.length;",
			"        ",
			"        this.sushiList = this.container.sushidatamenit1;",
			"        this.numberOrder = 0;",
			"        this.sushiObj = [];",
			"        this.sushiData = [];",
			"        this.karakterList = [];",
			"        this.play = true;",
			"        this.end = true;",
			"        this.buffTime = 0;",
			"        this.buffCoin = 0;",
			"        this.bonusCoin = false;",
			"        this.highScore = false;",
			"        this.spawnCoin = true;",
			"        this.spawnCoinB = true;",
			"        this.gameSelesai = true;",
			"        this.masihMain = true;",
			"        ",
			"        //timer",
			"        this.timeCounter    = me.pool.pull(\"timerGame\", 0, -950,{container:this});",
			"        let timeFrame       = me.pool.pull(\"timerGame\", 0, -950,{container:this});",
			"            timeFrame.setCurrentAnimation('time-frame');",
			"        this.textTime = game.assetBundle.sushifontputih(me.game.world.width/2, this.timeCounter.pos.y-30, {",
			"                size : 1,",
			"                text : \"\",",
			"                textAlign : 'center',",
			"                textBaseAlign : 'middle'",
			"            }); ",
			"        me.game.world.addChild(this.textTime, 6);",
			"        this.timeCounter.mask = new me.Rect(this.timeCounter.pos.x-1, this.timeCounter.pos.y, this.timeCounter.width, this.timeCounter.height);",
			"        //--",
			"        ",
			"        //score",
			"        this.comboScore = 0;",
			"        this.angka = game.user.userData.score;",
			"        this.angka2 = 0;",
			"        this.gambarScore = me.pool.pull(\"score\", -380, -1050);",
			"        me.game.world.addChild(this.gambarScore, 4);",
			"        this.gambarHighScore = me.pool.pull(\"gamePlayHighScore\", 45, -1063);",
			"        me.game.world.addChild(this.gambarHighScore, 4);",
			"        this.textScore = game.assetBundle.sushifontputih(me.game.world.width/2-270, this.gambarScore.pos.y-45, {",
			"                size : 1.2,",
			"                text : game.user.userData.score,",
			"                textAlign : 'right',",
			"                textBaseAlign : 'middle'",
			"            }); ",
			"        me.game.world.addChild(this.textScore, 5);",
			"        this.textScore2 = game.assetBundle.sushifontputih(me.game.world.width/2-270, this.gambarScore.pos.y-45, {",
			"                size : 1.2,",
			"                text : \"\",",
			"                textAlign : 'right',",
			"                textBaseAlign : 'middle'",
			"            }); ",
			"        me.game.world.addChild(this.textScore2, 5);",
			"        this.textScore3 = game.assetBundle.sushifontputih(me.game.world.width/2-270, this.gambarScore.pos.y-45, {",
			"                size : 1.2,",
			"                fillStyle : \"#00FF00\",",
			"                text : \"\",",
			"                textAlign : 'right',",
			"                textBaseAlign : 'middle'",
			"            }); ",
			"        me.game.world.addChild(this.textScore3, 5);",
			"        this.textHighScore = game.assetBundle.sushifontputih(me.game.world.width/2+150, this.gambarScore.pos.y-47, {",
			"                size : 1.2,",
			"                text : game.user.userData.highScore,",
			"                textAlign : 'right',",
			"                textBaseAlign : 'middle'",
			"            }); ",
			"        me.game.world.addChild(this.textHighScore, 5);",
			"        //--",
			"        ",
			"        me.game.viewport.fadeOut(\"#000000\", 6000,()=>{",
			"            me.game.world.addChild(this.timeCounter, 5);",
			"            me.game.world.addChild(timeFrame, 4);",
			"            if(this.container.playerItem.includes(\"I000\")){",
			"                let strengthIcon = me.pool.pull(\"I000\", -450, -830);",
			"                me.game.world.addChild(strengthIcon, 15);",
			"            }",
			"        });",
			"        ",
			"        if(game.user.userData.haveTutorial < 1){",
			"            this.tutorialContainer = me.pool.pull(\"TutorialContainer\", 0, 0);",
			"            me.game.world.addChild(this.tutorialContainer, 103);",
			"            this.tutorialContainer.container = this;",
			"            this.tutorialContainer.Show();",
			"        } else {",
			"            let firstPlay = true;",
			"            this.firstPlayTO = me.timer.setTimeout(()=>{",
			"                if(firstPlay){",
			"                    firstPlay = false;",
			"                    this.orderFunc();",
			"                }",
			"            }, 6000);",
			"        }",
			"        ",
			"        //spawn Karakter",
			"        let charXpos;",
			"        if(me.game.viewport.width > 1755){",
			"            charXpos = -877.5-550;",
			"        }else{",
			"            charXpos = -me.game.viewport.width/2-550;",
			"        }",
			"        for(let i = 0; i < this.totalKarakter; i++){",
			"            let karakterrdm = this.list[Math.floor(Math.random()*this.list.length)],",
			"            char = me.pool.pull(karakterrdm, charXpos, -350,{container:this});",
			"            me.game.world.addChild(char, 3);",
			"            this.karakterList.push(char);",
			"            let deleteIndex = this.list.indexOf(karakterrdm);",
			"            if (deleteIndex > -1) {",
			"                this.list.splice(deleteIndex, 1);",
			"            }",
			"        }",
			"        //--",
			"            ",
			"        ",
			"        //tween Boolean",
			"        this.twnBoolNaik = false;",
			"        //--",
			"        ",
			"        //centang sushi",
			"        this.cekbenar1 = me.pool.pull (\"sushibenar\", me.game.world.width/2+320,me.game.viewport.height/2-455);",
			"        me.game.world.addChild(this.cekbenar1, 8);",
			"        ",
			"        this.cekbenar2 = me.pool.pull (\"sushibenar\", me.game.world.width/2+320,me.game.viewport.height/2-585);",
			"        me.game.world.addChild(this.cekbenar2, 8);",
			"        ",
			"        this.cekbenar3 = me.pool.pull (\"sushibenar\", me.game.world.width/2+320,me.game.viewport.height/2-715);",
			"        me.game.world.addChild(this.cekbenar3, 8);"
		],
		"update": [
			"        if(this.timeCounter.duration <= 0){",
			"            this.masihMain = false;",
			"        }",
			"        ",
			"        if(this.container.waktu == 60){",
			"            this.sushiList = this.container.sushidatamenit2;",
			"        }",
			"        if(this.container.waktu == 120){",
			"            this.sushiList = this.container.sushidatamenit3;",
			"        }",
			"        if(this.container.waktu == 180){",
			"            this.sushiList = this.container.sushidata;",
			"        }"
		],
		"onDraw": [
			"        "
		],
		"onActivateEvent": [
			"        "
		],
		"onDeactivateEvent": [
			"        me.timer.clearInterval(this.intervalFinish);",
			"        me.audio.stop(\"bgm-win\");",
			"        me.audio.stop(\"bgm-gameover2\");",
			"        me.timer.clearInterval(this.intervalMusic);",
			"        me.timer.clearTimeout(this.firstPlayTO);"
		],
		"userFunction": [
			"    orderFunc:function(){",
			"        me.timer.clearTimeout(this.container.timeouthapus);",
			"        this.container.sushipesanan1.alpha = 0;",
			"        this.container.sushipesanan2.alpha = 0;",
			"        this.container.sushipesanan3.alpha = 0;",
			"        this.container.yangdigrab = [];",
			"        this.sushiData = [];",
			"        this.sushiData2 = [];",
			"        this.sushiObj = [];",
			"        ",
			"\t    this.cekbenar1.alpha = 0;",
			"        this.cekbenar2.alpha = 0;",
			"        this.cekbenar3.alpha = 0;",
			"        this.benar1 = false;",
			"        this.benar2 = false;",
			"        this.benar3 = false;",
			"        ",
			"        let posYShushi = [455, 585, 715];",
			"        for(let i = 0; i < 3; i++){",
			"            let sushiRdm1 = this.sushiList[Math.floor(Math.random()*this.sushiList.length)];",
			" ",
			"            if(this.container.playerItem.includes(sushiRdm1)){",
			"                i--;",
			"            }",
			"            else{",
			"                let sushi1 = me.pool.pull (\"me.Sprite\", me.game.world.width/2+320, me.game.viewport.height/2-posYShushi[i], {",
			"                        image: game.textureMap.get(\"sushi\"),",
			"                        region: sushiRdm1 + \"_menu\",",
			"                        name:sushiRdm1",
			"                    });",
			"                    me.game.world.addChild(sushi1, 7);",
			"                    sushi1.alpha = 0;",
			"                this.sushiObj.push(sushi1); ",
			"                this.sushiData.push(sushi1.name);",
			"                this.sushiData2.push(sushi1.name);",
			"            }",
			"        }",
			"",
			"        for(let i = 0; i < this.totalKarakter; i++){",
			"            if(this.numberOrder == i){",
			"                this.karakterList[i].orderTween();",
			"                this.container.disablehook = false;",
			"                this.sushiObj[0].alpha = 1;",
			"                this.sushiObj[1].alpha = 1;",
			"                this.sushiObj[2].alpha = 1;",
			"                this.PopUp = me.pool.pull (\"popUpSushiTarget\", me.game.viewport.width/2+310, me.game.viewport.height/2-585);",
			"                me.game.world.addChild(this.PopUp, 6);",
			"                ",
			"                if(this.play){",
			"                    this.play = false;",
			"                    this.timeCounter.timeFunc(()=>{",
			"                        this.cekTargetScore();",
			"                    });",
			"                }",
			"                this.finishOrder();",
			"            }",
			"        }",
			"    },",
			"    ",
			"    finishOrder: function(){",
			"        this.intervalFinish = me.timer.setInterval(()=>{",
			"            if(this.container.bgmPlay){",
			"                this.container.bgmPlay = false;",
			"                if(gameSnacks_API){",
			"                    if(GAMESNACKS.isAudioEnabled()){",
			"                        me.audio.play(\"bgm-sushi-ingame\", false,()=>{this.container.bgmPlay = true}, 0.5);",
			"                    }",
			"                }else{",
			"                    me.audio.play(\"bgm-sushi-ingame\", false,()=>{this.container.bgmPlay = true}, 0.5);",
			"                }",
			"            }",
			"            for(let i = 0; i < this.totalKarakter; i++){",
			"                if(this.numberOrder == i){",
			"                    if(this.karakterList[i].finish){",
			"                        this.numberOrder += 1;",
			"                        if(this.numberOrder >= this.totalKarakter){",
			"                            this.numberOrder = 0;",
			"                        }",
			"                        me.timer.clearInterval(this.intervalFinish);",
			"                        this.orderFunc();",
			"                    }",
			"                }",
			"            }",
			"        },500);",
			"    },",
			"    ",
			"    cekPesanan1: function(){",
			"        for(let i = 0; i < this.totalKarakter; i++){",
			"            if(this.numberOrder == i){",
			"                if(this.karakterList[i].karakterTimerPlay){",
			"                    let data1 = this.sushiData,",
			"                        index = data1.indexOf(this.container.yangdigrab[0]);",
			"                    if (index > -1) {",
			"                        data1.splice(index, 1);",
			"                        this.indek = this.sushiData2.indexOf(this.container.yangdigrab[0]);",
			"                        this.cekbenarsushi();",
			"                        this.coinSpawn();",
			"                    }else{",
			"                        if(this.container.itemCookies == false){",
			"                            this.container.tampilinsusisalah(1);",
			"                        }",
			"                    }",
			"                }",
			"            }",
			"        }",
			"    },",
			"    cekPesanan2:function(){",
			"        for(let i = 0; i < this.totalKarakter; i++){",
			"            if(this.numberOrder == i){",
			"                if(this.karakterList[i].karakterTimerPlay){",
			"                    let data1 = this.sushiData,",
			"                        index = data1.indexOf(this.container.yangdigrab[1]);",
			"                    if (index > -1) {",
			"                        data1.splice(index, 1);",
			"                        this.indek = this.sushiData2.indexOf(this.container.yangdigrab[1]);",
			"                        this.coinSpawn();",
			"                            if(this.indek == 0 && this.benar1 == true || this.indek == 1 && this.benar2 == true){",
			"                                this.indeks = index + 1;",
			"                                this.cekbenarsushiklokembar();",
			"                            }else{",
			"                                this.cekbenarsushi();",
			"                            }",
			"                    }else{",
			"                        if(this.container.itemCookies == false){",
			"                            this.container.tampilinsusisalah(2);",
			"                        }",
			"                    }",
			"                }",
			"            }",
			"        }",
			"    },",
			"    cekPesanan3:function(){",
			"        for(let i = 0; i < this.totalKarakter; i++){",
			"            if(this.numberOrder == i){",
			"                if(this.karakterList[i].karakterTimerPlay){",
			"                    let data1 = this.sushiData,",
			"                        index = data1.indexOf(this.container.yangdigrab[2]);",
			"                    if (index > -1) {",
			"                        data1.splice(index, 1);",
			"                        this.coinSpawn();",
			"                        this.indek = this.sushiData2.indexOf(this.container.yangdigrab[2]);",
			"                        this.ceklastbenarsushi();",
			"                    }else{",
			"                        if(this.container.itemCookies == false){",
			"                            this.container.tampilinsusisalah(3);",
			"                        }",
			"                    }",
			"                ",
			"                    if(this.sushiData.length == 0){",
			"                        this.container.pesananbenarsmua();",
			"                        this.karakterList[i].end = true;",
			"                    }",
			"                }",
			"            }",
			"        }",
			"    },",
			"    ",
			"    coinSpawn: function(){",
			"        if(this.spawnCoin){",
			"            this.spawnCoin = false;",
			"            if(gameSnacks_API){",
			"                if (GAMESNACKS.isAudioEnabled()) {",
			"                    me.audio.play(\"sfx-coin\");",
			"                }",
			"            }else{",
			"                me.audio.play(\"sfx-coin\");",
			"            }",
			"            ",
			"            this.angka += this.getScore + this.buffCoin;",
			"            let angkaJumlah = this.getScore + this.buffCoin;",
			"            this.angka2 = \"+\"+angkaJumlah;",
			"                    ",
			"            this.buffCoin = 0;",
			"        //coin",
			"            this.coin = me.pool.pull(\"coin\", -450, -550);",
			"            me.game.world.addChild(this.coin, 10);",
			"            let limitTimeAnim1 = true;",
			"            this.coin.setCurrentAnimation('Animation 1',()=>{",
			"                if(limitTimeAnim1){",
			"                    limitTimeAnim1 = false;",
			"                    this.coin2 = me.pool.pull(\"coin\", -320, -630);",
			"                    me.game.world.addChild(this.coin2, 10);",
			"                    this.coin2.setCurrentAnimation('up',()=>{",
			"                        this.tweenScore();",
			"                        this.textScore.setText(this.angka);",
			"                        this.spawnCoin = true;",
			"                        me.game.world.removeChild(this.coin2);",
			"                        return false;",
			"                    });",
			"                    me.game.world.removeChild(this.coin);",
			"                }",
			"                return false;",
			"            });",
			"        }",
			"        //--",
			"    },",
			"    ",
			"    tweenScore: function(){",
			"        if(this.bonusCoin){",
			"            this.textScore3.setText(this.angka2);",
			"            this.tweenPlay = new me.Tween(this.textScore3.pos)",
			"            .to({y:this.textScore3.pos.y-90}, 500)",
			"            .easing(me.Tween.Easing.Sinusoidal.Out)",
			"            .onComplete(()=>{",
			"                this.textScore3.setText(\"\");",
			"                this.textScore3.pos.set(this.textScore3.pos.x, this.textScore3.pos.y+90,5);",
			"                this.bonusCoin = false;",
			"            });",
			"            this.tweenPlay.start();",
			"        }else{",
			"            this.textScore2.setText(this.angka2);",
			"            this.tweenPlay = new me.Tween(this.textScore2.pos)",
			"            .to({y:this.textScore2.pos.y-90}, 500)",
			"            .easing(me.Tween.Easing.Sinusoidal.Out)",
			"            .onComplete(()=>{",
			"                this.textScore2.setText(\"\");",
			"                this.textScore2.pos.set(this.textScore2.pos.x, this.textScore2.pos.y+90,5);",
			"            });",
			"            this.tweenPlay.start();   ",
			"        }",
			"    },",
			"    ",
			"    cekTargetScore: function(){",
			"        if(this.gameSelesai){",
			"            this.gameSelesai = false;",
			"            this.end = false;",
			"            ",
			"            me.timer.clearInterval(this.intervalFinish);",
			"            this.karakterList[this.numberOrder].end = true;",
			"",
			"            me.timer.clearInterval(this.container.intervalspawnsushi1);",
			"            me.timer.clearInterval(this.container.intervalspawnsushi2);",
			"            me.timer.clearInterval(this.container.intervalspawnsushi3);",
			"            ",
			"            let timeOutLimit = true;",
			"            me.timer.setTimeout(()=>{",
			"                if(timeOutLimit){    ",
			"                    timeOutLimit = false;",
			"                    this.container.tweenToAlpha()",
			"                }",
			"            },2000);",
			"            this.container.sushipesanan1.alpha = 0;",
			"            this.container.sushipesanan2.alpha = 0;",
			"            this.container.sushipesanan3.alpha = 0;",
			"            ",
			"            me.game.world.removeChild(this.container.buttonhook);",
			"            me.game.world.removeChild(this.container.pauseBtn);",
			"            ",
			"            //console.log(\"Game Over\");",
			"            if(this.angka > game.user.userData.highScore){this.highScore = true}",
			"            let timeOutLimit4 = true;",
			"            me.timer.setTimeout(()=>{",
			"                if(timeOutLimit4){",
			"                    timeOutLimit4 = false;",
			"                    this.cekbenar1.alpha = 0;",
			"                    this.cekbenar2.alpha = 0;",
			"                    this.cekbenar3.alpha = 0;",
			"                    this.bannerEnd = me.pool.pull(\"endBanner\", 0, 0,{condition:\"lose\", container:this});",
			"                    me.game.world.addChild(this.bannerEnd, 90);",
			"                    ",
			"                    let timeOutLimit5 = true;",
			"                    me.timer.setTimeout(()=>{",
			"                        if(timeOutLimit5){",
			"                            timeOutLimit5 = false;",
			"                            this.bannerEnd.onScreen();",
			"                        }",
			"                    },1000);",
			"                    ",
			"                    if(gameSnacks_API){",
			"                        if (GAMESNACKS.isAudioEnabled()) {",
			"                            me.audio.stop(\"bgm-sushi-ingame\");",
			"                            ",
			"                            this.playAudio = false;",
			"                            me.audio.play(\"bgm-gameover2\", false, ()=>{this.playAudio = true}, 0.5);",
			"                            this.intervalMusic = me.timer.setInterval(()=>{",
			"                                if(this.playAudio){",
			"                                    this.playAudio = false;",
			"                                    me.audio.play(\"bgm-gameover2\", false, ()=>{this.playAudio = true}, 0.5);",
			"                                }",
			"                            },100);",
			"                        }",
			"                    }else{",
			"                        me.audio.stop(\"bgm-sushi-ingame\");",
			"                        ",
			"                        this.playAudio = false;",
			"                        me.audio.play(\"bgm-gameover2\", false, ()=>{this.playAudio = true}, 0.5);",
			"                        this.intervalMusic = me.timer.setInterval(()=>{",
			"                            if(this.playAudio){",
			"                                this.playAudio = false;",
			"                                me.audio.play(\"bgm-gameover2\", false, ()=>{this.playAudio = true}, 0.5);",
			"                            }",
			"                        },100);",
			"                    }",
			"                }",
			"            }, 4000);",
			"        }",
			"    },",
			"    ",
			"    timeUp: function(){",
			"        if(this.timeCounter.duration <= 0 || this.timeCounter.pos == undefined){",
			"            //console.log(\"Too late\");",
			"        }else{",
			"            this.karakterList[this.numberOrder].timeDuration += 4;",
			"            this.karakterList[this.numberOrder].barTime.tinggi += 100;",
			"            // //console.log(buffTime);",
			"            this.timeCounter.durationText += this.buffTime;",
			"            this.timeCounter.duration += this.buffTime;",
			"            this.timeCounter.pos.x += ((this.buffTime / 10) * 85);",
			"            ",
			"            if(this.timeCounter.duration > 120){",
			"                this.timeCounter.duration = 120;",
			"                this.timeCounter.durationText = 60;",
			"                this.timeCounter.pos.x = me.game.viewport.width/2;",
			"            }",
			"        ",
			"            if(this.karakterList[this.numberOrder].timeDuration > 14){",
			"                this.karakterList[this.numberOrder].timeDuration = 14;",
			"                this.karakterList[this.numberOrder].barTime.tinggi = 350;",
			"            }",
			"            ",
			"            if(this.timeCounter.duration > 60){",
			"                this.timeCounter.durationText -= 60;",
			"            }",
			"            ",
			"            if(this.timeCounter.durationText <= 0){",
			"                this.timeCounter.durationText += 60;",
			"            }",
			"        }",
			"    },",
			"    ",
			"    timeUpGame: function(){",
			"        if(this.timeCounter.duration <= 0 || this.timeCounter.pos == undefined){",
			"            //console.log(\"Too late\");",
			"        }else{",
			"            this.timeCounter.durationText += 30;",
			"            this.timeCounter.duration += 30;",
			"            this.timeCounter.pos.x += ((30 / 10) * 85);",
			"            ",
			"            if(this.timeCounter.duration > 120){",
			"                this.timeCounter.duration = 120;",
			"                this.timeCounter.durationText = 60;",
			"                this.timeCounter.pos.x = me.game.viewport.width/2;",
			"            }",
			"            ",
			"            if(this.timeCounter.duration > 60){",
			"                this.timeCounter.durationText -= 60;",
			"            }",
			"            ",
			"            if(this.timeCounter.durationText <= 0){",
			"                this.timeCounter.durationText += 60;",
			"            }",
			"        }",
			"    },",
			"    ",
			"    cekbenarsushi: function(){",
			"        if(this.indek == 0){",
			"            this.cekbenar1.alpha = 1;",
			"            this.benar1 = true;",
			"        }if(this.indek == 1){",
			"            this.cekbenar2.alpha = 1;",
			"            this.benar2 = true;",
			"        }if(this.indek == 2){",
			"            this.cekbenar3.alpha = 1;",
			"            this.benar3 = true;",
			"        }",
			"    },",
			"    ",
			"    cekbenarsushiklokembar: function(){",
			"        if(this.indeks == 1){",
			"            this.cekbenar2.alpha = 1;",
			"            this.benar2 = true;",
			"        }if(this.indeks == 2){",
			"            this.cekbenar3.alpha = 1;",
			"            this.benar3 = true;",
			"        }",
			"    },",
			"    ",
			"    ceklastbenarsushi: function(){",
			"        if(this.benar1 == true && this.benar2 == true){",
			"            this.cekbenar3.alpha = 1;",
			"        }if(this.benar2 == true && this.benar3 == true){",
			"            this.cekbenar1.alpha = 1;",
			"        }if(this.benar1 == true && this.benar3 == true){",
			"            this.cekbenar2.alpha = 1;",
			"        }",
			"    },",
			"    ",
			"    tweenBarTime: function(){",
			"        this.tweenTimeCounter =  new me.Tween(this.timeCounter).to({alpha:0}, 1000);",
			"        this.tweenTimeCounter.start();",
			"    },",
			"    ",
			"    changeLevel: function(shop){",
			"        if(shop == \"shop\"){",
			"            me.game.viewport.fadeIn(\"#000000\", 500,()=>{",
			"                me.state.change(game.state.Shop);",
			"                mainMenu = false;",
			"            });",
			"        }else{",
			"            if(gameSnacks_API){",
			"                GAMESNACKS.sendScore(this.angka);",
			"            }",
			"            me.game.viewport.fadeIn(\"#000000\", 1300);",
			"            let timeOutLimit6 = true;",
			"            me.timer.setTimeout(()=>{",
			"                if(timeOutLimit6){",
			"                    timeOutLimit6 = false;",
			"                    game.util.restartGame(\"level1\");",
			"                    if(gameSnacks_API){",
			"                        GAMESNACKS.gameOver();",
			"                    }",
			"                }",
			"            }, 500);",
			"        }",
			"    },",
			"    ",
			"    bonusSpawn: function(){",
			"        if(this.spawnCoinB){",
			"            this.spawnCoinB = false;",
			"            this.bonusCoin = true;",
			"            if(gameSnacks_API){",
			"                if (GAMESNACKS.isAudioEnabled()) {",
			"                    me.audio.play(\"sfx-coin\");",
			"                }",
			"            }else{",
			"                me.audio.play(\"sfx-coin\");",
			"            }",
			"            ",
			"            this.angka += this.bonusScore + this.buffCoin;",
			"            let angkaJumlah = this.bonusScore + this.buffCoin;",
			"            this.angka2 = \"Bonus +\"+angkaJumlah;",
			"            ",
			"            this.buffCoin = 0;",
			"            ",
			"            //coin",
			"            this.coinB = me.pool.pull(\"coin\", -450, -550);",
			"            me.game.world.addChild(this.coinB, 10);",
			"            let limitTimeAnim2 = true;",
			"            this.coinB.setCurrentAnimation('Animation 1',()=>{",
			"                if(limitTimeAnim2){",
			"                    limitTimeAnim2 = false;",
			"                    this.coin2B = me.pool.pull(\"coin\", -320, -630);",
			"                    me.game.world.addChild(this.coin2B, 10);",
			"                    this.coin2B.setCurrentAnimation('up',()=>{",
			"                        this.tweenScore();",
			"                        this.textScore.setText(this.angka);",
			"                        this.spawnCoinB = true;",
			"                        me.game.world.removeChild(this.coin2B);",
			"                        return false;",
			"                    });",
			"                    me.game.world.removeChild(this.coinB);",
			"                }",
			"                return false;",
			"            });",
			"        }",
			"        //--",
			"    },"
		],
		"global-end": [
			" "
		]
	},
	"width": 100,
	"height": 100,
	"hasBody": false,
	"alpha": 1,
	"flipX": false,
	"flipY": false,
	"floating": true,
	"relativeX": "0",
	"relativeY": "0",
	"anchorX": 0.5,
	"anchorY": 0.5,
	"followed": "NONE",
	"alwaysUpdate": false,
	"updateWhenPaused": false,
	"isPersistent": false,
	"click": false,
	"keyUp": false,
	"keyDown": false,
	"collisionCheck": false,
	"gravityX": 0,
	"gravityY": 0.98,
	"collisionType": "ENEMY_OBJECT"
}