{
	"type": "object",
	"version": "0.0.2",
	"animations": {
		"list": [
			{
				"name": "1",
				"frames": [
					{
						"id": "0f00bbb0-4390-11eb-b611-a7d3cc580f22",
						"type": "image",
						"ext": "png",
						"image_name": "handEffect-1",
						"data_path": "image/gameplay/handEffect-1.png",
						"folder_name": "gameplay",
						"width": 500,
						"height": 500
					},
					{
						"id": "0f00bbb1-4390-11eb-b611-a7d3cc580f22",
						"type": "image",
						"ext": "png",
						"image_name": "handEffect-2",
						"data_path": "image/gameplay/handEffect-2.png",
						"folder_name": "gameplay",
						"width": 500,
						"height": 500
					},
					{
						"id": "0f00bbb2-4390-11eb-b611-a7d3cc580f22",
						"type": "image",
						"ext": "png",
						"image_name": "handEffect-3",
						"data_path": "image/gameplay/handEffect-3.png",
						"folder_name": "gameplay",
						"width": 500,
						"height": 500
					},
					{
						"id": "0f00bbb3-4390-11eb-b611-a7d3cc580f22",
						"type": "image",
						"ext": "png",
						"image_name": "handEffect-4",
						"data_path": "image/gameplay/handEffect-4.png",
						"folder_name": "gameplay",
						"width": 500,
						"height": 500
					},
					{
						"id": "0f00bbb4-4390-11eb-b611-a7d3cc580f22",
						"type": "image",
						"ext": "png",
						"image_name": "handEffect-5",
						"data_path": "image/gameplay/handEffect-5.png",
						"folder_name": "gameplay",
						"width": 500,
						"height": 500
					},
					{
						"id": "0f00bbb5-4390-11eb-b611-a7d3cc580f22",
						"type": "image",
						"ext": "png",
						"image_name": "handEffect-6",
						"data_path": "image/gameplay/handEffect-6.png",
						"folder_name": "gameplay",
						"width": 500,
						"height": 500
					}
				],
				"duration": "70"
			},
			{
				"name": "2",
				"frames": [
					{
						"id": "0f00bbb6-4390-11eb-b611-a7d3cc580f22",
						"type": "image",
						"ext": "png",
						"image_name": "handEffectKlik-01",
						"data_path": "image/gameplay/handEffectKlik-01.png",
						"folder_name": "gameplay",
						"width": 500,
						"height": 500
					},
					{
						"id": "0f00bbb7-4390-11eb-b611-a7d3cc580f22",
						"type": "image",
						"ext": "png",
						"image_name": "handEffectKlik-02",
						"data_path": "image/gameplay/handEffectKlik-02.png",
						"folder_name": "gameplay",
						"width": 500,
						"height": 500
					},
					{
						"id": "0f00bbb8-4390-11eb-b611-a7d3cc580f22",
						"type": "image",
						"ext": "png",
						"image_name": "handEffectKlik-03",
						"data_path": "image/gameplay/handEffectKlik-03.png",
						"folder_name": "gameplay",
						"width": 500,
						"height": 500
					},
					{
						"id": "0f00bbb9-4390-11eb-b611-a7d3cc580f22",
						"type": "image",
						"ext": "png",
						"image_name": "handEffectKlik-04",
						"data_path": "image/gameplay/handEffectKlik-04.png",
						"folder_name": "gameplay",
						"width": 500,
						"height": 500
					},
					{
						"id": "0f00e2c0-4390-11eb-b611-a7d3cc580f22",
						"type": "image",
						"ext": "png",
						"image_name": "handEffectKlik-05",
						"data_path": "image/gameplay/handEffectKlik-05.png",
						"folder_name": "gameplay",
						"width": 500,
						"height": 500
					},
					{
						"id": "0f00e2c1-4390-11eb-b611-a7d3cc580f22",
						"type": "image",
						"ext": "png",
						"image_name": "handEffectKlik-06",
						"data_path": "image/gameplay/handEffectKlik-06.png",
						"folder_name": "gameplay",
						"width": 500,
						"height": 500
					},
					{
						"id": "0f00e2c2-4390-11eb-b611-a7d3cc580f22",
						"type": "image",
						"ext": "png",
						"image_name": "handEffectKlik-07",
						"data_path": "image/gameplay/handEffectKlik-07.png",
						"folder_name": "gameplay",
						"width": 500,
						"height": 500
					},
					{
						"id": "0f00e2c3-4390-11eb-b611-a7d3cc580f22",
						"type": "image",
						"ext": "png",
						"image_name": "handEffectKlik-08",
						"data_path": "image/gameplay/handEffectKlik-08.png",
						"folder_name": "gameplay",
						"width": 500,
						"height": 500
					},
					{
						"id": "0f00e2c4-4390-11eb-b611-a7d3cc580f22",
						"type": "image",
						"ext": "png",
						"image_name": "handEffectKlik-09",
						"data_path": "image/gameplay/handEffectKlik-09.png",
						"folder_name": "gameplay",
						"width": 500,
						"height": 500
					},
					{
						"id": "0f00e2c5-4390-11eb-b611-a7d3cc580f22",
						"type": "image",
						"ext": "png",
						"image_name": "handEffectKlik-10",
						"data_path": "image/gameplay/handEffectKlik-10.png",
						"folder_name": "gameplay",
						"width": 500,
						"height": 500
					}
				],
				"duration": "70"
			}
		],
		"default": "1"
	},
	"images": {
		"list": [
			{
				"id": "0f00bbb0-4390-11eb-b611-a7d3cc580f22",
				"type": "image",
				"ext": "png",
				"image_name": "handEffect-1",
				"data_path": "image/gameplay/handEffect-1.png",
				"folder_name": "gameplay",
				"width": 500,
				"height": 500
			},
			{
				"id": "0f00bbb1-4390-11eb-b611-a7d3cc580f22",
				"type": "image",
				"ext": "png",
				"image_name": "handEffect-2",
				"data_path": "image/gameplay/handEffect-2.png",
				"folder_name": "gameplay",
				"width": 500,
				"height": 500
			},
			{
				"id": "0f00bbb2-4390-11eb-b611-a7d3cc580f22",
				"type": "image",
				"ext": "png",
				"image_name": "handEffect-3",
				"data_path": "image/gameplay/handEffect-3.png",
				"folder_name": "gameplay",
				"width": 500,
				"height": 500
			},
			{
				"id": "0f00bbb3-4390-11eb-b611-a7d3cc580f22",
				"type": "image",
				"ext": "png",
				"image_name": "handEffect-4",
				"data_path": "image/gameplay/handEffect-4.png",
				"folder_name": "gameplay",
				"width": 500,
				"height": 500
			},
			{
				"id": "0f00bbb4-4390-11eb-b611-a7d3cc580f22",
				"type": "image",
				"ext": "png",
				"image_name": "handEffect-5",
				"data_path": "image/gameplay/handEffect-5.png",
				"folder_name": "gameplay",
				"width": 500,
				"height": 500
			},
			{
				"id": "0f00bbb5-4390-11eb-b611-a7d3cc580f22",
				"type": "image",
				"ext": "png",
				"image_name": "handEffect-6",
				"data_path": "image/gameplay/handEffect-6.png",
				"folder_name": "gameplay",
				"width": 500,
				"height": 500
			},
			{
				"id": "0f00bbb9-4390-11eb-b611-a7d3cc580f22",
				"type": "image",
				"ext": "png",
				"image_name": "handEffectKlik-04",
				"data_path": "image/gameplay/handEffectKlik-04.png",
				"folder_name": "gameplay",
				"width": 500,
				"height": 500
			},
			{
				"id": "0f00e2c0-4390-11eb-b611-a7d3cc580f22",
				"type": "image",
				"ext": "png",
				"image_name": "handEffectKlik-05",
				"data_path": "image/gameplay/handEffectKlik-05.png",
				"folder_name": "gameplay",
				"width": 500,
				"height": 500
			},
			{
				"id": "0f00e2c1-4390-11eb-b611-a7d3cc580f22",
				"type": "image",
				"ext": "png",
				"image_name": "handEffectKlik-06",
				"data_path": "image/gameplay/handEffectKlik-06.png",
				"folder_name": "gameplay",
				"width": 500,
				"height": 500
			},
			{
				"id": "0f00e2c2-4390-11eb-b611-a7d3cc580f22",
				"type": "image",
				"ext": "png",
				"image_name": "handEffectKlik-07",
				"data_path": "image/gameplay/handEffectKlik-07.png",
				"folder_name": "gameplay",
				"width": 500,
				"height": 500
			},
			{
				"id": "0f00e2c3-4390-11eb-b611-a7d3cc580f22",
				"type": "image",
				"ext": "png",
				"image_name": "handEffectKlik-08",
				"data_path": "image/gameplay/handEffectKlik-08.png",
				"folder_name": "gameplay",
				"width": 500,
				"height": 500
			},
			{
				"id": "0f00e2c4-4390-11eb-b611-a7d3cc580f22",
				"type": "image",
				"ext": "png",
				"image_name": "handEffectKlik-09",
				"data_path": "image/gameplay/handEffectKlik-09.png",
				"folder_name": "gameplay",
				"width": 500,
				"height": 500
			},
			{
				"id": "0f00e2c5-4390-11eb-b611-a7d3cc580f22",
				"type": "image",
				"ext": "png",
				"image_name": "handEffectKlik-10",
				"data_path": "image/gameplay/handEffectKlik-10.png",
				"folder_name": "gameplay",
				"width": 500,
				"height": 500
			},
			{
				"id": "0f00bbb6-4390-11eb-b611-a7d3cc580f22",
				"type": "image",
				"ext": "png",
				"image_name": "handEffectKlik-01",
				"data_path": "image/gameplay/handEffectKlik-01.png",
				"folder_name": "gameplay",
				"width": 500,
				"height": 500
			},
			{
				"id": "0f00bbb7-4390-11eb-b611-a7d3cc580f22",
				"type": "image",
				"ext": "png",
				"image_name": "handEffectKlik-02",
				"data_path": "image/gameplay/handEffectKlik-02.png",
				"folder_name": "gameplay",
				"width": 500,
				"height": 500
			},
			{
				"id": "0f00bbb8-4390-11eb-b611-a7d3cc580f22",
				"type": "image",
				"ext": "png",
				"image_name": "handEffectKlik-03",
				"data_path": "image/gameplay/handEffectKlik-03.png",
				"folder_name": "gameplay",
				"width": 500,
				"height": 500
			}
		]
	},
	"image": "0f00bbb0-4390-11eb-b611-a7d3cc580f22",
	"collisionMask": [
		"ALL_OBJECT"
	],
	"event": "<xml xmlns=\"http://www.w3.org/1999/xhtml\"><variables><variable type=\"\" id=\"L[zr6}.E=l_t0`ECpXt6\">variable</variable></variables></xml>",
	"variables": [
		{
			"name": "variable",
			"description": "",
			"public": true,
			"init": false
		}
	],
	"userCode": {
		"global": [
			""
		],
		"pre-super": [
			"        "
		],
		"init": [
			"        "
		],
		"update": [
			"        "
		],
		"onDraw": [
			"        "
		],
		"onActivateEvent": [
			"        "
		],
		"onDeactivateEvent": [
			"        "
		],
		"userFunction": [
			"    "
		],
		"global-end": [
			""
		]
	},
	"frameWidth": 100,
	"frameHeight": 100,
	"width": 100,
	"height": 100,
	"hasBody": false,
	"alpha": 0,
	"flipX": false,
	"flipY": false,
	"floating": true,
	"relativeX": "0.5",
	"relativeY": "0.5",
	"anchorX": 0.5,
	"anchorY": 0.5,
	"followed": "NONE",
	"alwaysUpdate": false,
	"updateWhenPaused": false,
	"isPersistent": false,
	"click": false,
	"keyUp": false,
	"keyDown": false,
	"collisionCheck": false,
	"gravityX": 0,
	"gravityY": 0.98,
	"collisionType": "ENEMY_OBJECT"
}