{
	"type": "object",
	"version": "0.0.2",
	"animations": {
		"list": [
			{
				"name": "open",
				"frames": [
					{
						"id": "0013faf1-2ee5-11eb-97ea-214003daca8d",
						"type": "image",
						"ext": "png",
						"image_name": "hook_open",
						"data_path": "image/hook/hook_open.png",
						"folder_name": "hook",
						"width": 240,
						"height": 1115
					}
				],
				"duration": "1"
			},
			{
				"name": "close",
				"frames": [
					{
						"id": "0013faf0-2ee5-11eb-97ea-214003daca8d",
						"type": "image",
						"ext": "png",
						"image_name": "hook_close",
						"data_path": "image/hook/hook_close.png",
						"folder_name": "hook",
						"width": 240,
						"height": 1115
					}
				],
				"duration": "1"
			},
			{
				"name": "sushi_00",
				"frames": [
					{
						"id": "5fdaabb0-3844-11eb-8f2a-691434c588b9",
						"type": "image",
						"ext": "png",
						"image_name": "sushi_00_hook",
						"data_path": "image/hook/sushi_00_hook.png",
						"folder_name": "hook",
						"width": 240,
						"height": 1115
					}
				],
				"duration": "1"
			},
			{
				"name": "sushi_01",
				"frames": [
					{
						"id": "5fdaabb1-3844-11eb-8f2a-691434c588b9",
						"type": "image",
						"ext": "png",
						"image_name": "sushi_01_hook",
						"data_path": "image/hook/sushi_01_hook.png",
						"folder_name": "hook",
						"width": 240,
						"height": 1115
					}
				],
				"duration": "1"
			},
			{
				"name": "sushi_02",
				"frames": [
					{
						"id": "5fdaabb2-3844-11eb-8f2a-691434c588b9",
						"type": "image",
						"ext": "png",
						"image_name": "sushi_02_hook",
						"data_path": "image/hook/sushi_02_hook.png",
						"folder_name": "hook",
						"width": 240,
						"height": 1115
					}
				],
				"duration": "1"
			},
			{
				"name": "sushi_03",
				"frames": [
					{
						"id": "5fdaabb3-3844-11eb-8f2a-691434c588b9",
						"type": "image",
						"ext": "png",
						"image_name": "sushi_03_hook",
						"data_path": "image/hook/sushi_03_hook.png",
						"folder_name": "hook",
						"width": 240,
						"height": 1115
					}
				],
				"duration": "1"
			},
			{
				"name": "sushi_04",
				"frames": [
					{
						"id": "5fdaabb4-3844-11eb-8f2a-691434c588b9",
						"type": "image",
						"ext": "png",
						"image_name": "sushi_04_hook",
						"data_path": "image/hook/sushi_04_hook.png",
						"folder_name": "hook",
						"width": 240,
						"height": 1115
					}
				],
				"duration": "1"
			},
			{
				"name": "sushi_05",
				"frames": [
					{
						"id": "5fdaabb5-3844-11eb-8f2a-691434c588b9",
						"type": "image",
						"ext": "png",
						"image_name": "sushi_05_hook",
						"data_path": "image/hook/sushi_05_hook.png",
						"folder_name": "hook",
						"width": 240,
						"height": 1115
					}
				],
				"duration": "1"
			},
			{
				"name": "sushi_06",
				"frames": [
					{
						"id": "5fdaabb6-3844-11eb-8f2a-691434c588b9",
						"type": "image",
						"ext": "png",
						"image_name": "sushi_06_hook",
						"data_path": "image/hook/sushi_06_hook.png",
						"folder_name": "hook",
						"width": 240,
						"height": 1115
					}
				],
				"duration": "1"
			},
			{
				"name": "sushi_07",
				"frames": [
					{
						"id": "5fdaabb7-3844-11eb-8f2a-691434c588b9",
						"type": "image",
						"ext": "png",
						"image_name": "sushi_07_hook",
						"data_path": "image/hook/sushi_07_hook.png",
						"folder_name": "hook",
						"width": 240,
						"height": 1115
					}
				],
				"duration": "1"
			},
			{
				"name": "sushi_08",
				"frames": [
					{
						"id": "5fdaabb8-3844-11eb-8f2a-691434c588b9",
						"type": "image",
						"ext": "png",
						"image_name": "sushi_08_hook",
						"data_path": "image/hook/sushi_08_hook.png",
						"folder_name": "hook",
						"width": 240,
						"height": 1115
					}
				],
				"duration": "1"
			},
			{
				"name": "sushi_09",
				"frames": [
					{
						"id": "5fdaabb9-3844-11eb-8f2a-691434c588b9",
						"type": "image",
						"ext": "png",
						"image_name": "sushi_09_hook",
						"data_path": "image/hook/sushi_09_hook.png",
						"folder_name": "hook",
						"width": 240,
						"height": 1115
					}
				],
				"duration": "1"
			},
			{
				"name": "sushi_10",
				"frames": [
					{
						"id": "5fdad2c0-3844-11eb-8f2a-691434c588b9",
						"type": "image",
						"ext": "png",
						"image_name": "sushi_10_hook",
						"data_path": "image/hook/sushi_10_hook.png",
						"folder_name": "hook",
						"width": 240,
						"height": 1115
					}
				],
				"duration": "1"
			},
			{
				"name": "sushi_11",
				"frames": [
					{
						"id": "5fdad2c1-3844-11eb-8f2a-691434c588b9",
						"type": "image",
						"ext": "png",
						"image_name": "sushi_11_hook",
						"data_path": "image/hook/sushi_11_hook.png",
						"folder_name": "hook",
						"width": 240,
						"height": 1115
					}
				],
				"duration": "1"
			},
			{
				"name": "sushi_12",
				"frames": [
					{
						"id": "5fdaf9d0-3844-11eb-8f2a-691434c588b9",
						"type": "image",
						"ext": "png",
						"image_name": "sushi_12_hook",
						"data_path": "image/hook/sushi_12_hook.png",
						"folder_name": "hook",
						"width": 240,
						"height": 1115
					}
				],
				"duration": "1"
			},
			{
				"name": "sushi_13",
				"frames": [
					{
						"id": "5fdaf9d1-3844-11eb-8f2a-691434c588b9",
						"type": "image",
						"ext": "png",
						"image_name": "sushi_13_hook",
						"data_path": "image/hook/sushi_13_hook.png",
						"folder_name": "hook",
						"width": 240,
						"height": 1115
					}
				],
				"duration": "1"
			},
			{
				"name": "sushi_14",
				"frames": [
					{
						"id": "5fdaf9d2-3844-11eb-8f2a-691434c588b9",
						"type": "image",
						"ext": "png",
						"image_name": "sushi_14_hook",
						"data_path": "image/hook/sushi_14_hook.png",
						"folder_name": "hook",
						"width": 240,
						"height": 1115
					}
				],
				"duration": "1"
			},
			{
				"name": "sushi_15",
				"frames": [
					{
						"id": "5fdaf9d3-3844-11eb-8f2a-691434c588b9",
						"type": "image",
						"ext": "png",
						"image_name": "sushi_15_hook",
						"data_path": "image/hook/sushi_15_hook.png",
						"folder_name": "hook",
						"width": 240,
						"height": 1115
					}
				],
				"duration": "1"
			},
			{
				"name": "sushi_16",
				"frames": [
					{
						"id": "5fdaf9d4-3844-11eb-8f2a-691434c588b9",
						"type": "image",
						"ext": "png",
						"image_name": "sushi_16_hook",
						"data_path": "image/hook/sushi_16_hook.png",
						"folder_name": "hook",
						"width": 240,
						"height": 1115
					}
				],
				"duration": "1"
			},
			{
				"name": "sushi_17",
				"frames": [
					{
						"id": "5fdaf9d5-3844-11eb-8f2a-691434c588b9",
						"type": "image",
						"ext": "png",
						"image_name": "sushi_17_hook",
						"data_path": "image/hook/sushi_17_hook.png",
						"folder_name": "hook",
						"width": 240,
						"height": 1115
					}
				],
				"duration": "1"
			},
			{
				"name": "sushi_18",
				"frames": [
					{
						"id": "5fdaf9d6-3844-11eb-8f2a-691434c588b9",
						"type": "image",
						"ext": "png",
						"image_name": "sushi_18_hook",
						"data_path": "image/hook/sushi_18_hook.png",
						"folder_name": "hook",
						"width": 240,
						"height": 1115
					}
				],
				"duration": "1"
			},
			{
				"name": "sushi_19",
				"frames": [
					{
						"id": "5fdaf9d7-3844-11eb-8f2a-691434c588b9",
						"type": "image",
						"ext": "png",
						"image_name": "sushi_19_hook",
						"data_path": "image/hook/sushi_19_hook.png",
						"folder_name": "hook",
						"width": 240,
						"height": 1115
					}
				],
				"duration": "1"
			},
			{
				"name": "sushi_20",
				"frames": [
					{
						"id": "5fdaf9d8-3844-11eb-8f2a-691434c588b9",
						"type": "image",
						"ext": "png",
						"image_name": "sushi_20_hook",
						"data_path": "image/hook/sushi_20_hook.png",
						"folder_name": "hook",
						"width": 240,
						"height": 1115
					}
				],
				"duration": "1"
			},
			{
				"name": "sushi_21",
				"frames": [
					{
						"id": "5fdaf9d9-3844-11eb-8f2a-691434c588b9",
						"type": "image",
						"ext": "png",
						"image_name": "sushi_21_hook",
						"data_path": "image/hook/sushi_21_hook.png",
						"folder_name": "hook",
						"width": 240,
						"height": 1115
					}
				],
				"duration": "1"
			},
			{
				"name": "sushi_22",
				"frames": [
					{
						"id": "5fdaf9da-3844-11eb-8f2a-691434c588b9",
						"type": "image",
						"ext": "png",
						"image_name": "sushi_22_hook",
						"data_path": "image/hook/sushi_22_hook.png",
						"folder_name": "hook",
						"width": 240,
						"height": 1115
					}
				],
				"duration": "1"
			},
			{
				"name": "sushi_23",
				"frames": [
					{
						"id": "5fdaf9db-3844-11eb-8f2a-691434c588b9",
						"type": "image",
						"ext": "png",
						"image_name": "sushi_23_hook",
						"data_path": "image/hook/sushi_23_hook.png",
						"folder_name": "hook",
						"width": 240,
						"height": 1115
					}
				],
				"duration": "1"
			},
			{
				"name": "sushi_24",
				"frames": [
					{
						"id": "5fdaf9dc-3844-11eb-8f2a-691434c588b9",
						"type": "image",
						"ext": "png",
						"image_name": "sushi_24_hook",
						"data_path": "image/hook/sushi_24_hook.png",
						"folder_name": "hook",
						"width": 240,
						"height": 1115
					}
				],
				"duration": "1"
			},
			{
				"name": "sushi_25",
				"frames": [
					{
						"id": "5fdaf9dd-3844-11eb-8f2a-691434c588b9",
						"type": "image",
						"ext": "png",
						"image_name": "sushi_25_hook",
						"data_path": "image/hook/sushi_25_hook.png",
						"folder_name": "hook",
						"width": 240,
						"height": 1115
					}
				],
				"duration": "1"
			},
			{
				"name": "sushi_26",
				"frames": [
					{
						"id": "5fdaf9de-3844-11eb-8f2a-691434c588b9",
						"type": "image",
						"ext": "png",
						"image_name": "sushi_26_hook",
						"data_path": "image/hook/sushi_26_hook.png",
						"folder_name": "hook",
						"width": 240,
						"height": 1115
					}
				],
				"duration": "1"
			},
			{
				"name": "sushi_27",
				"frames": [
					{
						"id": "11282c80-3ab1-11eb-88ce-4398f8fb02e4",
						"type": "image",
						"ext": "png",
						"image_name": "sushi_27_hook",
						"data_path": "image/hook/sushi_27_hook.png",
						"folder_name": "hook",
						"width": 240,
						"height": 1115
					}
				],
				"duration": "1"
			},
			{
				"name": "sushi_28",
				"frames": [
					{
						"id": "11282c81-3ab1-11eb-88ce-4398f8fb02e4",
						"type": "image",
						"ext": "png",
						"image_name": "sushi_28_hook",
						"data_path": "image/hook/sushi_28_hook.png",
						"folder_name": "hook",
						"width": 240,
						"height": 1115
					}
				],
				"duration": "1"
			},
			{
				"name": "sushi_29",
				"frames": [
					{
						"id": "11282c82-3ab1-11eb-88ce-4398f8fb02e4",
						"type": "image",
						"ext": "png",
						"image_name": "sushi_29_hook",
						"data_path": "image/hook/sushi_29_hook.png",
						"folder_name": "hook",
						"width": 240,
						"height": 1115
					}
				],
				"duration": "1"
			},
			{
				"name": "sushi_30",
				"frames": [
					{
						"id": "11282c83-3ab1-11eb-88ce-4398f8fb02e4",
						"type": "image",
						"ext": "png",
						"image_name": "sushi_30_hook",
						"data_path": "image/hook/sushi_30_hook.png",
						"folder_name": "hook",
						"width": 240,
						"height": 1115
					}
				],
				"duration": "1"
			},
			{
				"name": "sushi_31",
				"frames": [
					{
						"id": "11282c84-3ab1-11eb-88ce-4398f8fb02e4",
						"type": "image",
						"ext": "png",
						"image_name": "sushi_31_hook",
						"data_path": "image/hook/sushi_31_hook.png",
						"folder_name": "hook",
						"width": 240,
						"height": 1115
					}
				],
				"duration": "1"
			},
			{
				"name": "sushi_32",
				"frames": [
					{
						"id": "11285390-3ab1-11eb-88ce-4398f8fb02e4",
						"type": "image",
						"ext": "png",
						"image_name": "sushi_32_hook",
						"data_path": "image/hook/sushi_32_hook.png",
						"folder_name": "hook",
						"width": 240,
						"height": 1115
					}
				],
				"duration": "1"
			},
			{
				"name": "I001",
				"frames": [
					{
						"id": "119e7700-434e-11eb-aa2b-8d615be65180",
						"type": "image",
						"ext": "png",
						"image_name": "sushi_I001_hook",
						"data_path": "image/hook/sushi_I001_hook.png",
						"folder_name": "hook",
						"width": 240,
						"height": 1115
					}
				],
				"duration": "1"
			},
			{
				"name": "I002",
				"frames": [
					{
						"id": "119e7701-434e-11eb-aa2b-8d615be65180",
						"type": "image",
						"ext": "png",
						"image_name": "sushi_I002_hook",
						"data_path": "image/hook/sushi_I002_hook.png",
						"folder_name": "hook",
						"width": 240,
						"height": 1115
					}
				],
				"duration": "1"
			},
			{
				"name": "I003",
				"frames": [
					{
						"id": "119e7702-434e-11eb-aa2b-8d615be65180",
						"type": "image",
						"ext": "png",
						"image_name": "sushi_I003_hook",
						"data_path": "image/hook/sushi_I003_hook.png",
						"folder_name": "hook",
						"width": 240,
						"height": 1115
					}
				],
				"duration": "1"
			}
		],
		"default": null
	},
	"images": {
		"list": [
			{
				"id": "0013faf0-2ee5-11eb-97ea-214003daca8d",
				"type": "image",
				"ext": "png",
				"image_name": "hook_close",
				"data_path": "image/hook/hook_close.png",
				"folder_name": "hook",
				"width": 240,
				"height": 1115
			},
			{
				"id": "0013faf1-2ee5-11eb-97ea-214003daca8d",
				"type": "image",
				"ext": "png",
				"image_name": "hook_open",
				"data_path": "image/hook/hook_open.png",
				"folder_name": "hook",
				"width": 240,
				"height": 1115
			},
			{
				"id": "5fdaabb0-3844-11eb-8f2a-691434c588b9",
				"type": "image",
				"ext": "png",
				"image_name": "sushi_00_hook",
				"data_path": "image/hook/sushi_00_hook.png",
				"folder_name": "hook",
				"width": 240,
				"height": 1115
			},
			{
				"id": "5fdaabb1-3844-11eb-8f2a-691434c588b9",
				"type": "image",
				"ext": "png",
				"image_name": "sushi_01_hook",
				"data_path": "image/hook/sushi_01_hook.png",
				"folder_name": "hook",
				"width": 240,
				"height": 1115
			},
			{
				"id": "5fdaabb2-3844-11eb-8f2a-691434c588b9",
				"type": "image",
				"ext": "png",
				"image_name": "sushi_02_hook",
				"data_path": "image/hook/sushi_02_hook.png",
				"folder_name": "hook",
				"width": 240,
				"height": 1115
			},
			{
				"id": "5fdaabb3-3844-11eb-8f2a-691434c588b9",
				"type": "image",
				"ext": "png",
				"image_name": "sushi_03_hook",
				"data_path": "image/hook/sushi_03_hook.png",
				"folder_name": "hook",
				"width": 240,
				"height": 1115
			},
			{
				"id": "5fdaabb4-3844-11eb-8f2a-691434c588b9",
				"type": "image",
				"ext": "png",
				"image_name": "sushi_04_hook",
				"data_path": "image/hook/sushi_04_hook.png",
				"folder_name": "hook",
				"width": 240,
				"height": 1115
			},
			{
				"id": "5fdaabb5-3844-11eb-8f2a-691434c588b9",
				"type": "image",
				"ext": "png",
				"image_name": "sushi_05_hook",
				"data_path": "image/hook/sushi_05_hook.png",
				"folder_name": "hook",
				"width": 240,
				"height": 1115
			},
			{
				"id": "5fdaabb6-3844-11eb-8f2a-691434c588b9",
				"type": "image",
				"ext": "png",
				"image_name": "sushi_06_hook",
				"data_path": "image/hook/sushi_06_hook.png",
				"folder_name": "hook",
				"width": 240,
				"height": 1115
			},
			{
				"id": "5fdaabb7-3844-11eb-8f2a-691434c588b9",
				"type": "image",
				"ext": "png",
				"image_name": "sushi_07_hook",
				"data_path": "image/hook/sushi_07_hook.png",
				"folder_name": "hook",
				"width": 240,
				"height": 1115
			},
			{
				"id": "5fdaabb8-3844-11eb-8f2a-691434c588b9",
				"type": "image",
				"ext": "png",
				"image_name": "sushi_08_hook",
				"data_path": "image/hook/sushi_08_hook.png",
				"folder_name": "hook",
				"width": 240,
				"height": 1115
			},
			{
				"id": "5fdaabb9-3844-11eb-8f2a-691434c588b9",
				"type": "image",
				"ext": "png",
				"image_name": "sushi_09_hook",
				"data_path": "image/hook/sushi_09_hook.png",
				"folder_name": "hook",
				"width": 240,
				"height": 1115
			},
			{
				"id": "5fdad2c0-3844-11eb-8f2a-691434c588b9",
				"type": "image",
				"ext": "png",
				"image_name": "sushi_10_hook",
				"data_path": "image/hook/sushi_10_hook.png",
				"folder_name": "hook",
				"width": 240,
				"height": 1115
			},
			{
				"id": "5fdad2c1-3844-11eb-8f2a-691434c588b9",
				"type": "image",
				"ext": "png",
				"image_name": "sushi_11_hook",
				"data_path": "image/hook/sushi_11_hook.png",
				"folder_name": "hook",
				"width": 240,
				"height": 1115
			},
			{
				"id": "5fdaf9d0-3844-11eb-8f2a-691434c588b9",
				"type": "image",
				"ext": "png",
				"image_name": "sushi_12_hook",
				"data_path": "image/hook/sushi_12_hook.png",
				"folder_name": "hook",
				"width": 240,
				"height": 1115
			},
			{
				"id": "5fdaf9d1-3844-11eb-8f2a-691434c588b9",
				"type": "image",
				"ext": "png",
				"image_name": "sushi_13_hook",
				"data_path": "image/hook/sushi_13_hook.png",
				"folder_name": "hook",
				"width": 240,
				"height": 1115
			},
			{
				"id": "5fdaf9d2-3844-11eb-8f2a-691434c588b9",
				"type": "image",
				"ext": "png",
				"image_name": "sushi_14_hook",
				"data_path": "image/hook/sushi_14_hook.png",
				"folder_name": "hook",
				"width": 240,
				"height": 1115
			},
			{
				"id": "5fdaf9d3-3844-11eb-8f2a-691434c588b9",
				"type": "image",
				"ext": "png",
				"image_name": "sushi_15_hook",
				"data_path": "image/hook/sushi_15_hook.png",
				"folder_name": "hook",
				"width": 240,
				"height": 1115
			},
			{
				"id": "5fdaf9d4-3844-11eb-8f2a-691434c588b9",
				"type": "image",
				"ext": "png",
				"image_name": "sushi_16_hook",
				"data_path": "image/hook/sushi_16_hook.png",
				"folder_name": "hook",
				"width": 240,
				"height": 1115
			},
			{
				"id": "5fdaf9d5-3844-11eb-8f2a-691434c588b9",
				"type": "image",
				"ext": "png",
				"image_name": "sushi_17_hook",
				"data_path": "image/hook/sushi_17_hook.png",
				"folder_name": "hook",
				"width": 240,
				"height": 1115
			},
			{
				"id": "5fdaf9d6-3844-11eb-8f2a-691434c588b9",
				"type": "image",
				"ext": "png",
				"image_name": "sushi_18_hook",
				"data_path": "image/hook/sushi_18_hook.png",
				"folder_name": "hook",
				"width": 240,
				"height": 1115
			},
			{
				"id": "5fdaf9d7-3844-11eb-8f2a-691434c588b9",
				"type": "image",
				"ext": "png",
				"image_name": "sushi_19_hook",
				"data_path": "image/hook/sushi_19_hook.png",
				"folder_name": "hook",
				"width": 240,
				"height": 1115
			},
			{
				"id": "5fdaf9d8-3844-11eb-8f2a-691434c588b9",
				"type": "image",
				"ext": "png",
				"image_name": "sushi_20_hook",
				"data_path": "image/hook/sushi_20_hook.png",
				"folder_name": "hook",
				"width": 240,
				"height": 1115
			},
			{
				"id": "5fdaf9d9-3844-11eb-8f2a-691434c588b9",
				"type": "image",
				"ext": "png",
				"image_name": "sushi_21_hook",
				"data_path": "image/hook/sushi_21_hook.png",
				"folder_name": "hook",
				"width": 240,
				"height": 1115
			},
			{
				"id": "5fdaf9da-3844-11eb-8f2a-691434c588b9",
				"type": "image",
				"ext": "png",
				"image_name": "sushi_22_hook",
				"data_path": "image/hook/sushi_22_hook.png",
				"folder_name": "hook",
				"width": 240,
				"height": 1115
			},
			{
				"id": "5fdaf9db-3844-11eb-8f2a-691434c588b9",
				"type": "image",
				"ext": "png",
				"image_name": "sushi_23_hook",
				"data_path": "image/hook/sushi_23_hook.png",
				"folder_name": "hook",
				"width": 240,
				"height": 1115
			},
			{
				"id": "5fdaf9dc-3844-11eb-8f2a-691434c588b9",
				"type": "image",
				"ext": "png",
				"image_name": "sushi_24_hook",
				"data_path": "image/hook/sushi_24_hook.png",
				"folder_name": "hook",
				"width": 240,
				"height": 1115
			},
			{
				"id": "5fdaf9dd-3844-11eb-8f2a-691434c588b9",
				"type": "image",
				"ext": "png",
				"image_name": "sushi_25_hook",
				"data_path": "image/hook/sushi_25_hook.png",
				"folder_name": "hook",
				"width": 240,
				"height": 1115
			},
			{
				"id": "5fdaf9de-3844-11eb-8f2a-691434c588b9",
				"type": "image",
				"ext": "png",
				"image_name": "sushi_26_hook",
				"data_path": "image/hook/sushi_26_hook.png",
				"folder_name": "hook",
				"width": 240,
				"height": 1115
			},
			{
				"id": "11282c80-3ab1-11eb-88ce-4398f8fb02e4",
				"type": "image",
				"ext": "png",
				"image_name": "sushi_27_hook",
				"data_path": "image/hook/sushi_27_hook.png",
				"folder_name": "hook",
				"width": 240,
				"height": 1115
			},
			{
				"id": "11282c81-3ab1-11eb-88ce-4398f8fb02e4",
				"type": "image",
				"ext": "png",
				"image_name": "sushi_28_hook",
				"data_path": "image/hook/sushi_28_hook.png",
				"folder_name": "hook",
				"width": 240,
				"height": 1115
			},
			{
				"id": "11282c82-3ab1-11eb-88ce-4398f8fb02e4",
				"type": "image",
				"ext": "png",
				"image_name": "sushi_29_hook",
				"data_path": "image/hook/sushi_29_hook.png",
				"folder_name": "hook",
				"width": 240,
				"height": 1115
			},
			{
				"id": "11282c83-3ab1-11eb-88ce-4398f8fb02e4",
				"type": "image",
				"ext": "png",
				"image_name": "sushi_30_hook",
				"data_path": "image/hook/sushi_30_hook.png",
				"folder_name": "hook",
				"width": 240,
				"height": 1115
			},
			{
				"id": "11282c84-3ab1-11eb-88ce-4398f8fb02e4",
				"type": "image",
				"ext": "png",
				"image_name": "sushi_31_hook",
				"data_path": "image/hook/sushi_31_hook.png",
				"folder_name": "hook",
				"width": 240,
				"height": 1115
			},
			{
				"id": "11285390-3ab1-11eb-88ce-4398f8fb02e4",
				"type": "image",
				"ext": "png",
				"image_name": "sushi_32_hook",
				"data_path": "image/hook/sushi_32_hook.png",
				"folder_name": "hook",
				"width": 240,
				"height": 1115
			},
			{
				"id": "119e7700-434e-11eb-aa2b-8d615be65180",
				"type": "image",
				"ext": "png",
				"image_name": "sushi_I001_hook",
				"data_path": "image/hook/sushi_I001_hook.png",
				"folder_name": "hook",
				"width": 240,
				"height": 1115
			},
			{
				"id": "119e7701-434e-11eb-aa2b-8d615be65180",
				"type": "image",
				"ext": "png",
				"image_name": "sushi_I002_hook",
				"data_path": "image/hook/sushi_I002_hook.png",
				"folder_name": "hook",
				"width": 240,
				"height": 1115
			},
			{
				"id": "119e7702-434e-11eb-aa2b-8d615be65180",
				"type": "image",
				"ext": "png",
				"image_name": "sushi_I003_hook",
				"data_path": "image/hook/sushi_I003_hook.png",
				"folder_name": "hook",
				"width": 240,
				"height": 1115
			},
			{
				"id": "119e7703-434e-11eb-aa2b-8d615be65180",
				"type": "image",
				"ext": "png",
				"image_name": "sushi_I004_hook",
				"data_path": "image/hook/sushi_I004_hook.png",
				"folder_name": "hook",
				"width": 240,
				"height": 1115
			}
		]
	},
	"image": "0013faf0-2ee5-11eb-97ea-214003daca8d",
	"shapes": [
		{
			"type": "rect",
			"points": [
				[0,0],
				[80,45]
			]
		}
	],
	"collisionMask": [
		"ENEMY_OBJECT"
	],
	"event": "<xml xmlns=\"http://www.w3.org/1999/xhtml\"><variables><variable type=\"\" id=\"%q0p)cvwjAdCtFvr+orf\">variable</variable></variables></xml>",
	"variables": [
		{
			"name": "variable",
			"description": "",
			"public": true,
			"init": false
		}
	],
	"userCode": {
		"global": [
			" "
		],
		"pre-super": [
			"        "
		],
		"init": [
			"        let vars = [\"container\"];",
			"        verify(settings, vars);",
			"        game.util.spread(this, settings, vars);",
			"        this.speed = 15;",
			"        this.buff = 1;",
			"        if(this.container.playerItem.includes(\"I000\")){",
			"            let level = game.user.userData.item[\"I000\"];",
			"            let itemInfo = game.controller.data.getDataItemInfo();",
			"            for(let i in game.controller.data.getDataItemInfo()){",
			"                if(itemInfo[i].id == \"I000\"){",
			"                    this.buff = itemInfo[i].buff[level-1];",
			"                }",
			"            }",
			"        } /*else {",
			"            this.speed = 15;",
			"        }*/",
			"        ",
			"        this.body.getShape().translate(0, -this.height/2);",
			"        ",
			"        this.naik = false;",
			"        this.grab = false;",
			"        this.dapet = true;",
			"        this.buffFunc = null;",
			"        this.speed *= this.buff;"
		],
		"update": [
			"        if(this.pos.y <= 1800 && this.naik){",
			"            //this.speed *= buff;",
			"            this.naikturun(1);",
			"            this.grab = true;",
			"            if(gameSnacks_API){",
			"                if(GAMESNACKS.isAudioEnabled()){",
			"                    me.audio.stop(\"sfx-hooknaik\");",
			"                    me.audio.play(\"sfx-hookturun\", false, null, 0.5);",
			"                }",
			"            }else{",
			"                me.audio.stop(\"sfx-hooknaik\");",
			"                me.audio.play(\"sfx-hookturun\", false, null, 0.5);",
			"            }",
			"        }",
			"        ",
			"        if(this.pos.y > 2690){",
			"            this.naikturun(2);",
			"            this.setCurrentAnimation('open');",
			"            me.audio.stop(\"sfx-hookturun\");",
			"        }"
		],
		"onCollision": [
			"        isSolid = false;",
			"        ",
			"        if(other.body.collisionType === game.collisionTypes.ENEMY_OBJECT){",
			"            if(this.dapet){",
			"                this.dapet = false;",
			"                ",
			"                //this.speed = 15;",
			"                this.naikturun(1);",
			"                ",
			"                if(!this.grab){",
			"                    if(gameSnacks_API){",
			"                        if(GAMESNACKS.isAudioEnabled()){",
			"                            me.audio.stop(\"sfx-hooknaik\");",
			"                            me.audio.stop(\"sfx-hookturun\");",
			"                            me.audio.play(\"sfx-hookgotsushi\");",
			"                            me.audio.play(\"sfx-deliverysushi2\");",
			"                        }",
			"                    }else{",
			"                        me.audio.stop(\"sfx-hooknaik\");",
			"                        me.audio.stop(\"sfx-hookturun\");",
			"                        me.audio.play(\"sfx-hookgotsushi\");",
			"                        me.audio.play(\"sfx-deliverysushi2\");",
			"                    }",
			"                        ",
			"                    ",
			"                    if(this.container.playerItem.includes(other.susitipe)){",
			"                        this.buffFunc = other.Buff.bind(this);",
			"                        this.setCurrentAnimation(other.susitipe, () => {",
			"                            this.grab = true;",
			"                            return false;",
			"                        }, true);",
			"                    }",
			"                    else{",
			"                        this.container.nempatinsushi(other.susitipe);",
			"                        this.setCurrentAnimation(other.susitipe, () => {",
			"                            this.grab = true;",
			"                            return false;",
			"                        }, true);",
			"                    }",
			"",
			"                }",
			"                ",
			"                let limitTimeOut = true;",
			"                me.timer.setTimeout(()=>{",
			"                    if(limitTimeOut){",
			"                        limitTimeOut = false;",
			"                        this.dapet = true;",
			"                    }",
			"                }, 1000);",
			"            }",
			"\t    }"
		],
		"onDraw": [
			"        "
		],
		"onActivateEvent": [
			"        "
		],
		"onDeactivateEvent": [
			"        "
		],
		"userFunction": [
			"    cobagerak : function(){",
			"        if(!this.naik){",
			"            this.naikturun(0);",
			"            if(gameSnacks_API){",
			"                if(GAMESNACKS.isAudioEnabled()){",
			"                    me.audio.play(\"sfx-hooknaik\", false, null, 0.5);",
			"                }",
			"            }else{",
			"                me.audio.play(\"sfx-hooknaik\", false, null, 0.5);",
			"            }",
			"        }",
			"    },",
			"    ",
			"    naikturun : function(arah){",
			"        switch (arah){",
			"        case 0: ",
			"                this.container.play = false;",
			"                this.body.vel.y = -this.speed;",
			"                this.naik = true;",
			"        break;",
			"        case 1:",
			"                this.body.vel.y = this.speed;",
			"                //this.setCurrentAnimation('close');",
			"                //this.naik = false;",
			"        break;",
			"        case 2:",
			"            let limitTimeOut = true;",
			"                me.timer.setTimeout(()=>{",
			"                    if(limitTimeOut){",
			"                        limitTimeOut = false;",
			"                        this.container.play = true;",
			"                    }",
			"                }, 100);",
			"                this.pos.set(this.pos.x, 2690, 20);",
			"                this.body.vel.y = 0; ",
			"                this.naik = false;",
			"                /*if(this.container.playerItem.includes(\"I000\")){",
			"                    this.speed = 20;",
			"                } else {",
			"                    this.speed = 15;",
			"                }*/",
			"                this.grab = false;",
			"                if(this.buffFunc != null){",
			"                    this.buffFunc();",
			"                    this.buffFunc = null;",
			"                }",
			"",
			"        break;",
			"        default:",
			"        }",
			"    },"
		],
		"global-end": [
			" "
		]
	},
	"frameWidth": 299,
	"frameHeight": 1154,
	"width": 100,
	"height": 100,
	"hasBody": true,
	"alpha": 1,
	"flipX": false,
	"flipY": false,
	"floating": true,
	"relativeX": "0",
	"relativeY": "0",
	"anchorX": 0.5,
	"anchorY": 0.5,
	"followed": "NONE",
	"alwaysUpdate": true,
	"updateWhenPaused": false,
	"isPersistent": false,
	"click": false,
	"keyUp": false,
	"keyDown": false,
	"collisionCheck": true,
	"gravityX": 0,
	"gravityY": 0,
	"collisionType": "PLAYER_OBJECT"
}