{
	"type": "object",
	"version": "0.0.2",
	"animations": {
		"list": [
			{
				"name": "time-counter",
				"frames": [
					{
						"id": "7a004801-351b-11eb-9d81-39261e810569",
						"type": "image",
						"ext": "png",
						"image_name": "time_counter",
						"data_path": "image/gameplay/time_counter.png",
						"folder_name": "gameplay",
						"width": 998,
						"height": 54
					}
				],
				"duration": "100"
			},
			{
				"name": "time-frame",
				"frames": [
					{
						"id": "7a004802-351b-11eb-9d81-39261e810569",
						"type": "image",
						"ext": "png",
						"image_name": "time_frame",
						"data_path": "image/gameplay/time_frame.png",
						"folder_name": "gameplay",
						"width": 1038,
						"height": 95
					}
				],
				"duration": "100"
			}
		],
		"default": "time-counter"
	},
	"images": {
		"list": [
			{
				"id": "7a004801-351b-11eb-9d81-39261e810569",
				"type": "image",
				"ext": "png",
				"image_name": "time_counter",
				"data_path": "image/gameplay/time_counter.png",
				"folder_name": "gameplay",
				"width": 1024,
				"height": 64
			},
			{
				"id": "7a004802-351b-11eb-9d81-39261e810569",
				"type": "image",
				"ext": "png",
				"image_name": "time_frame",
				"data_path": "image/gameplay/time_frame.png",
				"folder_name": "gameplay",
				"width": 1037,
				"height": 75
			}
		]
	},
	"image": "7a004801-351b-11eb-9d81-39261e810569",
	"shapes": [],
	"collisionMask": [
		"NO_OBJECT"
	],
	"event": "<xml xmlns=\"http://www.w3.org/1999/xhtml\"><variables><variable type=\"\" id=\"di?#%fcyP=GAfk}qwLv#\">variable</variable></variables></xml>",
	"variables": [
		{
			"name": "variable",
			"description": "",
			"public": true,
			"init": false
		}
	],
	"userCode": {
		"global": [
			" "
		],
		"pre-super": [
			"        "
		],
		"init": [
			"        verify(settings, [\"container\"]);",
			"        game.util.spread(this, settings, [\"container\"]);",
			"        ",
			"        this.duration       = 120;",
			"        this.durationText   = 60;",
			"        this.reset = true;",
			"        ",
			"        this.text = game.assetBundle.sushifontputih(me.game.viewport.width/2, this.pos.y-35, {",
			"                size : 1,",
			"                text : \"\",",
			"                textAlign : 'center',",
			"                textBaseAlign : 'middle'",
			"            }); ",
			"        me.game.world.addChild(this.text, 5);"
		],
		"update": [
			"        "
		],
		"onCollision": [
			"        "
		],
		"onDraw": [
			"        "
		],
		"onActivateEvent": [
			"        "
		],
		"onDeactivateEvent": [
			"        me.timer.clearInterval(this.interval);"
		],
		"userFunction": [
			"    timeFunc: function(callback){",
			"        this.interval = me.timer.setInterval(()=>{",
			"            if(this.pos == undefined){",
			"                ",
			"            }else{",
			"                this.pos.x -= 8.5;",
			"                this.duration -= 1;",
			"                this.durationText -= 1;",
			"                ",
			"                if(this.duration < 120 && this.duration >= 70){",
			"                    this.container.textTime.setText(\"01:\"+this.durationText);",
			"                } else if(this.duration < 70 && this.duration >= 60){",
			"                    this.container.textTime.setText(\"01:0\"+this.durationText);",
			"                } else if(this.duration < 60 && this.duration >= 9){",
			"                    this.container.textTime.setText(\"00:\"+this.durationText);",
			"                } else if(this.duration < 9 && this.duration > 0){",
			"                    this.container.textTime.setText(\"00:0\"+this.durationText);",
			"                }",
			"                if(this.duration <= 0){",
			"                    this.container.tweenBarTime();",
			"                    this.container.textTime.setText(\"00:00\");",
			"                    me.timer.clearInterval(this.interval);",
			"                    callback();",
			"                }",
			"                ",
			"                if(this.durationText <= 0){",
			"                    this.durationText += 60;",
			"                }",
			"            }",
			"        },1000);",
			"    },"
		],
		"global-end": [
			" "
		]
	},
	"frameWidth": 100,
	"frameHeight": 100,
	"width": 100,
	"height": 100,
	"hasBody": true,
	"alpha": 1,
	"flipX": false,
	"flipY": false,
	"floating": true,
	"relativeX": "0.5",
	"relativeY": "0.5",
	"anchorX": 0.5,
	"anchorY": 0.5,
	"followed": "NONE",
	"alwaysUpdate": true,
	"updateWhenPaused": false,
	"isPersistent": false,
	"click": false,
	"keyUp": false,
	"keyDown": false,
	"collisionCheck": true,
	"gravityX": 0,
	"gravityY": 0,
	"collisionType": "NO_OBJECT"
}