{
	"type": "text",
	"version": "0.0.2",
	"userCode": {
		"global": [
			"const DATABASE_DEBUG = true;",
			"const DATABASE_TEST_FULL = true;",
			"const DATABASE_FACEBOOK = false;",
			"const BG_CSS = false;",
			"const gameSnacks_API = false;",
			"var telahSelesaiTuttorial = false;",
			"var mainMenu = true;",
			"var inGamePlay = false;",
			"var iniDipause = true;"
		]
	}
}