{
	"type": "text",
	"version": "0.0.2",
	"userCode": {
		"global": [
			"game.data = {};",
			"",
			"game.data.initUser = {",
			"    device: {",
			"        platform    : \"\",",
			"\t    os          :\"\",",
			"\t    lastlogin\t:0,",
			"\t    deviceid\t:\"\",",
			"\t    haveLogin   :0",
			"    },",
			"    userData: {",
			"        ID              :\"\",",
			"        name\t\t    :\"\",",
			"\t    score\t\t    :0,",
			"\t    highScore\t\t:0,",
			"\t    bank            :0,",
			"\t    mute            :false,",
			"\t    item            :{},",
			"\t    haveTutorial    :0",
			"    }",
			"};"
		]
	}
}