{
	"type": "text",
	"version": "0.0.2",
	"userCode": {
		"global": [
			"game.data = {};",
			"game.controller = {};",
			"game.user = null;",
			"",
			"var sub = me.event.subscribe(me.event.LOADER_COMPLETE, function(){",
			"    game.data.itemInfo = me.loader.getJSON(\"ItemInfo\");",
			"    game.data.dataGamePlay = me.loader.getJSON(\"DataSushiGameplay\");",
			"    game.controller.data = new DataController();",
			"    me.timer.maxfps = 30;",
			"    ",
			"    me.event.unsubscribe(sub);",
			"});"
		]
	}
}