{
	"type": "object",
	"version": "0.0.2",
	"layers": [],
	"collisionMask": [
		"ALL_OBJECT"
	],
	"event": "<xml xmlns=\"http://www.w3.org/1999/xhtml\"><variables><variable type=\"\" id=\"/HXhk7/6ZZ6Bi2UKCpUy\">variable</variable></variables></xml>",
	"variables": [
		{
			"name": "variable",
			"description": "",
			"public": true,
			"init": false
		}
	],
	"userCode": {
		"global": [
			" "
		],
		"pre-super": [
			"        "
		],
		"init": [
			"        verify(settings, [\"pesanan\"]);",
			"        game.util.spread(this, settings, [\"pesanan\"]);",
			"        ",
			"        this.sushi = [];",
			"        this.sushi = this.pesanan;",
			"        ",
			"        //console.log(Object.keys(this.sushi).length);",
			"        ",
			"        if(Object.keys(this.sushi).length == 0){",
			"        }",
			"        else{",
			"        //console.log(this.sushi);",
			"        ",
			"        ",
			"            if(Object.keys(this.sushi).length == 1){",
			"                ",
			"            var delivery1 = me.pool.pull(\"sushimenuBase\", 0, 0);",
			"            this.addChild( delivery1, 14);",
			"            delivery1.pesanansushi(this.sushi[0]);",
			"            delivery1.sushiturun();",
			"            ",
			"            }",
			"            ",
			"            if(Object.keys(this.sushi).length == 2){",
			"                ",
			"            var delivery2 = me.pool.pull(\"sushimenuBase\", 0, 0);",
			"            this.addChild( delivery2, 14);",
			"            delivery2.pesanansushi(this.sushi[0]);",
			"            delivery2.sushiturun();",
			"            ",
			"            var delivery3 = me.pool.pull(\"sushimenuBase\", 130, 0);",
			"            this.addChild( delivery3, 14);",
			"            delivery3.pesanansushi(this.sushi[1]);",
			"            delivery3.sushiturun();",
			"            ",
			"            }",
			"            ",
			"            if(Object.keys(this.sushi).length == 3){",
			"    ",
			"            var delivery4 = me.pool.pull(\"sushimenuBase\", 0, 0);",
			"            this.addChild( delivery4, 14);",
			"            delivery4.pesanansushi(this.sushi[0]);",
			"            delivery4.sushiturun();",
			"            ",
			"            var delivery5 = me.pool.pull(\"sushimenuBase\", 130, 0);",
			"            this.addChild( delivery5, 14);",
			"            delivery5.pesanansushi(this.sushi[1]);",
			"            delivery5.sushiturun();",
			"            ",
			"            var delivery6 = me.pool.pull(\"sushimenuBase\", 260, 0);",
			"            this.addChild( delivery6, 14);",
			"            delivery6.pesanansushi(this.sushi[2]);",
			"            delivery6.sushiturun();",
			"            ",
			"            }",
			"            ",
			"        // var effect1 = me.pool.pull(\"particle1\", 0, 0);",
			"        // this.addChild(effect1,15);",
			"        // effect1.setCurrentAnimation('Animation 1',()=>{",
			"        //     this.removeChild(effect1);",
			"        //     return false;",
			"        // });",
			"        ",
			"        // var effect2 = me.pool.pull(\"particle1\", 130, 0);",
			"        // this.addChild(effect2,15);",
			"        // effect2.setCurrentAnimation('Animation 1',()=>{",
			"        //     this.removeChild(effect2);",
			"        //     return false;",
			"        // });",
			"        ",
			"        // var effect3 = me.pool.pull(\"particle1\", 260, 0);",
			"        // this.addChild(effect3,15);",
			"        // effect3.setCurrentAnimation('Animation 1',()=>{",
			"        //     this.removeChild(effect3);",
			"        //     return false;",
			"        // });",
			"        ",
			"        var smoke = me.pool.pull(\"smoker\", 130, 0);",
			"        this.addChild(smoke,15);",
			"        smoke.setCurrentAnimation('Animation 1',()=>{",
			"            this.removeChild(smoke);",
			"            return false;",
			"        });",
			"        ",
			"        if(gameSnacks_API){",
			"            if(GAMESNACKS.isAudioEnabled()){",
			"                me.audio.play(\"sfx-deliverysushi\");",
			"            }",
			"        }else{",
			"            me.audio.play(\"sfx-deliverysushi\");",
			"        }        ",
			"        let timeOutLimit = true;",
			"        this.timeouthapus = me.timer.setTimeout(()=>{",
			"            if(timeOutLimit){    ",
			"                timeOutLimit = false;",
			"                me.game.world.removeChild(this);",
			"            }",
			"        },1000);",
			"        }"
		],
		"update": [
			"        "
		],
		"onDraw": [
			"        "
		],
		"onActivateEvent": [
			"        "
		],
		"onDeactivateEvent": [
			"        me.timer.clearTimeout(this.timeouthapus);"
		],
		"userFunction": [
			" "
		],
		"global-end": [
			" "
		]
	},
	"width": 100,
	"height": 100,
	"hasBody": false,
	"alpha": 1,
	"flipX": false,
	"flipY": false,
	"floating": false,
	"relativeX": "0",
	"relativeY": "0",
	"anchorX": 0,
	"anchorY": 0,
	"followed": "NONE",
	"alwaysUpdate": false,
	"updateWhenPaused": false,
	"isPersistent": false,
	"click": false,
	"keyUp": false,
	"keyDown": false,
	"collisionCheck": false,
	"gravityX": 0,
	"gravityY": 0.98,
	"collisionType": "ENEMY_OBJECT"
}