{
	"type": "object",
	"version": "0.0.2",
	"animations": {
		"list": [],
		"default": null
	},
	"images": {
		"list": [
			{
				"id": "f6916bb0-547e-11eb-9d84-8944a723a490",
				"type": "image",
				"ext": "png",
				"image_name": "false",
				"data_path": "image/sushi/false.png",
				"folder_name": "sushi",
				"width": 130,
				"height": 112
			}
		]
	},
	"image": "f6916bb0-547e-11eb-9d84-8944a723a490",
	"collisionMask": [
		"ALL_OBJECT"
	],
	"event": "<xml xmlns=\"http://www.w3.org/1999/xhtml\"><variables><variable type=\"\" id=\"2W9@;v2;Y%(ZiK!LJs*,\">variable</variable></variables></xml>",
	"variables": [
		{
			"name": "variable"
		}
	],
	"userCode": {
		"global": [
			""
		],
		"pre-super": [
			"        "
		],
		"init": [
			"        this.alpha = 0;"
		],
		"update": [
			"        "
		],
		"onDraw": [
			"        "
		],
		"onActivateEvent": [
			"        "
		],
		"onDeactivateEvent": [
			"        "
		],
		"userFunction": [
			"    "
		],
		"global-end": [
			""
		]
	},
	"frameWidth": 130,
	"frameHeight": 112,
	"width": 100,
	"height": 100,
	"hasBody": false,
	"alpha": 1,
	"flipX": false,
	"flipY": false,
	"floating": false,
	"relativeX": "0",
	"relativeY": "0",
	"anchorX": 0,
	"anchorY": 0,
	"followed": "NONE",
	"alwaysUpdate": false,
	"updateWhenPaused": false,
	"isPersistent": false,
	"click": false,
	"keyUp": false,
	"keyDown": false,
	"collisionCheck": false,
	"gravityX": 0,
	"gravityY": 0.98,
	"collisionType": "ENEMY_OBJECT"
}