{
	"type": "object",
	"version": "0.0.2",
	"animations": {
		"list": [],
		"default": null
	},
	"images": {
		"list": [
			{
				"id": "945288e2-2f9d-11eb-b32d-01f899ded96e",
				"type": "image",
				"ext": "png",
				"image_name": "sushi_menu_base",
				"data_path": "image/sushi/sushi_menu_base.png",
				"folder_name": "sushi",
				"width": 120,
				"height": 120
			}
		]
	},
	"image": "945288e2-2f9d-11eb-b32d-01f899ded96e",
	"shapes": [],
	"collisionMask": [
		"ALL_OBJECT"
	],
	"event": "<xml xmlns=\"http://www.w3.org/1999/xhtml\"><variables><variable type=\"\" id=\"4*!G.Bnk]yja-Q9.M?RR\">variable</variable></variables></xml>",
	"variables": [
		{
			"name": "variable",
			"description": "",
			"public": true,
			"init": false
		}
	],
	"userCode": {
		"global": [
			" "
		],
		"pre-super": [
			"        "
		],
		"init": [
			"        this.alpha = 0;"
		],
		"update": [
			"        "
		],
		"onCollision": [
			"        "
		],
		"onDraw": [
			"        "
		],
		"onActivateEvent": [
			"        "
		],
		"onDeactivateEvent": [
			"        "
		],
		"userFunction": [
			"    pesanansushi: function(x){",
			"        this.id = x;",
			"        this.changeSprite({",
			"            image: game.textureMap.get(game.imageLocation[this.id + \"_menu\"]),",
			"            region: this.id + \"_menu\"",
			"        });",
			"        this.alpha = 1;",
			"    },",
			"    ",
			"    sushiturun:function(){",
			"        this.body.friction.set(0.25, 0);",
			"        this.body.setMaxVelocity( 5, 5);",
			"        this.body.vel.y = 5;",
			"        ",
			"        let timeOutLimit = true;",
			"        var timeouthapus = me.timer.setTimeout(()=>{",
			"            if(timeOutLimit){",
			"                timeOutLimit = false;",
			"                this.body.vel.y = 0;",
			"                me.timer.clearTimeout(timeouthapus);",
			"            }",
			"        },200);",
			"    }",
			"    "
		],
		"global-end": [
			" "
		]
	},
	"frameWidth": 120,
	"frameHeight": 120,
	"width": 100,
	"height": 100,
	"hasBody": true,
	"alpha": 1,
	"flipX": false,
	"flipY": false,
	"floating": false,
	"relativeX": "0",
	"relativeY": "0",
	"anchorX": 0,
	"anchorY": 0,
	"followed": "NONE",
	"alwaysUpdate": false,
	"updateWhenPaused": false,
	"isPersistent": false,
	"click": false,
	"keyUp": false,
	"keyDown": false,
	"collisionCheck": false,
	"gravityX": 0,
	"gravityY": 0,
	"collisionType": "NO_OBJECT"
}