{
	"type": "object",
	"version": "0.0.2",
	"animations": {
		"list": [],
		"default": null
	},
	"images": {
		"list": []
	},
	"shapes": [
		{
			"type": "rect",
			"points": [
				[0,0],
				[43,43]
			]
		}
	],
	"collisionMask": [
		"PLAYER_OBJECT"
	],
	"event": "<xml xmlns=\"http://www.w3.org/1999/xhtml\"><variables><variable type=\"\" id=\"#|jOv/^/`9(}+3VdRD`R\">variable</variable></variables></xml>",
	"variables": [
		{
			"name": "variable",
			"description": "",
			"public": true,
			"init": false
		}
	],
	"userCode": {
		"global": [
			" "
		],
		"pre-super": [
			"        verify(settings, [\"image\"]);",
			"        settings.region = settings.image;",
			"        settings.image = game.textureMap.get(game.imageLocation[settings.region]);"
		],
		"init": [
			"\t\tthis.body.collisionType = game.collisionTypes.ENEMY_OBJECT;",
			"        this.body.setCollisionMask(me.collision.types.ALL_OBJECT);",
			"        this.body.getShape().translate(this.width/7, -this.height/2);",
			"        ",
			"        let vars = [\"speed\",\"jalankanan\",\"container\"];",
			"        verify(settings, vars);",
			"        game.util.spread(this, settings, vars);",
			"        ",
			"        ",
			"        this.body.setMaxVelocity( this.speed, this.speed);",
			"        this.movex = this.pos.x;",
			"        this.movey = this.pos.y;",
			"        this.gotgrab = false;",
			"        this.susitipe = settings.region;",
			"        ",
			"        this.getSushiEvent = me.event.subscribe(\"GetSushiEvent\", this.GetSushi.bind(this));",
			"        this.particleEvent = me.event.subscribe(\"ParticleEvent\", this.ShowParticle.bind(this));"
		],
		"update": [
			"        if(this.jalankanan){",
			"            this.body.vel.x = this.speed;",
			"            if(this.pos.x >= me.game.viewport.width/2+1040){",
			"                me.game.world.removeChild(this);",
			"            }",
			"        }else{",
			"            this.body.vel.x = -this.speed;",
			"            if(this.pos.x <= me.game.viewport.width/2-1040){",
			"                me.game.world.removeChild(this);",
			"            }",
			"        }"
		],
		"onCollision": [
			"        isSolid = false;",
			"        if(!this.container.hooker.grab){",
			"            me.game.world.removeChild(this);",
			"        }"
		],
		"onDraw": [
			"        "
		],
		"onActivateEvent": [
			"        "
		],
		"onDeactivateEvent": [
			"        me.event.unsubscribe(this.getSushiEvent);",
			"        me.event.unsubscribe(this.particleEvent);"
		],
		"userFunction": [
			"    GetSushi : function(){",
			"        this.container.sushiOnPlay.push(this);",
			"    },",
			"    ",
			"    ShowParticle : function(){",
			"        this.particle = me.pool.pull(\"particle1\", this.pos.x",
			"                                                , this.pos.y);",
			"        me.game.world.addChild(this.particle, this.pos.z + 1);",
			"        this.particle.setCurrentAnimation(\"Animation 1\", function(){",
			"            me.game.world.removeChild(this.particle);",
			"        }.bind(this));",
			"    },"
		],
		"global-end": [
			" "
		]
	},
	"frameWidth": 240,
	"frameHeight": 124,
	"width": 100,
	"height": 100,
	"hasBody": true,
	"alpha": 1,
	"flipX": false,
	"flipY": false,
	"floating": true,
	"relativeX": "0.5",
	"relativeY": "0.5",
	"anchorX": 0.5,
	"anchorY": 0.5,
	"followed": "NONE",
	"alwaysUpdate": true,
	"updateWhenPaused": false,
	"isPersistent": false,
	"click": false,
	"keyUp": false,
	"keyDown": false,
	"collisionCheck": true,
	"gravityX": 0,
	"gravityY": 0,
	"collisionType": "ENEMY_OBJECT"
}