{
	"type": "object",
	"version": "0.0.2",
	"userCode": {
		"global": [
			""
		],
		"init": [
			"        settings.image = 'sushi_05';",
			"        settings.framewidth = 240;",
			"\t\tsettings.frameheight = 124;",
			"        this._super(game.object.sushiBase, 'init', [x, y, settings]);"
		],
		"userFunction": [
			"    "
		],
		"global-end": [
			""
		]
	}
}