{
	"type": "object",
	"version": "0.0.2",
	"animations": {
		"list": [
			{
				"name": "Animation 1",
				"frames": [
					{
						"id": "16ac33c0-351d-11eb-b51b-c9c721b56df7",
						"type": "image",
						"ext": "png",
						"image_name": "store_001",
						"data_path": "image/mainmenu/store_001.png",
						"folder_name": "mainmenu",
						"width": 1080,
						"height": 1610
					},
					{
						"id": "16ac33c1-351d-11eb-b51b-c9c721b56df7",
						"type": "image",
						"ext": "png",
						"image_name": "store_000",
						"data_path": "image/mainmenu/store_000.png",
						"folder_name": "mainmenu",
						"width": 1080,
						"height": 1610
					},
					{
						"id": "16ac33c0-351d-11eb-b51b-c9c721b56df7",
						"type": "image",
						"ext": "png",
						"image_name": "store_001",
						"data_path": "image/mainmenu/store_001.png",
						"folder_name": "mainmenu",
						"width": 1080,
						"height": 1610
					},
					{
						"id": "16ac33c1-351d-11eb-b51b-c9c721b56df7",
						"type": "image",
						"ext": "png",
						"image_name": "store_000",
						"data_path": "image/mainmenu/store_000.png",
						"folder_name": "mainmenu",
						"width": 1080,
						"height": 1610
					},
					{
						"id": "16ac33c1-351d-11eb-b51b-c9c721b56df7",
						"type": "image",
						"ext": "png",
						"image_name": "store_000",
						"data_path": "image/mainmenu/store_000.png",
						"folder_name": "mainmenu",
						"width": 1080,
						"height": 1610
					},
					{
						"id": "16ac33c0-351d-11eb-b51b-c9c721b56df7",
						"type": "image",
						"ext": "png",
						"image_name": "store_001",
						"data_path": "image/mainmenu/store_001.png",
						"folder_name": "mainmenu",
						"width": 1080,
						"height": 1610
					},
					{
						"id": "16ac33c1-351d-11eb-b51b-c9c721b56df7",
						"type": "image",
						"ext": "png",
						"image_name": "store_000",
						"data_path": "image/mainmenu/store_000.png",
						"folder_name": "mainmenu",
						"width": 1080,
						"height": 1610
					},
					{
						"id": "16ac33c1-351d-11eb-b51b-c9c721b56df7",
						"type": "image",
						"ext": "png",
						"image_name": "store_000",
						"data_path": "image/mainmenu/store_000.png",
						"folder_name": "mainmenu",
						"width": 1080,
						"height": 1610
					},
					{
						"id": "16ac33c0-351d-11eb-b51b-c9c721b56df7",
						"type": "image",
						"ext": "png",
						"image_name": "store_001",
						"data_path": "image/mainmenu/store_001.png",
						"folder_name": "mainmenu",
						"width": 1080,
						"height": 1610
					},
					{
						"id": "16ac33c0-351d-11eb-b51b-c9c721b56df7",
						"type": "image",
						"ext": "png",
						"image_name": "store_001",
						"data_path": "image/mainmenu/store_001.png",
						"folder_name": "mainmenu",
						"width": 1080,
						"height": 1610
					},
					{
						"id": "16ac33c0-351d-11eb-b51b-c9c721b56df7",
						"type": "image",
						"ext": "png",
						"image_name": "store_001",
						"data_path": "image/mainmenu/store_001.png",
						"folder_name": "mainmenu",
						"width": 1080,
						"height": 1610
					},
					{
						"id": "16ac33c0-351d-11eb-b51b-c9c721b56df7",
						"type": "image",
						"ext": "png",
						"image_name": "store_001",
						"data_path": "image/mainmenu/store_001.png",
						"folder_name": "mainmenu",
						"width": 1080,
						"height": 1610
					},
					{
						"id": "16ac33c0-351d-11eb-b51b-c9c721b56df7",
						"type": "image",
						"ext": "png",
						"image_name": "store_001",
						"data_path": "image/mainmenu/store_001.png",
						"folder_name": "mainmenu",
						"width": 1080,
						"height": 1610
					},
					{
						"id": "16ac33c0-351d-11eb-b51b-c9c721b56df7",
						"type": "image",
						"ext": "png",
						"image_name": "store_001",
						"data_path": "image/mainmenu/store_001.png",
						"folder_name": "mainmenu",
						"width": 1080,
						"height": 1610
					},
					{
						"id": "16ac33c0-351d-11eb-b51b-c9c721b56df7",
						"type": "image",
						"ext": "png",
						"image_name": "store_001",
						"data_path": "image/mainmenu/store_001.png",
						"folder_name": "mainmenu",
						"width": 1080,
						"height": 1610
					}
				],
				"duration": "100"
			}
		],
		"default": null
	},
	"images": {
		"list": [
			{
				"id": "16ac33c1-351d-11eb-b51b-c9c721b56df7",
				"type": "image",
				"ext": "png",
				"image_name": "store_000",
				"data_path": "image/mainmenu/store_000.png",
				"folder_name": "mainmenu",
				"width": 1080,
				"height": 1610
			},
			{
				"id": "16ac33c0-351d-11eb-b51b-c9c721b56df7",
				"type": "image",
				"ext": "png",
				"image_name": "store_001",
				"data_path": "image/mainmenu/store_001.png",
				"folder_name": "mainmenu",
				"width": 1080,
				"height": 1610
			}
		]
	},
	"image": "16ac33c1-351d-11eb-b51b-c9c721b56df7",
	"collisionMask": [
		"ALL_OBJECT"
	],
	"event": "<xml xmlns=\"http://www.w3.org/1999/xhtml\"><variables><variable type=\"\" id=\"kX`9?LGtf%Kooh!Mo^C]\">variable</variable></variables></xml>",
	"variables": [
		{
			"name": "variable",
			"description": "",
			"public": true,
			"init": false
		}
	],
	"userCode": {
		"global": [
			" "
		],
		"pre-super": [
			"        "
		],
		"init": [
			"        "
		],
		"update": [
			"        "
		],
		"onDraw": [
			"        "
		],
		"onActivateEvent": [
			"        "
		],
		"onDeactivateEvent": [
			"        "
		],
		"userFunction": [
			"    "
		],
		"global-end": [
			" "
		]
	},
	"frameWidth": 1080,
	"frameHeight": 1610,
	"width": 100,
	"height": 100,
	"hasBody": false,
	"alpha": 1,
	"flipX": false,
	"flipY": false,
	"floating": false,
	"relativeX": "0",
	"relativeY": "0",
	"anchorX": 0,
	"anchorY": 0,
	"followed": "NONE",
	"alwaysUpdate": false,
	"updateWhenPaused": false,
	"isPersistent": false,
	"click": false,
	"keyUp": false,
	"keyDown": false,
	"collisionCheck": false,
	"gravityX": 0,
	"gravityY": 0.98,
	"collisionType": "ENEMY_OBJECT"
}