{
	"type": "object",
	"version": "0.0.2",
	"animations": {
		"list": [],
		"default": null
	},
	"images": {
		"list": []
	},
	"collisionMask": [
		"ALL_OBJECT"
	],
	"event": "<xml xmlns=\"http://www.w3.org/1999/xhtml\"><variables><variable type=\"\" id=\"St7^TlpY+e5MM4ZGZ#4$\">variable</variable></variables></xml>",
	"variables": [
		{
			"name": "variable",
			"description": "",
			"public": true,
			"init": false
		}
	],
	"userCode": {
		"global": [
			" "
		],
		"pre-super": [
			"        verify(settings, [\"region\"]);",
			"            verify(settings, [\"folder\"]);",
			"            settings.image = game.textureMap.get(settings.folder);",
			"        settings.framewidth = undefined;",
			"        settings.frameheight = undefined;",
			"        this.originX = x;",
			"        this.originY = y;"
		],
		"init": [
			"        impose(settings, \"func\", function(){});",
			"        impose(settings, \"scaleX\", 0.99);",
			"        impose(settings, \"scaleY\", 0.99);",
			"        impose(settings, \"isPenetrate\", false);",
			"        game.util.spread(this, settings, [\"func\", \"scaleX\", \"scaleY\", \"isPenetrate\", \"btnImages\"]);",
			"        ",
			"        this.adjustPosSub = me.event.subscribe(me.event.LEVEL_LOADED, () => {",
			"            this.pos.x += this.originX;",
			"            this.pos.y += this.originY;",
			"            ",
			"            if(Array.isArray(this.btnUnion)){",
			"                this.btnUnion.forEach(btn => {",
			"                    btn.pos.x += this.originX;",
			"                    btn.pos.y += this.originY;",
			"                });",
			"            }",
			"        });",
			"        ",
			"        this.once = true;"
		],
		"update": [
			"        "
		],
		"onDraw": [
			"        "
		],
		"onActivateEvent": [
			"        "
		],
		"onDeactivateEvent": [
			"        me.event.unsubscribe(this.adjustPosSub);"
		],
		"userFunction": [
			"    onClick: function(event){",
			"        if(event.button === 0 && this.once){",
			"            this.once = false;",
			"            this.currentTransform.translate(this.originX, this.originY);",
			"            this.currentTransform.scale(this.scaleX, this.scaleY);",
			"            this.currentTransform.translate(-this.originX, -this.originY);",
			"            ",
			"            if(Array.isArray(this.btnImages)){",
			"                this.btnImages.forEach((img) => {",
			"                    img.currentTransform.translate(this.originX, this.originY);",
			"                    img.currentTransform.scale(this.scaleX, this.scaleY);",
			"                    img.currentTransform.translate(-this.originX, -this.originY);",
			"                });",
			"            }",
			"            ",
			"            me.game.repaint();",
			"            return this.isPenetrate;",
			"        }",
			"    },",
			"    ",
			"    onRelease: function(){",
			"        this.currentTransform.identity();",
			"        if(Array.isArray(this.btnImages)){",
			"            this.btnImages.forEach(function(img){",
			"                img.currentTransform.identity();",
			"            });",
			"        }",
			"        ",
			"        me.game.repaint();",
			"        this.func();",
			"        return this.isPenetrate;",
			"    },"
		],
		"global-end": [
			" "
		]
	},
	"frameWidth": 100,
	"frameHeight": 100,
	"width": 100,
	"height": 100,
	"hasBody": false,
	"alpha": 1,
	"flipX": false,
	"flipY": false,
	"floating": true,
	"relativeX": "0.5",
	"relativeY": "0.5",
	"anchorX": 0.5,
	"anchorY": 0.5,
	"followed": "NONE",
	"alwaysUpdate": false,
	"updateWhenPaused": false,
	"isPersistent": false,
	"click": false,
	"keyUp": false,
	"keyDown": false,
	"collisionCheck": false,
	"gravityX": 0,
	"gravityY": 0.98,
	"collisionType": "ENEMY_OBJECT"
}