{
	"type": "object",
	"version": "2.1.0",
	"userCode": {
		"global": [
			" "
		],
		"init": [
			"        let vars = [\"region\",\"container\"];",
			"        verify(settings, vars);",
			"        game.util.spread(this, settings, vars);",
			"        ",
			"\t\tsettings.region = this.region;",
			"\t\tsettings.folder = \"mainmenu\";",
			"\t\tsettings.func   = this.func;",
			"\t\t",
			"        this._super(game.object.ButtonBase, 'init', [x, y, settings]);",
			"        this.bisadipencet = true;"
		],
		"userFunction": [
			"    func: function(){",
			"        if(this.bisadipencet){",
			"            this.bisadipencet = false;",
			"            if(gameSnacks_API){",
			"                if (GAMESNACKS.isAudioEnabled()) {",
			"                    me.audio.play(\"sfx-button\");",
			"                }",
			"            }else{",
			"                me.audio.play(\"sfx-button\");    ",
			"            }",
			"            ",
			"            this.container.keshop();",
			"            return false;",
			"        }",
			"    }"
		],
		"global-end": [
			" "
		]
	}
}