{
	"type": "object",
	"version": "0.0.2",
	"userCode": {
		"global": [
			" "
		],
		"init": [
			"\t\tlet vars = [\"region\",\"container\"];",
			"        verify(settings, vars);",
			"        game.util.spread(this, settings, vars);",
			"        ",
			"\t\tsettings.region = this.region;",
			"\t\tsettings.folder = \"bg\";",
			"\t\tsettings.func   = this.func;",
			"\t    ",
			"\t\t",
			"        this._super(game.object.ButtonBase, 'init', [x, y, settings]);"
		],
		"userFunction": [
			"    func: function(){",
			"        if(this.container.play){",
			"            this.container.grab();",
			"        }",
			"        return false;",
			"    }"
		],
		"global-end": [
			" "
		]
	}
}