{
	"type": "object",
	"version": "0.0.2",
	"userCode": {
		"global": [
			" "
		],
		"init": [
			"\t\tx -= me.game.viewport.width*0.5;",
			"\t\ty -= me.game.viewport.height*0.5;",
			"\t\t",
			"\t\tlet vars = [\"region\",\"container\"];",
			"        verify(settings, vars);",
			"        game.util.spread(this, settings, vars);",
			"        ",
			"\t\tsettings.region = this.region;",
			"\t\tsettings.folder = \"mainmenu\";",
			"\t\tsettings.func   = this.func;",
			"\t\t",
			"        this._super(game.object.ButtonBase, 'init', [x, y, settings]);",
			"        this.bisadipencet = true;",
			"        this.timeOutBool = true;"
		],
		"userFunction": [
			"    func: function(){",
			"        if(this.bisadipencet){",
			"            this.bisadipencet = false;",
			"            me.timer.setTimeout(()=>{",
			"                if(this.timeOutBool){",
			"                    this.timeOutBool = false;",
			"                    this.container.container.orderFunc();",
			"                }",
			"            },2000);",
			"            if(gameSnacks_API){",
			"                if(GAMESNACKS.isAudioEnabled()){",
			"                    me.audio.play(\"sfx-button\");",
			"                }",
			"            }else{",
			"                me.audio.play(\"sfx-button\");    ",
			"            }",
			"            ",
			"            this.container.offScreen();",
			"            return false;",
			"        }",
			"    }"
		],
		"global-end": [
			" "
		]
	}
}