{
	"type": "object",
	"version": "0.0.2",
	"userCode": {
		"global": [
			""
		],
		"init": [
			"        let vars = [\"region\",\"container\"];",
			"        verify(settings, vars);",
			"        game.util.spread(this, settings, vars);",
			"        ",
			"\t\tsettings.region = this.region;",
			"\t\tsettings.folder = \"gameplay\";",
			"\t\tsettings.func   = this.func;",
			"\t    ",
			"        this._super(game.object.ButtonBase, 'init', [x, y, settings]);"
		],
		"userFunction": [
			"    func: function(){",
			"       this.container.buangsushi();",
			"        return false;",
			"    }"
		],
		"global-end": [
			""
		]
	}
}