{
	"type": "level",
	"version": "0.0.2",
	"layers": [
		{
			"type": "imagelayer",
			"name": "game screen",
			"image": "cfe395f0-6442-11eb-841c-1160d11e913f",
			"x": -342,
			"y": 0
		},
		{
			"type": "imagelayer",
			"name": "wall",
			"image": "5ea13ee0-27bd-11eb-a1ac-69a37b4b6f6a",
			"x": 0,
			"y": 0
		},
		{
			"type": "imagelayer",
			"name": "ceiling",
			"image": "4e5b4a80-27bd-11eb-a1ac-69a37b4b6f6a",
			"x": 0,
			"y": 0
		},
		{
			"type": "imagelayer",
			"name": "game screen meja",
			"image": "0be015c0-65f5-11eb-a588-cb4335d36407",
			"x": -341,
			"y": 960
		},
		{
			"type": "imagelayer",
			"name": "mid_ground",
			"image": "ad736e40-2fc8-11eb-b32d-01f899ded96e",
			"x": 0,
			"y": 960
		},
		{
			"type": "imagelayer",
			"name": "customer_plate",
			"image": "8de62310-2fc3-11eb-b32d-01f899ded96e",
			"x": 315,
			"y": 930
		}
	],
	"viewport": {
		"x": 0,
		"y": 0,
		"zoom": 1
	},
	"collision": [],
	"event": "<xml xmlns=\"http://www.w3.org/1999/xhtml\"><variables><variable type=\"\" id=\"2M}WZv`W^O!rR4!o.A?{\">variable</variable></variables></xml>",
	"variables": [
		{
			"name": "variable",
			"description": "",
			"public": true,
			"init": false
		}
	],
	"userCode": {
		"global": [
			" "
		],
		"initialonReset": [
			"        "
		],
		"onReset": [
			"        me.game.viewport.fadeOut(\"#000000\", 3000);",
			"        inGamePlay = true;",
			"        game.util.resumeGame();",
			"        let effectAwalan = me.pool.pull(\"particle1\", me.game.viewport.width/2, me.game.viewport.height/2);",
			"        me.game.world.addChild(effectAwalan, 1);",
			"        effectAwalan.hapus();",
			"        //screenBelakangWeb",
			"        let webXkiri,",
			"            webXkanan;",
			"        if(me.game.viewport.width > 1755){",
			"            webXkiri    = -2364.5+755;",
			"            webXkanan   = 2364.5-755;",
			"        }else{",
			"            webXkiri    = -me.game.viewport.width-2000;",
			"            webXkanan   = me.game.viewport.width+2000;",
			"        }",
			"        this.webBgKiri = me.pool.pull(\"webBgKiri\", webXkiri, 0);",
			"        me.game.world.addChild(this.webBgKiri, 100);",
			"        this.webBgKanan = me.pool.pull(\"webBgKanan\", webXkanan, 0);",
			"        me.game.world.addChild(this.webBgKanan, 100);",
			"        //--",
			"        ",
			"        this.play = true;",
			"        this.bgmPlay = false;",
			"        if(gameSnacks_API){",
			"            if(GAMESNACKS.isAudioEnabled()){",
			"                me.audio.play(\"bgm-sushi-ingame\", false,()=>{this.bgmPlay = true}, 0.5);",
			"            }",
			"        }else{",
			"            me.audio.play(\"bgm-sushi-ingame\", false,()=>{this.bgmPlay = true}, 0.5);",
			"        }",
			"        ",
			"        this.disablehook = true;",
			"        this.itemCookies = false;",
			"        this.itemInfo = game.controller.data.getDataItemInfo();",
			"        this.itemIDList = [];",
			"        this.itemTimer = {};",
			"        //this.itemTimerRemove = {I001 : false, I002 : false, I003 : false};",
			"        this.itemTimerFinish = {I001 : true, I002 : true, I003 : true};",
			"        let item = game.user.userData.item;",
			"        this.playerItem = [];",
			"        for(let id in item){",
			"            this.playerItem.push(id);",
			"        }",
			"        ",
			"        this.onPause = false;",
			"    ",
			"        for(let i in this.itemInfo){",
			"            this.itemIDList.push(this.itemInfo[i].id);",
			"        }",
			"            ",
			"        // Untuk ambil random sushi 5 biji",
			"        var sushilist = [\"sushi_00\", \"sushi_01\", \"sushi_02\", \"sushi_03\", \"sushi_04\", \"sushi_05\", \"sushi_06\", \"sushi_07\", \"sushi_08\", \"sushi_09\",\"sushi_10\",\"sushi_11\",\"sushi_12\",\"sushi_13\",\"sushi_14\",\"sushi_15\",\"sushi_16\",\"sushi_17\",\"sushi_18\",\"sushi_19\",\"sushi_20\",\"sushi_21\",\"sushi_22\",\"sushi_23\",\"sushi_24\",\"sushi_25\",\"sushi_26\",\"sushi_27\",\"sushi_28\",\"sushi_29\",\"sushi_30\",\"sushi_31\",\"sushi_32\"];",
			"        this.sushidata = []; //sushi 5 biji",
			"        var i = 0;",
			"        for(i = 0; i < 5; i++){",
			"            var index = Math.floor( Math.random()*sushilist.length );",
			"            this.sushidata.push(sushilist[index]);",
			"            sushilist.splice( index, 1 );",
			"         }",
			"         ",
			"        //untuk sushi menit 1",
			"        this.cloningdata1 = game.util.clonesushi(this.sushidata);",
			"        this.sushidatamenit1 = [];",
			"        for(i = 0; i < 2; i++){",
			"            var index1 = Math.floor( Math.random()*this.cloningdata1.length );",
			"            this.sushidatamenit1.push( this.cloningdata1[index1]);",
			"            this.cloningdata1.splice( index1, 1 );",
			"         }",
			"        //untuk sushi ment 2",
			"        this.cloningdata2 = game.util.clonesushi(this.sushidata);",
			"        this.sushidatamenit2 = [];",
			"        for(i = 0; i < 3; i++){",
			"            var index2 = Math.floor( Math.random()*this.cloningdata2.length );",
			"            this.sushidatamenit2.push( this.cloningdata2[index2]);",
			"            this.cloningdata2.splice( index2, 1 );",
			"         }",
			"        //untuk sushi ment 3",
			"        this.cloningdata3 = game.util.clonesushi(this.sushidata);",
			"        this.sushidatamenit3 = [];",
			"        for(i = 0; i < 4; i++){",
			"            var index3 = Math.floor( Math.random()*this.cloningdata3.length );",
			"            this.sushidatamenit3.push( this.cloningdata3[index3]);",
			"            this.cloningdata3.splice( index3, 1 );",
			"        }",
			"        ",
			"        this.cloningmenit1 = game.util.clonesushi(this.sushidatamenit1);",
			"        this.cloningmenit12 = game.util.clonesushi(this.sushidatamenit1);",
			"        this.cloningmenit13 = game.util.clonesushi(this.sushidatamenit1);",
			"         ",
			"        this.sushiBoard1 = this.cloningmenit1;",
			"        this.sushiBoard2 = this.cloningmenit12;",
			"        this.sushiBoard3 = this.cloningmenit13;",
			"        ",
			"        this.MasukinItem();",
			"        ",
			"        this.waktu = 0;",
			"        this.waktugame = me.timer.setInterval(()=>{",
			"            this.waktu +=1;",
			"            ",
			"            if(this.waktu == 60){",
			"                //console.log(this.waktu);",
			"                let itemBoard1 = this.FilterItem(this.sushiBoard1), itemBoard2 = this.FilterItem(this.sushiBoard2),",
			"                itemBoard3 = this.FilterItem(this.sushiBoard3); ",
			"                this.sushiBoard1 = game.util.clonesushi(this.sushidatamenit2);",
			"                this.sushiBoard2 = game.util.clonesushi(this.sushidatamenit2);",
			"                this.sushiBoard3 = game.util.clonesushi(this.sushidatamenit2);",
			"                ",
			"                for(let i in itemBoard1)",
			"                    this.sushiBoard1.push(itemBoard1);",
			"                    ",
			"                for(let i in itemBoard2)",
			"                    this.sushiBoard2.push(itemBoard2);",
			"                    ",
			"                for(let i in itemBoard3)",
			"                    this.sushiBoard2.push(itemBoard3);",
			"            }",
			"            if(this.waktu == 120){",
			"                //console.log(this.waktu);",
			"                let itemBoard1 = this.FilterItem(this.sushiBoard1), itemBoard2 = this.FilterItem(this.sushiBoard2),",
			"                itemBoard3 = this.FilterItem(this.sushiBoard3);",
			"                this.sushiBoard1 = game.util.clonesushi(this.sushidatamenit3);",
			"                this.sushiBoard2 = game.util.clonesushi(this.sushidatamenit3);",
			"                this.sushiBoard3 = game.util.clonesushi(this.sushidatamenit3);",
			"                ",
			"                for(let i in itemBoard1)",
			"                    this.sushiBoard1.push(itemBoard1);",
			"                    ",
			"                for(let i in itemBoard2)",
			"                    this.sushiBoard2.push(itemBoard2);",
			"                    ",
			"                for(let i in itemBoard3)",
			"                    this.sushiBoard2.push(itemBoard3);",
			"            }",
			"            if(this.waktu == 180){",
			"                //console.log(this.waktu);",
			"                let itemBoard1 = this.FilterItem(this.sushiBoard1), itemBoard2 = this.FilterItem(this.sushiBoard2),",
			"                itemBoard3 = this.FilterItem(this.sushiBoard3);",
			"                this.sushiBoard1 = game.util.clonesushi(this.sushidata);",
			"                this.sushiBoard2 = game.util.clonesushi(this.sushidata);",
			"                this.sushiBoard3 = game.util.clonesushi(this.sushidata);",
			"                ",
			"                for(let i in itemBoard1)",
			"                    this.sushiBoard1.push(itemBoard1);",
			"                    ",
			"                for(let i in itemBoard2)",
			"                    this.sushiBoard2.push(itemBoard2);",
			"                    ",
			"                for(let i in itemBoard3)",
			"                    this.sushiBoard2.push(itemBoard3);",
			"            }",
			"        },1000);",
			"        ",
			"        this.numberSpawn1 = 0;",
			"        this.numberSpawn2 = this.sushiBoard2.length - 1;",
			"        this.numberSpawn3 = 0;",
			"            ",
			"        this.hooker = me.pool.pull(\"hook\", me.game.viewport.width/2, 2690,{",
			"            container:this",
			"        });",
			"        me.game.world.addChild(this.hooker, 20);",
			"        ",
			"        this.buttonhook = me.pool.pull(\"ButtonHook\",0,0,{",
			"          region: \"wall\",",
			"          container: this",
			"        });",
			"        me.game.world.addChild(this.buttonhook, 9);",
			"        this.buttonhook.alpha = 0.01;",
			"        ",
			"        //this.MasukinItem();",
			"",
			"        //spawn garis board",
			"        let xArr;",
			"        if(me.game.viewport.width >= 1755){",
			"            xArr = [-887.5, -687.5, -487.5, -287.5, -87.5, 112.5, 312.5, 512.5, 712.5, 912.5];",
			"        }else{",
			"            xArr = [-me.game.viewport.width/2, -me.game.viewport.width/2+200, -me.game.viewport.width/2+400, -me.game.viewport.width/2+600, -me.game.viewport.width/2+800, -me.game.viewport.width/2+1000, -me.game.viewport.width/2+1200];",
			"        }",
			"        for(i = 0; i < xArr.length; i++){",
			"            let garisBoard = me.pool.pull(\"boardList\", xArr[i], 542,{speed:3, arah:\"kanan\"}),",
			"                garisBoard2 = me.pool.pull(\"boardList\", xArr[i], 367,{speed:-5, arah:\"kiri\"}),",
			"                garisBoard3 = me.pool.pull(\"boardList\", xArr[i], 182,{speed:6, arah:\"kanan\"});",
			"            me.game.world.addChild(garisBoard, 10);",
			"            me.game.world.addChild(garisBoard2, 10);",
			"            me.game.world.addChild(garisBoard3, 10);",
			"        }",
			"        //--",
			"       ",
			"        let limitTOsushi = true;",
			"        me.timer.setTimeout(()=>{",
			"            if(limitTOsushi){",
			"                limitTOsushi = false;",
			"                //sushi board 1",
			"                this.intervalspawnsushi1 = me.timer.setInterval(()=>{",
			"                    let sushi = this.sushiBoard1;//[\"sushi_00\",\"sushi_01\",\"sushi_02\"];",
			"                    ////console.log(\"board 1 =\")",
			"                    ////console.log(sushi);",
			"                    ////console.log(this.numberSpawn1);",
			"                    if(this.numberSpawn1 >= sushi.length ){",
			"                        this.numberSpawn1 = 0;",
			"                    }",
			"                    this.sushispawn = me.pool.pull(sushi[this.numberSpawn1], -1040, 545,{",
			"                        speed:3,",
			"                        jalankanan:true,",
			"                        container : this",
			"                    });",
			"        \t\t\tme.game.world.addChild(this.sushispawn, 15);",
			"                    ",
			"                    if(this.playerItem.includes(sushi[this.numberSpawn1])){",
			"                        this.sushispawn.beltPos = 1;",
			"                        this.RemoveItem(sushi[this.numberSpawn1], 1);",
			"                    }",
			"                    ",
			"                    this.numberSpawn1 += 1;",
			"                    ",
			"                }, 4000);",
			"                ",
			"                //sushi board 2",
			"                this.intervalspawnsushi2 = me.timer.setInterval(()=>{",
			"                    let sushi2 = this.sushiBoard2;//[\"sushi_00\",\"sushi_01\",\"sushi_02\"];//this.sushiBoard2;",
			"                    ////console.log(\"board2 =\")",
			"                    // //console.log(sushi2);",
			"                    //  //console.log(this.numberSpawn2);",
			"                    if(this.numberSpawn2 <= -1){",
			"                        this.numberSpawn2 = this.sushiBoard2.length - 1;",
			"                    }",
			"                    this.sushispawn2 = me.pool.pull(sushi2[this.numberSpawn2], 1040, 365,{//1480,{",
			"                        speed:5,",
			"                        jalankanan:false,",
			"                        container : this",
			"                    });",
			"                    me.game.world.addChild(this.sushispawn2, 15);",
			"                    ",
			"                    if(this.playerItem.includes(sushi2[this.numberSpawn2])){",
			"                        this.sushispawn2.beltPos = 2;",
			"                        this.RemoveItem(sushi2[this.numberSpawn2], 2);",
			"                    }",
			"                    ",
			"                    this.numberSpawn2 --;",
			"                   ",
			"                }, 3000);",
			"                ",
			"                //sushi board 3",
			"                this.intervalspawnsushi3 = me.timer.setInterval(()=>{",
			"                    ////console.log(\"board 3 =\")",
			"                    this.numberSpawn3 =  Math.floor( Math.random()*this.sushiBoard3.length );",
			"                    let sushi3 = this.sushiBoard3;//[\"sushi_00\",\"sushi_01\",\"sushi_02\"];//this.sushiBoard3;sushi3[this.numberSpawn3]",
			"                    // //console.log(sushi3);",
			"                     // //console.log(this.numberSpawn3);",
			"                    this.sushispawn3 = me.pool.pull(sushi3[this.numberSpawn3], -1040, 185,{",
			"                        speed:6,//6,",
			"                        jalankanan:true,",
			"                        container : this",
			"                    });",
			"                    me.game.world.addChild(this.sushispawn3, 15);",
			"                    ",
			"                    if(this.playerItem.includes(sushi3[this.numberSpawn3])){",
			"                        this.sushispawn3.beltPos = 3;",
			"                        this.RemoveItem(sushi3[this.numberSpawn3], 3);",
			"                    }",
			"                    ",
			"                }, 1500);",
			"            }",
			"        }, 1000);",
			"                ",
			"        //sushi yang di dapat",
			"        this.yangdigrab = [];",
			"        ",
			"        this.sushipesanan1 = me.pool.pull(\"sushimenuBase\", 370, 1950);",
			"        me.game.world.addChild( this.sushipesanan1, 14);",
			"        ",
			"        this.sushipesanan2 = me.pool.pull(\"sushimenuBase\", 555, 1950);",
			"        me.game.world.addChild( this.sushipesanan2, 14);",
			"        ",
			"        this.sushipesanan3 = me.pool.pull(\"sushimenuBase\", 720, 1950);",
			"        me.game.world.addChild( this.sushipesanan3, 14);",
			"        ",
			"        this.sushisalah1 = me.pool.pull(\"sushisalah\", 370, 1950);",
			"        me.game.world.addChild( this.sushisalah1, 15);",
			"        ",
			"        this.sushisalah2 = me.pool.pull(\"sushisalah\", 545, 1950);",
			"        me.game.world.addChild( this.sushisalah2, 15);",
			"        ",
			"        this.sushisalah3 = me.pool.pull(\"sushisalah\", 720, 1950);",
			"        me.game.world.addChild( this.sushisalah3, 15);",
			"        ",
			"        this.gamePlay = me.pool.pull(\"gamePlay\", 0, 0,{",
			"            container:this",
			"        });",
			"        me.game.world.addChild(this.gamePlay, 5);",
			"        ",
			"        this.pauseBtn = me.pool.pull(\"BtnPause\", me.game.viewport.width/2+452, 115,{",
			"\t\t\tcontainer:this",
			"\t\t});",
			"\t\tme.game.world.addChild(this.pauseBtn, 10);",
			"        ",
			"        this.pauseContainer = me.pool.pull(\"PauseContainer\", 0, 0,{container:this});",
			"        me.game.world.addChild(this.pauseContainer, 11);",
			"        this.pauseContainer.container = this;",
			"        this.pauseContainer.Hide();"
		],
		"onDestroy": [
			"        me.timer.clearInterval(this.intervalboard1);",
			"        me.timer.clearInterval(this.intervalboard2);",
			"        me.timer.clearInterval(this.intervalboard3);",
			"        ",
			"        me.timer.clearInterval(this.intervalspawnsushi1);",
			"        me.timer.clearInterval(this.intervalspawnsushi2);",
			"        me.timer.clearInterval(this.intervalspawnsushi3);",
			"        ",
			"        me.game.world.removeChild(this.hooker);",
			"",
			"        me.game.world.removeChild(this.sushipesanan1);",
			"        me.game.world.removeChild(this.sushipesanan2);",
			"        me.game.world.removeChild(this.sushipesanan3);",
			"        ",
			"        me.audio.stop(\"bgm-sushi-ingame\");",
			"        me.audio.stop(\"bgm-gameover2\");",
			"        ",
			"        me.timer.clearTimeout(this.timeouthapusSushiSalah);",
			"        me.timer.clearTimeout(this.timeouthapusSushiSalah2);",
			"        me.timer.clearTimeout(this.timeouthapusSushiSalah3);",
			"        me.timer.clearInterval(this.waktugame);",
			"        ",
			"        game.util.resumeGame();"
		],
		"userFunction": [
			"    ",
			"    grab : function(){",
			"        ////console.log(\"klik\");",
			"        if(!this.disablehook){",
			"            this.hooker.cobagerak();",
			"            if(game.user.userData.haveTutorial === 0){",
			"                telahSelesaiTuttorial = true;",
			"                game.controller.data.setTutorial();",
			"            }",
			"            return false;",
			"        }",
			"    },",
			"    ",
			"    nempatinsushi: function(x){",
			"        if(this.gamePlay.masihMain && this.pauseContainer.placedSushi){",
			"            this.yangdigrab.push(x);",
			"            ////console.log(this.yangdigrab);",
			"    ",
			"            if(this.yangdigrab.length == 1){",
			"                let limitTimeout2 = true;",
			"                this.timeout1 = me.timer.setTimeout(()=>{",
			"                    if(limitTimeout2){",
			"                        limitTimeout2 = false;",
			"                        if(gameSnacks_API){",
			"                            if(GAMESNACKS.isAudioEnabled()){",
			"                                me.audio.play(\"sfx-removepiring\");",
			"                            }",
			"                        }else{",
			"                            me.audio.play(\"sfx-removepiring\");",
			"                        }",
			"                        this.gamePlay.cekPesanan1();",
			"                        let effect1 = me.pool.pull(\"particle1\", me.game.viewport.width/2-150, 1930);//390",
			"                        me.game.world.addChild(effect1,15);",
			"                        effect1.hapus();",
			"                        this.sushipesanan1.pesanansushi(x);",
			"                        me.timer.clearTimeout(this.timeout1);",
			"                    }",
			"                }, 750);",
			"        ",
			"            }if(this.yangdigrab.length == 2){",
			"                let limitTimeout3 = true;",
			"                this.timeout2 = me.timer.setTimeout(()=>{",
			"                    if(limitTimeout3){",
			"                        limitTimeout3 = false;",
			"                        if(gameSnacks_API){",
			"                            if(GAMESNACKS.isAudioEnabled()){",
			"                                me.audio.play(\"sfx-removepiring\");",
			"                            }",
			"                        }else{",
			"                            me.audio.play(\"sfx-removepiring\");",
			"                        }",
			"                        this.gamePlay.cekPesanan2();",
			"                        let effect2 = me.pool.pull(\"particle1\", me.game.viewport.width/2+25, 1930);//565",
			"                        me.game.world.addChild(effect2,15);",
			"                        effect2.hapus(); ",
			"                        this.sushipesanan2.pesanansushi(x);",
			"                        me.timer.clearTimeout(this.timeout2);",
			"                    }",
			"                }, 750);",
			"                ",
			"            }if(this.yangdigrab.length == 3){",
			"                let limitTimeout4 = true;",
			"                this.timeout3 = me.timer.setTimeout(()=>{",
			"                    if(limitTimeout4){",
			"                        limitTimeout4 = false;",
			"                        if(gameSnacks_API){",
			"                            if(GAMESNACKS.isAudioEnabled()){",
			"                                me.audio.play(\"sfx-removepiring\");",
			"                            }",
			"                        }else{",
			"                            me.audio.play(\"sfx-removepiring\");",
			"                        }",
			"                        this.gamePlay.cekPesanan3();",
			"                        let effect3 = me.pool.pull(\"particle1\", me.game.viewport.width/2+190, 1930);",
			"                        me.game.world.addChild(effect3,15);",
			"                        effect3.hapus(); ",
			"                        this.sushipesanan3.pesanansushi(x);",
			"                        me.timer.clearTimeout(this.timeout3);",
			"                    }",
			"                }, 750);",
			"            }",
			"        }",
			"    },",
			"    ",
			"    ActivateCookies : function(){",
			"        this.itemCookies = true;",
			"        this.sushipesanan1.alpha = 0;",
			"        this.sushipesanan2.alpha = 0;",
			"        this.sushipesanan3.alpha = 0;",
			"        ",
			"        let limitTimeout5 = true;",
			"        me.timer.setTimeout(()=>{",
			"            if(limitTimeout5){",
			"                limitTimeout5 = false;",
			"                let list = game.util.cloneData(this.gamePlay.sushiData2);",
			"                this.yangdigrab = [];",
			"                for(let i in list){",
			"                    this.yangdigrab.push(list[i]);",
			"                    if(this.yangdigrab.length == 1){",
			"                        this.gamePlay.cekPesanan1();",
			"                        this.sushipesanan1.pesanansushi(list[i]);",
			"                        let effect1 = me.pool.pull(\"particle1\", me.game.viewport.width/2-150, 1930);",
			"                        me.game.world.addChild(effect1,15);",
			"                        effect1.hapus();",
			"                    }if(this.yangdigrab.length == 2){",
			"                        this.gamePlay.cekPesanan2();",
			"                        this.sushipesanan2.pesanansushi(list[i]);",
			"                        let effect2 = me.pool.pull(\"particle1\", me.game.viewport.width/2+25, 1930);",
			"                        me.game.world.addChild(effect2,15);",
			"                        effect2.hapus(); ",
			"                    }if(this.yangdigrab.length == 3){",
			"                        me.audio.play(\"sfx-removepiring\");",
			"                        this.sushipesanan3.pesanansushi(list[i]);",
			"                        let effect3 = me.pool.pull(\"particle1\", me.game.viewport.width/2+190, 1930);",
			"                        me.game.world.addChild(effect3,15);",
			"                        effect3.hapus(); ",
			"                        this.gamePlay.cekPesanan3();",
			"                    }",
			"                }",
			"                this.itemCookies = false;",
			"            }",
			"        }, 200);",
			"        ",
			"        if(this.yangdigrab.length == 3 && this.disablehook == false){",
			"            this.gamePlay.cekPesanan3();",
			"            let limitTimeout6 = true;",
			"            this.timeouthapus = me.timer.setTimeout(()=>{",
			"                if(limitTimeout6){",
			"                    limitTimeout6 = false;",
			"                    let pesan = game.util.cloneData(this.yangdigrab),",
			"                        deliver = me.pool.pull(\"delivery\", 400, 900,{",
			"                        pesanan:pesan",
			"                    });",
			"                    me.game.world.addChild(deliver, 15);",
			"                    ",
			"                    this.sushipesanan1.alpha = 0;",
			"                    this.sushipesanan2.alpha = 0;",
			"                    this.sushipesanan3.alpha = 0;",
			"                    this.yangdigrab = [];",
			"                    me.timer.clearTimeout(this.timeouthapus);",
			"                }",
			"            }, 1500);",
			"        }",
			"    },",
			"    ",
			"    MasukinItem : function(){",
			"        let randBelt = [1, 2, 3];",
			"        let itemList = [];        ",
			"        ",
			"        for(let i in this.playerItem){",
			"            if(this.playerItem[i] != \"I000\")",
			"            itemList.push(this.playerItem[i]);",
			"        }",
			"        ",
			"        for(let i in itemList){",
			"            if(randBelt.length == 0){",
			"                randBelt = [1, 2, 3];",
			"            }",
			"            let randIndex = Math.floor(Math.random() * randBelt.length);",
			"            let belt = randBelt[randIndex];",
			"            randBelt.splice(randIndex, 1);",
			"            let itemName = itemList[i];            ",
			"            let udahAda = false;  ",
			"            ",
			"            if(!udahAda){",
			"                if(this.sushiBoard1.includes(itemName))",
			"                    udahAda = true;",
			"            }   ",
			"            ",
			"            if(!udahAda){",
			"                if(this.sushiBoard2.includes(itemName))",
			"                    udahAda = true;",
			"            }      ",
			"            ",
			"            if(!udahAda){",
			"                if(this.sushiBoard3.includes(itemName))",
			"                    udahAda = true;",
			"            }  ",
			"            ",
			"            if(!udahAda){",
			"                if(belt == 1){",
			"                    // //console.log(itemName, belt);",
			"                    this.sushiBoard1.push(itemName);",
			"                }",
			"                else if(belt == 2){",
			"                    this.sushiBoard2.push(itemName);",
			"                }",
			"                else if(belt == 3){",
			"                    this.sushiBoard3.push(itemName);",
			"                }",
			"            }",
			"        }",
			"    },",
			"",
			"    MasukinItemLagi : function(id){",
			"        let pos = [];",
			"        //console.log(this.sushiBoard1);",
			"        //console.log(this.sushiBoard2);",
			"        //console.log(this.sushiBoard3);",
			"        let udahAda = false;  ",
			"        ",
			"        if(!udahAda){",
			"            if(this.sushiBoard1.includes(id))",
			"                udahAda = true;",
			"        }   ",
			"        ",
			"        if(!udahAda){",
			"            if(this.sushiBoard2.includes(id))",
			"                udahAda = true;",
			"        }      ",
			"        ",
			"        if(!udahAda){",
			"            if(this.sushiBoard3.includes(id))",
			"                udahAda = true;",
			"        }  ",
			"        ",
			"        if(!udahAda){",
			"            for(let i = 0; i < 3; i ++){",
			"                for(let j in this.playerItem){",
			"                    if(i == 0){",
			"                        if(!this.sushiBoard1.includes(this.playerItem[j])){",
			"                            if(j == this.playerItem.length - 1)",
			"                                pos.push(1);",
			"                        }",
			"                        else{",
			"                            break;",
			"                        }",
			"                    }",
			"                    else if(i == 1){",
			"                        if(!this.sushiBoard2.includes(this.playerItem[j])){",
			"                            if(j == this.playerItem.length - 1)",
			"                                pos.push(2);",
			"                        }",
			"                        else{",
			"                            break;",
			"                        }",
			"                    }",
			"                    else if(i == 2){",
			"                        if(!this.sushiBoard3.includes(this.playerItem[j])){",
			"                            if(j == this.playerItem.length - 1)",
			"                                pos.push(3);",
			"                        }",
			"                        else{",
			"                            break;",
			"                        }",
			"                    }",
			"                }",
			"            }",
			"            ",
			"            //let pos = [1, 2, 3];",
			"            //console.log(pos);",
			"            let randIndex = Math.floor(Math.random() * pos.length);",
			"            if(pos[randIndex] == 1){",
			"                this.sushiBoard1.push(id);",
			"            }",
			"            else if(pos[randIndex] == 2){",
			"                this.sushiBoard2.push(id);",
			"            }",
			"            else if(pos[randIndex] == 3){",
			"                this.sushiBoard3.push(id);",
			"            }",
			"        }",
			"    },",
			"    ",
			"    FilterItem : function(list){",
			"        let filter = [];",
			"        for(let i in list){",
			"            if(this.playerItem.includes(list[i])){",
			"                filter.push(list[i]);",
			"            }",
			"        }",
			"        ",
			"        return filter;",
			"    },",
			"    ",
			"    IntervalItem : function(id){",
			"        if(id == \"I001\"){",
			"            this.itemTimer[id] = me.timer.setTimeout(function(){",
			"                this.MasukinItemLagi(\"I001\");",
			"            }.bind(this), 60000);",
			"        }",
			"        else if(id == \"I002\"){",
			"            this.itemTimer[id] = me.timer.setTimeout(function(){",
			"                this.MasukinItemLagi(\"I002\");",
			"            }.bind(this), 60000);",
			"        }",
			"        else if(id == \"I003\"){",
			"            this.itemTimer[id] = me.timer.setTimeout(function(){",
			"                this.MasukinItemLagi(\"I003\");",
			"            }.bind(this), 60000);",
			"        }",
			"    },",
			"    ",
			"    RemoveItem : function(id, pos){",
			"        if(pos == 1){",
			"            for(let i in this.sushiBoard1){",
			"                if(this.sushiBoard1[i] == id){",
			"                    this.sushiBoard1.splice(i, 1);",
			"                    break;",
			"                }",
			"            }",
			"        }",
			"        else if(pos == 2){",
			"            for(let i in this.sushiBoard2){",
			"                if(this.sushiBoard2[i] == id){",
			"                    this.sushiBoard2.splice(i, 1);",
			"                    break;",
			"               }",
			"            }",
			"        }",
			"        else if(pos == 3){",
			"           for(let i in this.sushiBoard3){",
			"                if(this.sushiBoard3[i] == id){",
			"                    this.sushiBoard3.splice(i, 1);",
			"                    break;",
			"                }",
			"            }",
			"        }",
			"    },",
			" ",
			"    SpawnMagicEff : function(){",
			"        let magicEff = me.pool.pull(\"magicHandEff\", 0, 350);",
			"        me.game.world.addChild(magicEff, 21);",
			"        magicEff.setCurrentAnimation(\"idle\",()=>{",
			"            me.game.world.removeChild(magicEff);",
			"            return false;",
			"        });",
			"    },",
			"    ",
			"    buffParticle : function(callback){",
			"        let particleEff = me.pool.pull(\"buffParticle\", 0, 760);",
			"        me.game.world.addChild(particleEff, 21);",
			"        particleEff.setCurrentAnimation(\"idle\",()=>{",
			"            callback();",
			"            me.game.world.removeChild(particleEff);",
			"            return false;",
			"        });",
			"    },",
			"    ",
			"    coinUp: function(){",
			"        this.gamePlay.buffCoin = this.gamePlay.bonusScore;",
			"        this.gamePlay.coinSpawn();",
			"    },",
			"    ",
			"    tweenToAlpha: function(){",
			"        this.tweenDissapear4 =  new me.Tween(this.sushispawn).to({alpha:0}, 3000);",
			"        this.tweenDissapear4.start();",
			"        this.tweenDissapear5 =  new me.Tween(this.sushispawn2).to({alpha:0}, 3000);",
			"        this.tweenDissapear5.start();",
			"        this.tweenDissapear6 =  new me.Tween(this.sushispawn3).to({alpha:0}, 3000);",
			"        this.tweenDissapear6.start();",
			"    },",
			"    ",
			"    tampilinsusisalah: function(x){",
			"        switch (x){",
			"        case 1: ",
			"                this.sushisalah1.alpha = 1;",
			"                let limitTimeout7 = true;",
			"                this.timeouthapusSushiSalah = me.timer.setTimeout(()=>{",
			"                    if(limitTimeout7){",
			"                        limitTimeout7 = false;",
			"                        this.yangdigrab.splice(0);",
			"                        this.sushisalah1.alpha = 0;",
			"                        this.sushipesanan1.alpha = 0;",
			"                        me.timer.clearTimeout(this.timeouthapusSushiSalah);",
			"                    }",
			"                }, 500);",
			"                ",
			"        break;",
			"        case 2:",
			"                this.sushisalah2.alpha = 1;",
			"                let limitTimeout8 = true;",
			"                this.timeouthapusSushiSalah2 = me.timer.setTimeout(()=>{",
			"                    if(limitTimeout8){",
			"                        limitTimeout8 = false;",
			"                        this.yangdigrab.splice(1);",
			"                        this.sushisalah2.alpha = 0;",
			"                        this.sushipesanan2.alpha = 0;",
			"                        me.timer.clearTimeout(this.timeouthapusSushiSalah2);",
			"                    }",
			"                }, 500);",
			"        break;",
			"        case 3:",
			"                this.sushisalah3.alpha = 1;",
			"                let limitTimeout9 = true;",
			"                this.timeouthapusSushiSalah3 = me.timer.setTimeout(()=>{",
			"                    if(limitTimeout9){",
			"                        limitTimeout9 = false;",
			"                        this.yangdigrab.splice(2);",
			"                        this.sushisalah3.alpha = 0;",
			"                        this.sushipesanan3.alpha = 0;",
			"                        me.timer.clearTimeout(this.timeouthapusSushiSalah3);",
			"                    }",
			"                }, 500);",
			"        break;",
			"        default:",
			"        }",
			"    },",
			"    ",
			"    pesananbenarsmua: function(){",
			"            //this.gamePlay.cekPesanan3();",
			"            if(this.disablehook == false){",
			"                let limitTimeout10 = true;",
			"                this.timeouthapus = me.timer.setTimeout(()=>{",
			"                    if(limitTimeout10){",
			"                        limitTimeout10 = false;",
			"                        let pesan = game.util.cloneData(this.yangdigrab),",
			"                            deliver = me.pool.pull(\"delivery\", 400, 900,{",
			"                            pesanan:pesan",
			"                        });",
			"                        me.game.world.addChild(deliver, 15);",
			"                        this.gamePlay.timeUpGame();",
			"                        this.sushipesanan1.alpha = 0;",
			"                        this.sushipesanan2.alpha = 0;",
			"                        this.sushipesanan3.alpha = 0;",
			"                        this.yangdigrab = [];",
			"                        me.timer.clearTimeout(this.timeouthapus);",
			"                    }",
			"                }, 500);",
			"            }",
			"    }"
		],
		"global-end": [
			" "
		]
	},
	"orientation": "orthogonal",
	"cols": 1,
	"rows": 1,
	"tileWidth": 1080,
	"tileHeight": 2340,
	"bg": false,
	"bgColor": "#000000"
}