{
	"type": "level",
	"version": "0.0.2",
	"layers": [
		{
			"type": "imagelayer",
			"name": "background",
			"image": "6b5d6100-3536-11eb-b51b-c9c721b56df7",
			"x": 0,
			"y": 0
		}
	],
	"viewport": {
		"x": 0,
		"y": 0,
		"zoom": 1
	},
	"collision": [],
	"event": "<xml xmlns=\"http://www.w3.org/1999/xhtml\"><variables><variable type=\"\" id=\"(KE`-V]gyBG`1(UX;OzA\">variable</variable></variables></xml>",
	"variables": [
		{
			"name": "variable",
			"description": "",
			"public": true,
			"init": false
		}
	],
	"userCode": {
		"global": [
			" "
		],
		"initialonReset": [
			"        "
		],
		"onReset": [
			"        me.game.viewport.fadeOut(\"#000000\", 1500);",
			"        game.util.resumeGame();",
			"        inGamePlay = false;",
			"        this.homeBg = me.pool.pull(\"homeBg\", 0, 0);",
			"        me.game.world.addChild(this.homeBg, 30);",
			"        ",
			"        //screenBelakangWeb",
			"        let webXkiri,",
			"            webXkanan;",
			"        if(me.game.viewport.width > 1755){",
			"            webXkiri    = -2364.5+755;",
			"            webXkanan   = 2364.5-755;",
			"        }else{",
			"            webXkiri    = -me.game.viewport.width-2000;",
			"            webXkanan   = me.game.viewport.width+2000;",
			"        }",
			"        this.webBgKiri = me.pool.pull(\"webBgKiri\", webXkiri, 0);",
			"        me.game.world.addChild(this.webBgKiri, 100);",
			"        this.webBgKanan = me.pool.pull(\"webBgKanan\", webXkanan, 0);",
			"        me.game.world.addChild(this.webBgKanan, 100);",
			"        //--",
			"        ",
			"        if(game.var.mute){",
			"            me.audio.muteAll();",
			"        }",
			"        else{",
			"            me.audio.unmuteAll();",
			"        }",
			"        ",
			"        this.menushop = me.pool.pull(\"menustore\", 540, 1500);",
			"        me.game.world.addChild(this.menushop, 35);",
			"        ",
			"        this.buttonplay = me.pool.pull(\"ButtonPlay\", 0, 700,{",
			"          region: \"button_play_001\",",
			"          container: this",
			"        });",
			"        me.game.world.addChild(this.buttonplay, 36);",
			"        ",
			"        this.bankscore = game.assetBundle.sushifontputih(me.game.world.width/2-100, me.game.viewport.height/2 - 1010,{",
			"                size : 1.3,",
			"                textAlign : \"right\",",
			"                text : game.user.userData.bank",
			"        });",
			"        me.game.world.addChild(this.bankscore, 36);",
			"        ",
			"        this.highscore = game.assetBundle.sushifontputih(me.game.world.width/2+425, me.game.viewport.height/2 - 1015,{",
			"                size : 1.3,",
			"                textAlign : \"right\",",
			"                text : game.user.userData.highScore",
			"        });",
			"        me.game.world.addChild(this.highscore, 36);",
			"        ",
			"        this.bank = me.pool.pull(\"babi\", -270, -1000);",
			"        me.game.world.addChild(this.bank, 35);",
			"        ",
			"        this.hscore = me.pool.pull(\"highscore\",  300, -1000);",
			"        me.game.world.addChild(this.hscore, 35);",
			"        ",
			"        this.buttonshop = me.pool.pull(\"buttonShop\", 350, 1000,{",
			"            region: \"home_button_shop\",",
			"            container:this",
			"        });",
			"        me.game.world.addChild(this.buttonshop, 36);",
			"        ",
			"        this.buttonoption = me.pool.pull(\"buttonOption\", -350, 1000,{",
			"            region: \"home_button_setting\",",
			"            container:this",
			"        });",
			"        me.game.world.addChild(this.buttonoption, 36);",
			"        ",
			"        this.bgmPlay = false;",
			"        if(gameSnacks_API){",
			"            if(GAMESNACKS.isAudioEnabled()){",
			"                me.audio.play(\"bgm-sushi-menu\", false,()=>{this.bgmPlay = true}, 0.5);",
			"            }",
			"        }else{",
			"            me.audio.play(\"bgm-sushi-menu\", false,()=>{this.bgmPlay = true}, 0.5);",
			"        }",
			"        ",
			"        this.audioInterval = me.timer.setInterval(()=>{",
			"            if(this.bgmPlay){",
			"                this.bgmPlay = false;",
			"                if(gameSnacks_API){",
			"                    if(GAMESNACKS.isAudioEnabled()){",
			"                        me.audio.play(\"bgm-sushi-menu\", false,()=>{this.bgmPlay = true}, 0.5);",
			"                    }",
			"                }else{",
			"                    me.audio.play(\"bgm-sushi-menu\", false,()=>{this.bgmPlay = true}, 0.5);",
			"                }",
			"            }",
			"        }, 100);",
			"        ",
			"        this.mainmenu = true;",
			"        this.pauseContainer = me.pool.pull(\"PauseContainer\", 0, 0,{",
			"            container:this",
			"        });",
			"        me.game.world.addChild(this.pauseContainer, 100);",
			"        this.pauseContainer.Hide();",
			"        ",
			"        // this.shopContainer = me.pool.pull(\"ShopContainer\", 0, 0);",
			"        // me.game.world.addChild(this.shopContainer, 5);"
		],
		"onDestroy": [
			"        me.game.world.removeChild(this.menushop);",
			"        me.game.world.removeChild(this.buttonplay);",
			"        //me.game.world.removeChild(this.highscoretxt);",
			"        me.game.world.removeChild(this.highscore);",
			"        me.game.world.removeChild(this.bank);",
			"        me.game.world.removeChild(this.hscore);",
			"        ",
			"        ",
			"        me.audio.stop(\"bgm-sushi-menu\");",
			"        me.timer.clearInterval(this.audioInterval);"
		],
		"userFunction": [
			"    playgame: function(){",
			"        me.game.viewport.fadeIn(\"#000000\", 500,()=>{me.state.change(game.state.level1)});",
			"    },",
			"    ",
			"    keshop: function(){",
			"        mainMenu = true;",
			"        me.game.viewport.fadeIn(\"#000000\", 500,()=>{me.state.change(game.state.Shop)});",
			"    },",
			"    ",
			"    option: function(){",
			"        this.pauseContainer.Show();",
			"    },"
		],
		"global-end": [
			" "
		]
	},
	"orientation": "orthogonal",
	"cols": 1,
	"rows": 1,
	"tileWidth": 1080,
	"tileHeight": 2340,
	"bg": false,
	"bgColor": "#000000"
}