{
	"type": "level",
	"version": "0.0.2",
	"layers": [],
	"viewport": {
		"x": 0,
		"y": 0,
		"zoom": 1
	},
	"collision": [],
	"event": "<xml xmlns=\"http://www.w3.org/1999/xhtml\"><variables><variable type=\"\" id=\".}JLlSQI`}D-zZX8nWZf\">variable</variable></variables></xml>",
	"variables": [
		{
			"name": "variable",
			"description": "",
			"public": true,
			"init": false
		}
	],
	"userCode": {
		"global": [
			" "
		],
		"initialonReset": [
			"        "
		],
		"onReset": [
			"        me.game.viewport.fadeOut(\"#000000\", 1500);",
			"        //screenBelakangWeb",
			"        let webXkiri,",
			"            webXkanan;",
			"        if(me.game.viewport.width > 1755){",
			"            webXkiri    = -2364.5+755;",
			"            webXkanan   = 2364.5-755;",
			"        }else{",
			"            webXkiri    = -me.game.viewport.width-2000;",
			"            webXkanan   = me.game.viewport.width+2000;",
			"        }",
			"        this.webBgKiri = me.pool.pull(\"webBgKiri\", webXkiri, 0);",
			"        me.game.world.addChild(this.webBgKiri, 100);",
			"        this.webBgKanan = me.pool.pull(\"webBgKanan\", webXkanan, 0);",
			"        me.game.world.addChild(this.webBgKanan, 100);",
			"        //--",
			"        this.shopContainer = me.pool.pull(\"ShopContainer\", 0, 0);",
			"        me.game.world.addChild(this.shopContainer, 20);",
			"        ",
			"        this.playAudio = false;",
			"        me.audio.play(\"bgm-win\", false, ()=>{this.playAudio = true}, 0.5);",
			"        this.interval = me.timer.setInterval(()=>{",
			"            if(this.playAudio){",
			"                this.playAudio = false;",
			"                me.audio.play(\"bgm-win\", false, ()=>{this.playAudio = true}, 0.5);",
			"            }",
			"        },100);"
		],
		"onDestroy": [
			"        me.audio.stop(\"bgm-win\");",
			"        me.timer.clearInterval(this.interval);"
		],
		"userFunction": [
			" "
		],
		"global-end": [
			" "
		]
	},
	"orientation": "orthogonal",
	"cols": 1,
	"rows": 1,
	"tileWidth": 1080,
	"tileHeight": 2340,
	"bg": false,
	"bgColor": "#000000"
}