{
	"type": "level",
	"version": "0.0.2",
	"layers": [],
	"viewport": {
		"x": 0,
		"y": 0,
		"zoom": 1
	},
	"collision": [],
	"event": "<xml xmlns=\"http://www.w3.org/1999/xhtml\"><variables><variable type=\"\" id=\"OoEC7!{8Q`%s:NEJfegC\">variable</variable></variables></xml>",
	"variables": [
		{
			"name": "variable",
			"description": "",
			"public": true,
			"init": false
		}
	],
	"userCode": {
		"global": [
			" "
		],
		"initialonReset": [
			"        "
		],
		"onReset": [
			"        if(gameSnacks_API){",
			"            GAMESNACKS.gameReady();",
			"        }",
			"        game.var.mute = false;",
			"        let timoutBool = true;",
			"        me.timer.setTimeout(function() {",
			"            if(timoutBool){",
			"                timoutBool = false;",
			"                game.controller.data.initDatabase(() => {",
			"                    me.state.change(game.state.mainmenu);",
			"                });",
			"            }",
			"        }, 2000);"
		],
		"onDestroy": [
			"        "
		],
		"userFunction": [
			"    "
		],
		"global-end": [
			" "
		]
	},
	"orientation": "orthogonal",
	"cols": 1,
	"rows": 1,
	"tileWidth": 1080,
	"tileHeight": 2340,
	"bg": true,
	"bgColor": "#000000"
}