{
	"type": "level",
	"version": "0.0.2",
	"layers": [],
	"viewport": {
		"x": 0,
		"y": 0,
		"zoom": 1
	},
	"collision": [],
	"event": "<xml xmlns=\"http://www.w3.org/1999/xhtml\"><variables><variable type=\"\" id=\"Ui5NuZ.TODrCQf^)HZ-G\">variable</variable></variables></xml>",
	"variables": [
		{
			"name": "variable",
			"description": "",
			"public": true,
			"init": false
		}
	],
	"userCode": {
		"global": [
			" "
		],
		"initialonReset": [
			"        "
		],
		"onReset": [
			"        game.util.resumeGame();",
			"        me.state.change(game.state[arguments[0]]);"
		],
		"onDestroy": [
			" "
		],
		"userFunction": [
			"    "
		],
		"global-end": [
			" "
		]
	},
	"orientation": "orthogonal",
	"cols": 20,
	"rows": 30,
	"tileWidth": 32,
	"tileHeight": 32,
	"bg": true,
	"bgColor": "#000000"
}