{
	"type": "object",
	"version": "2.1.0",
	"animations": {
		"list": [
			{
				"name": "Animation 1",
				"frames": [
					{
						"id": "374ff3e0-6539-11eb-a84e-6d3bca8cb25f",
						"type": "image",
						"ext": "png",
						"image_name": "conveyor_slide",
						"data_path": "image/bg/conveyor_slide.png",
						"folder_name": "bg",
						"width": 179,
						"height": 131
					}
				],
				"duration": "100"
			}
		],
		"default": null
	},
	"images": {
		"list": [
			{
				"id": "374ff3e0-6539-11eb-a84e-6d3bca8cb25f",
				"type": "image",
				"ext": "png",
				"image_name": "conveyor_slide",
				"data_path": "image/bg/conveyor_slide.png",
				"folder_name": "bg",
				"width": 179,
				"height": 131
			}
		]
	},
	"image": "374ff3e0-6539-11eb-a84e-6d3bca8cb25f",
	"shapes": [],
	"collisionMask": [
		"NO_OBJECT"
	],
	"event": "<xml xmlns=\"http://www.w3.org/1999/xhtml\"><variables><variable type=\"\" id=\"PfYV0E9`8Me]UIp_8IYw\">variable</variable></variables></xml>",
	"variables": [
		{
			"name": "variable",
			"description": "",
			"public": true,
			"init": false
		}
	],
	"userCode": {
		"global": [
			" "
		],
		"pre-super": [
			"        "
		],
		"init": [
			"        let vars = [\"speed\",\"arah\"];",
			"        verify(settings, vars);",
			"        game.util.spread(this, settings, vars);",
			"        ",
			"        if(me.game.viewport.width > 1755){",
			"            if(this.arah == \"kanan\"){",
			"                this.limit = me.game.viewport.width/2+877.5+this.width/2;",
			"                this.spawn = me.game.viewport.width/2-877.5-this.width;",
			"            } else {",
			"                this.limit = me.game.viewport.width/2-877.5-this.width/2;",
			"                this.spawn = me.game.viewport.width/2+877.5+this.width;",
			"            }",
			"        }else{",
			"            if(this.arah == \"kanan\"){",
			"                this.limit = me.game.viewport.width+this.width/2;",
			"                this.spawn = -this.width;",
			"            }else{",
			"                this.limit = -this.width/2;",
			"                this.spawn = me.game.viewport.width+this.width;",
			"            }",
			"            ",
			"        }"
		],
		"update": [
			"        this.body.vel.x = this.speed;",
			"        if(this.arah == \"kanan\"){",
			"            if(this.pos.x >= this.limit){",
			"                this.pos.set(this.spawn, this.pos.y, 10);",
			"            }",
			"        }else{",
			"            if(this.pos.x <= this.limit){",
			"                this.pos.set(this.spawn, this.pos.y, 10);",
			"            }",
			"        }"
		],
		"onCollision": [
			"        "
		],
		"onDraw": [
			"        "
		],
		"onActivateEvent": [
			"        "
		],
		"onDeactivateEvent": [
			"        "
		],
		"userFunction": [
			"    "
		],
		"global-end": [
			" "
		]
	},
	"frameWidth": 100,
	"frameHeight": 100,
	"width": 100,
	"height": 100,
	"hasBody": true,
	"alpha": 1,
	"flipX": false,
	"flipY": false,
	"floating": true,
	"relativeX": "0.5",
	"relativeY": "0.5",
	"anchorX": 0.5,
	"anchorY": 0.5,
	"followed": "NONE",
	"alwaysUpdate": true,
	"updateWhenPaused": false,
	"isPersistent": false,
	"click": false,
	"keyUp": false,
	"keyDown": false,
	"collisionCheck": false,
	"gravityX": 0,
	"gravityY": 0,
	"collisionType": "NO_OBJECT"
}