{
	"type": "object",
	"version": "0.0.2",
	"animations": {
		"list": [
			{
				"name": "Animation 1",
				"frames": [
					{
						"id": "fef95190-5704-11eb-9f05-554aa1150716",
						"type": "image",
						"ext": "png",
						"image_name": "day_frame_highscore-00",
						"data_path": "image/gameplay/day_frame_highscore-00.png",
						"folder_name": "gameplay",
						"width": 700,
						"height": 700
					},
					{
						"id": "fef95191-5704-11eb-9f05-554aa1150716",
						"type": "image",
						"ext": "png",
						"image_name": "day_frame_highscore-01",
						"data_path": "image/gameplay/day_frame_highscore-01.png",
						"folder_name": "gameplay",
						"width": 700,
						"height": 700
					},
					{
						"id": "fef95192-5704-11eb-9f05-554aa1150716",
						"type": "image",
						"ext": "png",
						"image_name": "day_frame_highscore-02",
						"data_path": "image/gameplay/day_frame_highscore-02.png",
						"folder_name": "gameplay",
						"width": 700,
						"height": 700
					},
					{
						"id": "fef95193-5704-11eb-9f05-554aa1150716",
						"type": "image",
						"ext": "png",
						"image_name": "day_frame_highscore-03",
						"data_path": "image/gameplay/day_frame_highscore-03.png",
						"folder_name": "gameplay",
						"width": 700,
						"height": 700
					},
					{
						"id": "fef978a0-5704-11eb-9f05-554aa1150716",
						"type": "image",
						"ext": "png",
						"image_name": "day_frame_highscore-04",
						"data_path": "image/gameplay/day_frame_highscore-04.png",
						"folder_name": "gameplay",
						"width": 700,
						"height": 700
					},
					{
						"id": "fef978a1-5704-11eb-9f05-554aa1150716",
						"type": "image",
						"ext": "png",
						"image_name": "day_frame_highscore-05",
						"data_path": "image/gameplay/day_frame_highscore-05.png",
						"folder_name": "gameplay",
						"width": 700,
						"height": 700
					},
					{
						"id": "fef978a2-5704-11eb-9f05-554aa1150716",
						"type": "image",
						"ext": "png",
						"image_name": "day_frame_highscore-06",
						"data_path": "image/gameplay/day_frame_highscore-06.png",
						"folder_name": "gameplay",
						"width": 700,
						"height": 700
					},
					{
						"id": "fef978a3-5704-11eb-9f05-554aa1150716",
						"type": "image",
						"ext": "png",
						"image_name": "day_frame_highscore-07",
						"data_path": "image/gameplay/day_frame_highscore-07.png",
						"folder_name": "gameplay",
						"width": 700,
						"height": 700
					},
					{
						"id": "fef978a4-5704-11eb-9f05-554aa1150716",
						"type": "image",
						"ext": "png",
						"image_name": "day_frame_highscore-08",
						"data_path": "image/gameplay/day_frame_highscore-08.png",
						"folder_name": "gameplay",
						"width": 700,
						"height": 700
					},
					{
						"id": "fef978a5-5704-11eb-9f05-554aa1150716",
						"type": "image",
						"ext": "png",
						"image_name": "day_frame_highscore-09",
						"data_path": "image/gameplay/day_frame_highscore-09.png",
						"folder_name": "gameplay",
						"width": 700,
						"height": 700
					},
					{
						"id": "fef978a6-5704-11eb-9f05-554aa1150716",
						"type": "image",
						"ext": "png",
						"image_name": "day_frame_highscore-10",
						"data_path": "image/gameplay/day_frame_highscore-10.png",
						"folder_name": "gameplay",
						"width": 700,
						"height": 700
					},
					{
						"id": "fef978a7-5704-11eb-9f05-554aa1150716",
						"type": "image",
						"ext": "png",
						"image_name": "day_frame_highscore-11",
						"data_path": "image/gameplay/day_frame_highscore-11.png",
						"folder_name": "gameplay",
						"width": 700,
						"height": 700
					},
					{
						"id": "fef978a8-5704-11eb-9f05-554aa1150716",
						"type": "image",
						"ext": "png",
						"image_name": "day_frame_highscore-12",
						"data_path": "image/gameplay/day_frame_highscore-12.png",
						"folder_name": "gameplay",
						"width": 700,
						"height": 700
					},
					{
						"id": "e4e73b50-570e-11eb-9daf-b50fc343efda",
						"type": "image",
						"ext": "png",
						"image_name": "day_frame_highscore-13",
						"data_path": "image/gameplay/day_frame_highscore-13.png",
						"folder_name": "gameplay",
						"width": 700,
						"height": 700
					},
					{
						"id": "e4e73b51-570e-11eb-9daf-b50fc343efda",
						"type": "image",
						"ext": "png",
						"image_name": "day_frame_highscore-14",
						"data_path": "image/gameplay/day_frame_highscore-14.png",
						"folder_name": "gameplay",
						"width": 700,
						"height": 700
					}
				],
				"duration": "70"
			}
		],
		"default": "Animation 1"
	},
	"images": {
		"list": [
			{
				"id": "fef95190-5704-11eb-9f05-554aa1150716",
				"type": "image",
				"ext": "png",
				"image_name": "day_frame_highscore-00",
				"data_path": "image/gameplay/day_frame_highscore-00.png",
				"folder_name": "gameplay",
				"width": 700,
				"height": 700
			},
			{
				"id": "fef95191-5704-11eb-9f05-554aa1150716",
				"type": "image",
				"ext": "png",
				"image_name": "day_frame_highscore-01",
				"data_path": "image/gameplay/day_frame_highscore-01.png",
				"folder_name": "gameplay",
				"width": 700,
				"height": 700
			},
			{
				"id": "fef95192-5704-11eb-9f05-554aa1150716",
				"type": "image",
				"ext": "png",
				"image_name": "day_frame_highscore-02",
				"data_path": "image/gameplay/day_frame_highscore-02.png",
				"folder_name": "gameplay",
				"width": 700,
				"height": 700
			},
			{
				"id": "fef95193-5704-11eb-9f05-554aa1150716",
				"type": "image",
				"ext": "png",
				"image_name": "day_frame_highscore-03",
				"data_path": "image/gameplay/day_frame_highscore-03.png",
				"folder_name": "gameplay",
				"width": 700,
				"height": 700
			},
			{
				"id": "fef978a0-5704-11eb-9f05-554aa1150716",
				"type": "image",
				"ext": "png",
				"image_name": "day_frame_highscore-04",
				"data_path": "image/gameplay/day_frame_highscore-04.png",
				"folder_name": "gameplay",
				"width": 700,
				"height": 700
			},
			{
				"id": "fef978a1-5704-11eb-9f05-554aa1150716",
				"type": "image",
				"ext": "png",
				"image_name": "day_frame_highscore-05",
				"data_path": "image/gameplay/day_frame_highscore-05.png",
				"folder_name": "gameplay",
				"width": 700,
				"height": 700
			},
			{
				"id": "fef978a2-5704-11eb-9f05-554aa1150716",
				"type": "image",
				"ext": "png",
				"image_name": "day_frame_highscore-06",
				"data_path": "image/gameplay/day_frame_highscore-06.png",
				"folder_name": "gameplay",
				"width": 700,
				"height": 700
			},
			{
				"id": "fef978a3-5704-11eb-9f05-554aa1150716",
				"type": "image",
				"ext": "png",
				"image_name": "day_frame_highscore-07",
				"data_path": "image/gameplay/day_frame_highscore-07.png",
				"folder_name": "gameplay",
				"width": 700,
				"height": 700
			},
			{
				"id": "fef978a4-5704-11eb-9f05-554aa1150716",
				"type": "image",
				"ext": "png",
				"image_name": "day_frame_highscore-08",
				"data_path": "image/gameplay/day_frame_highscore-08.png",
				"folder_name": "gameplay",
				"width": 700,
				"height": 700
			},
			{
				"id": "fef978a5-5704-11eb-9f05-554aa1150716",
				"type": "image",
				"ext": "png",
				"image_name": "day_frame_highscore-09",
				"data_path": "image/gameplay/day_frame_highscore-09.png",
				"folder_name": "gameplay",
				"width": 700,
				"height": 700
			},
			{
				"id": "fef978a6-5704-11eb-9f05-554aa1150716",
				"type": "image",
				"ext": "png",
				"image_name": "day_frame_highscore-10",
				"data_path": "image/gameplay/day_frame_highscore-10.png",
				"folder_name": "gameplay",
				"width": 700,
				"height": 700
			},
			{
				"id": "fef978a7-5704-11eb-9f05-554aa1150716",
				"type": "image",
				"ext": "png",
				"image_name": "day_frame_highscore-11",
				"data_path": "image/gameplay/day_frame_highscore-11.png",
				"folder_name": "gameplay",
				"width": 700,
				"height": 700
			},
			{
				"id": "fef978a8-5704-11eb-9f05-554aa1150716",
				"type": "image",
				"ext": "png",
				"image_name": "day_frame_highscore-12",
				"data_path": "image/gameplay/day_frame_highscore-12.png",
				"folder_name": "gameplay",
				"width": 700,
				"height": 700
			},
			{
				"id": "e4e73b50-570e-11eb-9daf-b50fc343efda",
				"type": "image",
				"ext": "png",
				"image_name": "day_frame_highscore-13",
				"data_path": "image/gameplay/day_frame_highscore-13.png",
				"folder_name": "gameplay",
				"width": 700,
				"height": 700
			},
			{
				"id": "e4e73b51-570e-11eb-9daf-b50fc343efda",
				"type": "image",
				"ext": "png",
				"image_name": "day_frame_highscore-14",
				"data_path": "image/gameplay/day_frame_highscore-14.png",
				"folder_name": "gameplay",
				"width": 700,
				"height": 700
			}
		]
	},
	"image": "fef95190-5704-11eb-9f05-554aa1150716",
	"collisionMask": [
		"ALL_OBJECT"
	],
	"event": "<xml xmlns=\"http://www.w3.org/1999/xhtml\"><variables><variable type=\"\" id=\"6c)e*#m;D9F3_J+2sq8A\">variable</variable></variables></xml>",
	"variables": [
		{
			"name": "variable",
			"description": "",
			"public": true,
			"init": false
		}
	],
	"userCode": {
		"global": [
			" "
		],
		"pre-super": [
			"        "
		],
		"init": [
			"        this.setCurrentAnimation('Animation 1',()=>{return false});",
			"        game.util.scale(this, 1.7);"
		],
		"update": [
			"        "
		],
		"onDraw": [
			"        "
		],
		"onActivateEvent": [
			"        "
		],
		"onDeactivateEvent": [
			"        "
		],
		"userFunction": [
			"    "
		],
		"global-end": [
			" "
		]
	},
	"frameWidth": 100,
	"frameHeight": 100,
	"width": 100,
	"height": 100,
	"hasBody": false,
	"alpha": 1,
	"flipX": false,
	"flipY": false,
	"floating": true,
	"relativeX": "0",
	"relativeY": "0",
	"anchorX": 0.5,
	"anchorY": 0.5,
	"followed": "NONE",
	"alwaysUpdate": false,
	"updateWhenPaused": false,
	"isPersistent": false,
	"click": false,
	"keyUp": false,
	"keyDown": false,
	"collisionCheck": false,
	"gravityX": 0,
	"gravityY": 0.98,
	"collisionType": "ENEMY_OBJECT"
}