{
	"type": "object",
	"version": "0.0.2",
	"userCode": {
		"global": [
			""
		],
		"init": [
			"        x -= me.game.viewport.width*0.5;",
			"\t\ty -= me.game.viewport.height*0.5;",
			"\t\t",
			"        let vars = [\"container\"];",
			"        verify(settings, vars);",
			"        game.util.spread(this, settings, vars);",
			"        ",
			"        settings.region = \"Button_home\";",
			"\t\tsettings.folder = \"gameplay\";",
			"\t\tsettings.func   = this.func;",
			"\t\t",
			"        this._super(game.object.ButtonBase, 'init', [x, y, settings]);",
			"        this.bisadipencet = true;"
		],
		"userFunction": [
			"    func: function(){",
			"        if(this.bisadipencet){",
			"            if(gameSnacks_API && GAMESNACKS.isAudioEnabled()){",
			"                me.audio.play(\"sfx-button\");",
			"            }else{",
			"                me.audio.play(\"sfx-button\");    ",
			"            }",
			"            this.container.offScreen();",
			"        }",
			"        return false;",
			"    }"
		],
		"global-end": [
			""
		]
	}
}