{
	"type": "object",
	"version": "2.1.0",
	"userCode": {
		"global": [
			" "
		],
		"init": [
			"        x -= me.game.viewport.width*0.5;",
			"\t\ty -= me.game.viewport.height*0.5;",
			"\t\t",
			"        let vars = [\"container\"];",
			"        verify(settings, vars);",
			"        game.util.spread(this, settings, vars);",
			"        ",
			"\t\tsettings.region = \"end_button_shop\";",
			"\t\tsettings.folder = \"gameplay\";",
			"\t\tsettings.func   = this.func;",
			"\t\t",
			"        this._super(game.object.ButtonBase, 'init', [x, y, settings]);",
			"        this.bisadipencet = true;"
		],
		"userFunction": [
			"    func: function(){",
			"        if(this.bisadipencet){",
			"            this.bisadipencet = false;",
			"            this.container.offScreen(\"shop\");",
			"            return false;",
			"        }",
			"    }"
		],
		"global-end": [
			" "
		]
	}
}