{
	"type": "object",
	"version": "0.0.2",
	"animations": {
		"list": [
			{
				"name": "close",
				"frames": [
					{
						"id": "f3d786d7-5676-11eb-8798-edf6f43f4b98",
						"type": "image",
						"ext": "png",
						"image_name": "day_deco_closed",
						"data_path": "image/gameplay/day_deco_closed.png",
						"folder_name": "gameplay",
						"width": 546,
						"height": 569
					}
				],
				"duration": "1"
			},
			{
				"name": "day",
				"frames": [
					{
						"id": "f3d7ade0-5676-11eb-8798-edf6f43f4b98",
						"type": "image",
						"ext": "png",
						"image_name": "day_deco_day",
						"data_path": "image/gameplay/day_deco_day.png",
						"folder_name": "gameplay",
						"width": 546,
						"height": 510
					}
				],
				"duration": "1"
			}
		],
		"default": "close"
	},
	"images": {
		"list": [
			{
				"id": "f3d786d7-5676-11eb-8798-edf6f43f4b98",
				"type": "image",
				"ext": "png",
				"image_name": "day_deco_closed",
				"data_path": "image/gameplay/day_deco_closed.png",
				"folder_name": "gameplay",
				"width": 546,
				"height": 569
			},
			{
				"id": "f3d7ade0-5676-11eb-8798-edf6f43f4b98",
				"type": "image",
				"ext": "png",
				"image_name": "day_deco_day",
				"data_path": "image/gameplay/day_deco_day.png",
				"folder_name": "gameplay",
				"width": 546,
				"height": 510
			}
		]
	},
	"image": "f3d786d7-5676-11eb-8798-edf6f43f4b98",
	"collisionMask": [
		"ALL_OBJECT"
	],
	"event": "<xml xmlns=\"http://www.w3.org/1999/xhtml\"><variables><variable type=\"\" id=\"FpV[G%9X#dkhp:VogPN5\">variable</variable></variables></xml>",
	"variables": [
		{
			"name": "variable",
			"description": "",
			"public": true,
			"init": false
		}
	],
	"userCode": {
		"global": [
			" "
		],
		"pre-super": [
			"        "
		],
		"init": [
			"        "
		],
		"update": [
			"        "
		],
		"onDraw": [
			"        "
		],
		"onActivateEvent": [
			"        "
		],
		"onDeactivateEvent": [
			"        "
		],
		"userFunction": [
			"    "
		],
		"global-end": [
			" "
		]
	},
	"frameWidth": 100,
	"frameHeight": 100,
	"width": 100,
	"height": 100,
	"hasBody": false,
	"alpha": 1,
	"flipX": false,
	"flipY": false,
	"floating": true,
	"relativeX": "0",
	"relativeY": "0",
	"anchorX": 0.5,
	"anchorY": 0.5,
	"followed": "NONE",
	"alwaysUpdate": false,
	"updateWhenPaused": false,
	"isPersistent": false,
	"click": false,
	"keyUp": false,
	"keyDown": false,
	"collisionCheck": false,
	"gravityX": 0,
	"gravityY": 0.98,
	"collisionType": "ENEMY_OBJECT"
}