{
	"type": "object",
	"version": "0.0.2",
	"animations": {
		"list": [],
		"default": null
	},
	"images": {
		"list": [
			{
				"id": "f3d7ade5-5676-11eb-8798-edf6f43f4b98",
				"type": "image",
				"ext": "png",
				"image_name": "day_frame_target",
				"data_path": "image/gameplay/day_frame_target.png",
				"folder_name": "gameplay",
				"width": 478,
				"height": 194
			}
		]
	},
	"image": "f3d7ade5-5676-11eb-8798-edf6f43f4b98",
	"collisionMask": [
		"ALL_OBJECT"
	],
	"event": "<xml xmlns=\"http://www.w3.org/1999/xhtml\"><variables><variable type=\"\" id=\"~l[au-AlvuUx8k!*Zg(Z\">variable</variable></variables></xml>",
	"variables": [
		{
			"name": "variable"
		}
	],
	"userCode": {},
	"frameWidth": 100,
	"frameHeight": 100,
	"width": 100,
	"height": 100,
	"hasBody": false,
	"alpha": 1,
	"flipX": false,
	"flipY": false,
	"floating": true,
	"relativeX": "0",
	"relativeY": "0",
	"anchorX": 0.5,
	"anchorY": 0.5,
	"followed": "NONE",
	"alwaysUpdate": false,
	"updateWhenPaused": false,
	"isPersistent": false,
	"click": false,
	"keyUp": false,
	"keyDown": false,
	"collisionCheck": false,
	"gravityX": 0,
	"gravityY": 0.98,
	"collisionType": "ENEMY_OBJECT"
}