{
	"type": "object",
	"version": "0.0.2",
	"animations": {
		"list": [],
		"default": null
	},
	"images": {
		"list": [
			{
				"id": "4655c082-65d0-11eb-a588-cb4335d36407",
				"type": "image",
				"ext": "png",
				"image_name": "end_frame",
				"data_path": "image/gameplay/end_frame.png",
				"folder_name": "gameplay",
				"width": 1111,
				"height": 2189
			}
		]
	},
	"image": "4655c082-65d0-11eb-a588-cb4335d36407",
	"collisionMask": [
		"ALL_OBJECT"
	],
	"event": "<xml xmlns=\"http://www.w3.org/1999/xhtml\"><variables><variable type=\"\" id=\")%LX=(OqR.0?:xw0zSMk\">variable</variable></variables></xml>",
	"variables": [
		{
			"name": "variable",
			"description": "",
			"public": true,
			"init": false
		}
	],
	"userCode": {
		"global": [
			" "
		],
		"pre-super": [
			"        "
		],
		"init": [
			"        let vars = [\"condition\", \"container\"];",
			"        verify(settings, vars);",
			"        game.util.spread(this, settings, vars);",
			"        ",
			"        this.retry = false;",
			"",
			"        this.bg = me.pool.pull(\"bgCoklat\", me.game.viewport.width/2, me.game.viewport.height/2);",
			"        me.game.world.addChild(this.bg, 89);",
			"        this.bg.alpha = 0.05;",
			"        ",
			"        let timeOutLimit = true;",
			"        me.timer.setTimeout(()=>{",
			"            if(timeOutLimit){",
			"                timeOutLimit = false;",
			"                this.buttonplay = me.pool.pull(\"buttonEnd\", this.pos.x+200, this.pos.y+800,{",
			"                  region: \"button_play_001\",",
			"                  container: this",
			"                });",
			"                me.game.world.addChild(this.buttonplay, 93);",
			"",
			"                this.buttonShop = me.pool.pull(\"bannerBtnShop\", this.pos.x-200, this.pos.y+800,{container: this});",
			"                me.game.world.addChild(this.buttonShop, 93);",
			"                ",
			"                this.myScore.setText(\"0\");",
			"                let animate = true;",
			"                this.effectToBank1 = me.pool.pull(\"addToBankEffect\", this.pos.x+200, this.pos.y-300);",
			"                me.game.world.addChild(this.effectToBank1, 95);",
			"                this.effectToBank1.setCurrentAnimation('Up',()=>{",
			"                    if(animate){",
			"                        animate = false;",
			"                        this.effectToBank2 = me.pool.pull(\"addToBankEffect\", this.pos.x+400, this.pos.y-960);",
			"                        me.game.world.addChild(this.effectToBank2, 95);",
			"                        this.effectToBank2.setCurrentAnimation('spark',()=>{",
			"                            me.game.world.removeChild(this.effectToBank2);",
			"                            return false;",
			"                        });",
			"                        me.game.world.removeChild(this.effectToBank1);",
			"                        this.myMoney.setText(game.user.userData.bank);",
			"                    }",
			"                    return false;",
			"                });",
			"            }",
			"        },3000);",
			"        ",
			"        if(this.container.highScore){",
			"            let timeOutLimit2 = true;",
			"            me.timer.setTimeout(()=>{",
			"                if(timeOutLimit2){",
			"                    timeOutLimit2 = false;",
			"                    this.bnHighScore = me.pool.pull(\"bannerNewHighScore\", this.pos.x-70, this.pos.y+320);",
			"                    me.game.world.addChild(this.bnHighScore, 93);",
			"                }",
			"            },3000);",
			"        }else{",
			"            this.bannerHighScore = me.pool.pull(\"bannerHighScore\", this.pos.x, this.pos.y+370);",
			"            me.game.world.addChild(this.bannerHighScore, 94);",
			"            this.bannerHighScore.alpha = 0.05;",
			"            ",
			"            this.myLastHighscore = game.assetBundle.sushifontputih(me.game.world.width/2+250, this.pos.y+360, {",
			"                size : 1.8,",
			"                text : game.user.userData.highScore,",
			"                textAlign : 'right',",
			"                textBaseAlign : 'middle'",
			"            }); ",
			"            me.game.world.addChild(this.myLastHighscore, 95);",
			"            this.myLastHighscore.alpha = 0.05;",
			"        }",
			"        ",
			"        this.myScore = game.assetBundle.sushifontputih(me.game.world.width/2+250, this.pos.y, {",
			"                size : 1.8,",
			"                text : this.container.angka,",
			"                textAlign : 'right',",
			"                textBaseAlign : 'middle'",
			"            }); ",
			"        me.game.world.addChild(this.myScore, 95);",
			"        this.myScore.alpha = 0.05;",
			"        ",
			"        this.myMoney = game.assetBundle.sushifontputih(me.game.world.width/2+440, this.pos.y-960, {",
			"                size : 1.6,",
			"                text : game.user.userData.bank,",
			"                textAlign : 'right',",
			"                textBaseAlign : 'middle'",
			"            }); ",
			"        me.game.world.addChild(this.myMoney, 95);",
			"        this.myMoney.alpha = 0.05;",
			"        game.controller.data.setgoldbank(this.container.angka);",
			"        game.controller.data.setHighScore(this.container.angka);"
		],
		"update": [
			"        "
		],
		"onDraw": [
			"        "
		],
		"onActivateEvent": [
			"        "
		],
		"onDeactivateEvent": [
			"        "
		],
		"userFunction": [
			"    offScreen: function(shop){",
			"        this.tween = new me.Tween(this).to({alpha:0}, 1000).onComplete(()=>{",
			"            this.container.changeLevel(shop);",
			"        });",
			"        this.tween.start();",
			"        ",
			"        this.tweenBg =  new me.Tween(this.bg).to({alpha:0}, 1000);",
			"        this.tweenBg.start();",
			"        ",
			"        this.tweenbuttonplay =  new me.Tween(this.buttonplay).to({alpha:0}, 1000);",
			"        this.tweenbuttonplay.start();",
			"        ",
			"        this.tweenbuttonShop =  new me.Tween(this.buttonShop).to({alpha:0}, 1000);",
			"        this.tweenbuttonShop.start();",
			"        ",
			"        if(this.container.highScore){",
			"            this.tweenbnHighScore =  new me.Tween(this.bnHighScore).to({alpha:0}, 1000);",
			"            this.tweenbnHighScore.start();",
			"        }else{",
			"            this.tweenbannerHighScore =  new me.Tween(this.bannerHighScore).to({alpha:0}, 1000);",
			"            this.tweenbannerHighScore.start();",
			"            this.tweenmyLastHighscore =  new me.Tween(this.myLastHighscore).to({alpha:0}, 1000);",
			"            this.tweenmyLastHighscore.start();",
			"        }",
			"        ",
			"        this.tweenmyScore =  new me.Tween(this.myScore).to({alpha:0}, 1000);",
			"        this.tweenmyScore.start();",
			"        ",
			"        this.tweenmyMoney =  new me.Tween(this.myMoney).to({alpha:0}, 1000);",
			"        this.tweenmyMoney.start();",
			"        ",
			"        if(gameSnacks_API){",
			"            if (GAMESNACKS.isAudioEnabled()) {",
			"                me.audio.play(\"sfx-slideout\");",
			"            }",
			"        }else{",
			"            me.audio.play(\"sfx-slideout\");",
			"        }",
			"    },",
			"    ",
			"    onScreen: function(){",
			"        this.tween = new me.Tween(this).to({alpha:1}, 1000);",
			"        this.tween.start();",
			"        ",
			"        this.tweenBg =  new me.Tween(this.bg).to({alpha:0.8}, 1000);",
			"        this.tweenBg.start();",
			"        ",
			"        if(this.container.highScore){",
			"            ",
			"        }else{",
			"            this.tweenbannerHighScore =  new me.Tween(this.bannerHighScore).to({alpha:1}, 1000);",
			"            this.tweenbannerHighScore.start();",
			"            this.tweenmyLastHighscore =  new me.Tween(this.myLastHighscore).to({alpha:1}, 1000);",
			"            this.tweenmyLastHighscore.start();",
			"        }",
			"        ",
			"        this.tweenmyScore =  new me.Tween(this.myScore).to({alpha:1}, 1000);",
			"        this.tweenmyScore.start();",
			"        ",
			"        this.tweenmyMoney =  new me.Tween(this.myMoney).to({alpha:1}, 1000);",
			"        this.tweenmyMoney.start();",
			"        ",
			"        if(gameSnacks_API){",
			"            if (GAMESNACKS.isAudioEnabled()) {",
			"                me.audio.play(\"sfx-slidedays\");",
			"            }",
			"        }else{",
			"            me.audio.play(\"sfx-slidedays\");",
			"        }",
			"    },"
		],
		"global-end": [
			" "
		]
	},
	"frameWidth": 100,
	"frameHeight": 100,
	"width": 100,
	"height": 100,
	"hasBody": false,
	"alpha": 0.05,
	"flipX": false,
	"flipY": false,
	"floating": true,
	"relativeX": "0.5",
	"relativeY": "0.5",
	"anchorX": 0.5,
	"anchorY": 0.5,
	"followed": "NONE",
	"alwaysUpdate": false,
	"updateWhenPaused": false,
	"isPersistent": false,
	"click": false,
	"keyUp": false,
	"keyDown": false,
	"collisionCheck": false,
	"gravityX": 0,
	"gravityY": 0.98,
	"collisionType": "ENEMY_OBJECT"
}