{
	"type": "object",
	"version": "0.0.2",
	"userCode": {
		"global": [
			" "
		],
		"init": [
			"        settings.image = 'buff_money';",
			"        settings.susitipe = 'buff_money';",
			"        settings.id = 'I001';",
			"        settings.framewidth = 185;",
			"\t\tsettings.frameheight = 170;",
			"        this._super(game.object.buffBase, 'init', [x, y, settings]);",
			"        let itemData = game.user.userData.item;",
			"\t\tlet itemInfo = game.controller.data.getDataItemInfo();",
			"\t\tthis.lvl = 1;",
			"\t\tfor(let id in itemData){",
			"\t\t    if(id == this.susitipe){",
			"\t\t        this.lvl = itemData[id];",
			"\t\t    }",
			"\t\t}",
			"\t\t",
			"\t\tfor(let i in itemInfo){",
			"\t\t    if(itemInfo[i].id == this.susitipe){",
			"\t\t        this.buff = itemInfo[i].buff;",
			"\t\t    }",
			"\t\t}",
			"\t\t",
			"\t\tthis.container.gamePlay.bonusScore = this.buff[this.lvl - 1];"
		],
		"userFunction": [
			"    Buff : function(){",
			"        this.container.buffParticle(()=>{",
			"            this.container.coinUp();",
			"        });",
			"    }"
		],
		"global-end": [
			" "
		]
	}
}