{
	"type": "object",
	"version": "0.0.2",
	"userCode": {
		"global": [
			" "
		],
		"init": [
			"        settings.image = 'buff_clock';",
			"        settings.susitipe = 'buff_clock';",
			"        settings.id = 'I002';",
			"        settings.framewidth = 131;",
			"\t\tsettings.frameheight = 160;",
			"\t\t",
			"\t\tthis._super(game.object.buffBase, 'init', [x, y, settings]);",
			"\t\tlet itemData = game.user.userData.item;",
			"\t\tlet itemInfo = game.controller.data.getDataItemInfo();",
			"\t\tthis.lvl = 1;",
			"\t\tfor(let id in itemData){",
			"\t\t    if(id == this.susitipe){",
			"\t\t        this.lvl = itemData[id];",
			"\t\t    }",
			"\t\t}",
			"\t\t",
			"\t\tfor(let i in itemInfo){",
			"\t\t    if(itemInfo[i].id == this.susitipe){",
			"\t\t        this.buff = itemInfo[i].buff;",
			"\t\t    }",
			"\t\t}",
			"\t    ",
			"\t    this.container.gamePlay.buffTime = this.buff[this.lvl - 1];"
		],
		"userFunction": [
			"    Buff : function(){",
			"        this.container.buffParticle(function(){",
			"            this.container.gamePlay.timeUp(this.buff[this.lvl - 1]);",
			"        }.bind(this));",
			"    }"
		],
		"global-end": [
			" "
		]
	}
}