{
	"type": "object",
	"version": "0.0.2",
	"userCode": {
		"global": [
			" "
		],
		"init": [
			"        settings.image = 'buff_desert';",
			"        settings.susitipe = 'buff_desert';",
			"        settings.id = 'I004';",
			"        settings.framewidth = 185;",
			"\t\tsettings.frameheight = 170;",
			"        this._super(game.object.buffBase, 'init', [x, y, settings]);"
		],
		"userFunction": [
			"    Buff : function(){",
			"        this.container.buffParticle(()=>{",
			"            this.container.ActivateCookies();",
			"        });",
			"    }"
		],
		"global-end": [
			" "
		]
	}
}