{
	"type": "object",
	"version": "0.0.2",
	"userCode": {
		"global": [
			" "
		],
		"init": [
			"\t\tlet vars = [\"region\",\"container\"];",
			"        verify(settings, vars);",
			"        game.util.spread(this, settings, vars);",
			"        ",
			"\t\tsettings.region = this.region;",
			"\t\tsettings.folder = \"mainmenu\";",
			"\t\tsettings.func   = this.func;",
			"        ",
			"        this._super(game.object.ButtonBase, 'init', [x, y, settings]);",
			"        this.prees = true;"
		],
		"userFunction": [
			"    func : function(){",
			"        if(this.alpha == 1 && this.prees){",
			"            this.prees = false;",
			"            game.util.resumeGame();",
			"            this.container.Hide();",
			"            ",
			"            let to = true;",
			"            me.timer.setTimeout(()=>{",
			"                if(to){",
			"                    to = false;",
			"                    this.once = true;",
			"                    this.prees = true;",
			"                }",
			"            }, 500);",
			"        }",
			"    }"
		],
		"global-end": [
			" "
		]
	}
}