{
	"type": "object",
	"version": "0.0.2",
	"animations": {
		"list": [
			{
				"name": "idle",
				"frames": [
					{
						"id": "023faa60-3b63-11eb-8fed-4384b99fedf4",
						"type": "image",
						"ext": "png",
						"image_name": "pause",
						"data_path": "image/gameplay/pause.png",
						"folder_name": "gameplay",
						"width": 118,
						"height": 91
					}
				],
				"duration": "100"
			},
			{
				"name": "pressed",
				"frames": [
					{
						"id": "fb2e61b0-54a5-11eb-abe3-c15efb660d7b",
						"type": "image",
						"ext": "png",
						"image_name": "pause pressed",
						"data_path": "image/gameplay/pause pressed.png",
						"folder_name": "gameplay",
						"width": 100,
						"height": 77
					}
				],
				"duration": "100"
			}
		],
		"default": "idle"
	},
	"images": {
		"list": [
			{
				"id": "fb2e61b0-54a5-11eb-abe3-c15efb660d7b",
				"type": "image",
				"ext": "png",
				"image_name": "pause pressed",
				"data_path": "image/gameplay/pause pressed.png",
				"folder_name": "gameplay",
				"width": 100,
				"height": 77
			},
			{
				"id": "023faa60-3b63-11eb-8fed-4384b99fedf4",
				"type": "image",
				"ext": "png",
				"image_name": "pause",
				"data_path": "image/gameplay/pause.png",
				"folder_name": "gameplay",
				"width": 118,
				"height": 91
			}
		]
	},
	"image": "fb2e61b0-54a5-11eb-abe3-c15efb660d7b",
	"collisionMask": [
		"ALL_OBJECT"
	],
	"event": "<xml xmlns=\"http://www.w3.org/1999/xhtml\"><variables><variable type=\"\" id=\"4d(YZsp2u!i0=ISp0Kl/\">variable</variable></variables></xml>",
	"variables": [
		{
			"name": "variable",
			"description": "",
			"public": true,
			"init": false
		}
	],
	"userCode": {
		"global": [
			" "
		],
		"pre-super": [
			"        "
		],
		"init": [
			"        let vars = [\"container\"];",
			"        verify(settings, vars);",
			"        game.util.spread(this, settings, vars);",
			"        this.pressed = false;"
		],
		"update": [
			"        "
		],
		"onDraw": [
			"        "
		],
		"onActivateEvent": [
			"        "
		],
		"onDeactivateEvent": [
			"        "
		],
		"onClick": [
			"        if(this.alpha == 1){",
			"            if(this.isCurrentAnimation('idle')){",
			"                this.pressed = true;",
			"                this.setCurrentAnimation('pressed');",
			"                me.game.repaint();",
			"                setTimeout(function(){",
			"                    this.setCurrentAnimation('idle', function(){}.bind(this));",
			"                    this.func();",
			"                }.bind(this), 200);",
			"            }",
			"        }"
		],
		"userFunction": [
			"    onRelease: function(){",
			"            ",
			"        ",
			"    },",
			"    ",
			"    func : function(){",
			"        if(this.pressed){",
			"            this.pressed = false;",
			"            this.container.pauseContainer.Show();",
			"            let limitTimeout = true;",
			"            this.timer = me.timer.setTimeout(()=>{",
			"                if(limitTimeout){",
			"                    limitTimeout = false;",
			"                    game.util.pauseGame();",
			"                }",
			"            }, 100);",
			"        }",
			"    }"
		],
		"global-end": [
			" "
		]
	},
	"frameWidth": 100,
	"frameHeight": 100,
	"width": 100,
	"height": 100,
	"hasBody": false,
	"alpha": 1,
	"flipX": false,
	"flipY": false,
	"floating": true,
	"relativeX": "0",
	"relativeY": "0",
	"anchorX": 0.5,
	"anchorY": 0.5,
	"followed": "NONE",
	"alwaysUpdate": false,
	"updateWhenPaused": false,
	"isPersistent": false,
	"click": true,
	"keyUp": false,
	"keyDown": false,
	"collisionCheck": false,
	"gravityX": 0,
	"gravityY": 0.98,
	"collisionType": "ENEMY_OBJECT"
}