{
	"type": "object",
	"version": "0.0.2",
	"userCode": {
		"global": [
			" "
		],
		"init": [
			"\t\tlet vars = [\"region\",\"container\"];",
			"        verify(settings, vars);",
			"        game.util.spread(this, settings, vars);",
			"        ",
			"\t\tsettings.region = this.region;",
			"\t\tsettings.folder = \"gameplay\";",
			"\t\tsettings.func   = this.func;",
			"        ",
			"        this._super(game.object.ButtonBase, 'init', [x, y, settings]);",
			"        this.prees = true;"
		],
		"userFunction": [
			"    func : function(){",
			"        if(this.alpha == 1 && this.prees){",
			"            this.prees = false;",
			"            this.container.placedSushi = false;",
			"            game.util.resumeGame();",
			"            me.game.viewport.fadeIn(\"#000000\", 300);",
			"            game.util.restartGame(\"level1\");",
			"        }",
			"    }"
		],
		"global-end": [
			" "
		]
	}
}