{
	"type": "object",
	"version": "0.0.2",
	"animations": {
		"list": [
			{
				"name": "idle",
				"frames": [
					{
						"id": "f18e9921-5632-11eb-8aae-7d01d3ae8ae7",
						"type": "image",
						"ext": "png",
						"image_name": "Pause_button_help",
						"data_path": "image/gameplay/Pause_button_help.png",
						"folder_name": "gameplay",
						"width": 290,
						"height": 160
					}
				],
				"duration": "100"
			},
			{
				"name": "pressed",
				"frames": [
					{
						"id": "c403c9c1-66d2-11eb-9098-0bfff73742af",
						"type": "image",
						"ext": "png",
						"image_name": "Pause_button_help_pressed",
						"data_path": "image/gameplay/Pause_button_help_pressed.png",
						"folder_name": "gameplay",
						"width": 232,
						"height": 128
					}
				],
				"duration": "100"
			}
		],
		"default": "idle"
	},
	"images": {
		"list": [
			{
				"id": "f18e9921-5632-11eb-8aae-7d01d3ae8ae7",
				"type": "image",
				"ext": "png",
				"image_name": "Pause_button_help",
				"data_path": "image/gameplay/Pause_button_help.png",
				"folder_name": "gameplay",
				"width": 290,
				"height": 160
			},
			{
				"id": "c403c9c1-66d2-11eb-9098-0bfff73742af",
				"type": "image",
				"ext": "png",
				"image_name": "Pause_button_help_pressed",
				"data_path": "image/gameplay/Pause_button_help_pressed.png",
				"folder_name": "gameplay",
				"width": 232,
				"height": 128
			}
		]
	},
	"image": "f18e9921-5632-11eb-8aae-7d01d3ae8ae7",
	"collisionMask": [
		"ALL_OBJECT"
	],
	"event": "<xml xmlns=\"http://www.w3.org/1999/xhtml\"><variables><variable type=\"\" id=\"p6.e9#F^gi1%)rS(u^|)\">variable</variable></variables></xml>",
	"variables": [
		{
			"name": "variable"
		}
	],
	"userCode": {
		"global": [
			""
		],
		"pre-super": [
			"        "
		],
		"init": [
			"        "
		],
		"update": [
			"        "
		],
		"onDraw": [
			"        "
		],
		"onActivateEvent": [
			"        "
		],
		"onDeactivateEvent": [
			"        "
		],
		"onClick": [
			"        if(this.alpha == 1){",
			"            if(this.isCurrentAnimation(\"idle\")){",
			"                this.setCurrentAnimation(\"pressed\");",
			"                this.container.Hide();",
			"                this.container.tutorialContainer.Show();",
			"                setTimeout(function(){",
			"                    this.setCurrentAnimation(\"idle\");",
			"                }.bind(this), 200);",
			"            }",
			"        }"
		],
		"userFunction": [
			"    "
		],
		"global-end": [
			""
		]
	},
	"frameWidth": 100,
	"frameHeight": 100,
	"width": 100,
	"height": 100,
	"hasBody": false,
	"alpha": 1,
	"flipX": false,
	"flipY": false,
	"floating": true,
	"relativeX": "0.5",
	"relativeY": "0.5",
	"anchorX": 0.5,
	"anchorY": 0.5,
	"followed": "NONE",
	"alwaysUpdate": false,
	"updateWhenPaused": false,
	"isPersistent": false,
	"click": true,
	"keyUp": false,
	"keyDown": false,
	"collisionCheck": false,
	"gravityX": 0,
	"gravityY": 0.98,
	"collisionType": "ENEMY_OBJECT"
}