{
	"type": "object",
	"version": "2.1.0",
	"userCode": {
		"global": [
			" "
		],
		"init": [
			"        let vars = [\"container\"];",
			"        verify(settings, vars);",
			"        game.util.spread(this, settings, vars);",
			"        ",
			"\t\tsettings.region = \"Back_to_home\";",
			"\t\tsettings.folder = \"gameplay\";",
			"\t\tsettings.func   = this.func;",
			"\t\t",
			"        this._super(game.object.ButtonBase, 'init', [x, y, settings]);",
			"        this.prees = true;"
		],
		"userFunction": [
			"    func : function(){",
			"        if(this.prees){",
			"            this.prees = false;",
			"            this.container.placedSushi = false;",
			"            game.util.resumeGame();",
			"            this.container.Hide();",
			"            me.game.viewport.fadeIn(\"#000000\", 500,()=>{",
			"                me.state.change(game.state.mainmenu);",
			"            });",
			"        }",
			"    }"
		],
		"global-end": [
			" "
		]
	}
}