{
	"type": "object",
	"version": "0.0.2",
	"animations": {
		"list": [],
		"default": null
	},
	"images": {
		"list": [
			{
				"id": "f18e9920-5632-11eb-8aae-7d01d3ae8ae7",
				"type": "image",
				"ext": "png",
				"image_name": "Pause_frame",
				"data_path": "image/gameplay/Pause_frame.png",
				"folder_name": "gameplay",
				"width": 997,
				"height": 1892
			}
		]
	},
	"image": "f18e9920-5632-11eb-8aae-7d01d3ae8ae7",
	"collisionMask": [
		"ALL_OBJECT"
	],
	"event": "<xml xmlns=\"http://www.w3.org/1999/xhtml\"><variables><variable type=\"\" id=\":zXz6k-)8J`9Lt:Z^8#M\">variable</variable></variables></xml>",
	"variables": [
		{
			"name": "variable"
		}
	],
	"userCode": {},
	"frameWidth": 997,
	"frameHeight": 1892,
	"width": 100,
	"height": 100,
	"hasBody": false,
	"alpha": 1,
	"flipX": false,
	"flipY": false,
	"floating": true,
	"relativeX": "0.5",
	"relativeY": "0.5",
	"anchorX": 0.5,
	"anchorY": 0.5,
	"followed": "NONE",
	"alwaysUpdate": false,
	"updateWhenPaused": false,
	"isPersistent": false,
	"click": false,
	"keyUp": false,
	"keyDown": false,
	"collisionCheck": false,
	"gravityX": 0,
	"gravityY": 0.98,
	"collisionType": "ENEMY_OBJECT"
}