{
	"type": "object",
	"version": "0.0.2",
	"userCode": {
		"global": [
			" "
		],
		"init": [
			"        x -= me.game.viewport.width * 0.5;",
			"\t\ty -= me.game.viewport.height * 0.5;",
			"\t\t",
			"\t\tlet vars = [\"region\",\"container\"];",
			"        verify(settings, vars);",
			"        game.util.spread(this, settings, vars);",
			"        ",
			"\t\tsettings.region = this.region;",
			"\t\tsettings.folder = \"gameplay\";",
			"\t\tsettings.func   = this.func;",
			"\t\t",
			"        this._super(game.object.ButtonBase, 'init', [x, y, settings]);"
		],
		"userFunction": [
			"    func : function(){",
			"        console.log(\"a\");",
			"    }"
		],
		"global-end": [
			" "
		]
	}
}