{
	"type": "object",
	"version": "0.0.2",
	"layers": [],
	"collisionMask": [
		"ALL_OBJECT"
	],
	"event": "<xml xmlns=\"http://www.w3.org/1999/xhtml\"><variables><variable type=\"\" id=\"b_*uA^N2M)WGEg:ERJXP\">variable</variable></variables></xml>",
	"variables": [
		{
			"name": "variable",
			"description": "",
			"public": true,
			"init": false
		}
	],
	"userCode": {
		"global": [
			" "
		],
		"pre-super": [
			"        let vars = [\"container\"];",
			"        verify(settings, vars);",
			"        game.util.spread(this, settings, vars);"
		],
		"init": [
			"        this.bg = me.pool.pull(\"BGPause\", 0, 0);",
			"        me.game.world.addChild(this.bg, 100);",
			"            ",
			"        this.pauseFrame = me.pool.pull(\"PauseFrame\", 0, 0);",
			"        me.game.world.addChild(this.pauseFrame, 101);",
			"    ",
			"        this.speakerBar = me.pool.pull(\"SpeakerBar\", 0, -300);",
			"        me.game.world.addChild(this.speakerBar, 102);",
			"        this.speakerBar.container = this;",
			"        ",
			"        this.btnHelp = me.pool.pull(\"BtnHelp\", 0, -50, {//2300",
			"            region : \"Pause_button_help\",",
			"            container : this",
			"        });",
			"        me.game.world.addChild(this.btnHelp, 102);",
			"        ",
			"        if(inGamePlay){",
			"            this.btnRestart = me.pool.pull(\"BtnRestart\", 0, 200,{//2550 +250",
			"                region : \"Pause_button_restart\",",
			"                container : this",
			"            });",
			"            me.game.world.addChild(this.btnRestart, 102);",
			"            ",
			"            this.btnToHome = me.pool.pull(\"BtnToHome\", 0, 850,{",
			"                container : this",
			"            });",
			"            me.game.world.addChild(this.btnToHome, 105);",
			"        }",
			"",
			"        this.btnContinue = me.pool.pull(\"BtnContinue\", 0, 625,{",
			"            region : \"button_play_001\",",
			"            container : this",
			"        });",
			"        me.game.world.addChild(this.btnContinue, 102);",
			"        ",
			"        this.tutorialContainer = me.pool.pull(\"TutorialContainer\", 0, 0);",
			"        me.game.world.addChild(this.tutorialContainer, 103);",
			"        this.tutorialContainer.pauseContainer = this;",
			"        ",
			"        this.MoveSpeakerIcon();",
			"        ",
			"        this.placedSushi = true;"
		],
		"update": [
			"        "
		],
		"onDraw": [
			"        "
		],
		"onActivateEvent": [
			"        "
		],
		"onDeactivateEvent": [
			"        me.game.world.removeChild(this.bg);",
			"        me.game.world.removeChild(this.speakerBar);",
			"        me.game.world.removeChild(this.btnHelp);",
			"        me.game.world.removeChild(this.btnContinue);",
			"        if(inGamePlay){",
			"            me.game.world.removeChild(this.btnToHome);",
			"        }",
			"            "
		],
		"userFunction": [
			"    Hide : function(){",
			"        iniDipause = true;",
			"        if(!this.container.mainmenu){",
			"            this.container.pauseBtn.alpha = 1;",
			"        }",
			"        this.bg.alpha = 0;",
			"        this.speakerBar.alpha = 0;",
			"        this.btnHelp.alpha = 0;",
			"        this.btnContinue.alpha = 0;",
			"        ",
			"",
			"        if(inGamePlay){",
			"            this.btnRestart.alpha = 0;",
			"            this.btnRestart.pos.y = this.btnRestart.pos.y+9000;",
			"            this.btnToHome.pos.y = this.btnToHome.pos.y+9000;",
			"        }",
			"        ",
			"        this.btnContinue.pos.y = this.btnContinue.pos.y+9000;",
			"        this.pauseFrame.pos.y += 9000;",
			"        this.bg.pos.y =  this.bg.pos.y + 9000;",
			"        this.speakerBar.pos.y = this.speakerBar.pos.y+9000;",
			"        this.btnHelp.pos.y = this.btnHelp.pos.y+9000;",
			"        ",
			"    },",
			"    ",
			"    Show : function(){",
			"        if(this.bg.alpha == 0){",
			"            iniDipause = false;",
			"            if(!this.container.mainmenu){",
			"                this.container.pauseBtn.alpha = 0;",
			"            }",
			"            this.bg.alpha = 1;",
			"            this.speakerBar.alpha = 1;",
			"            this.btnHelp.alpha = 1;",
			"            this.btnContinue.alpha = 1;",
			"            this.btnContinue.pos.y = this.btnContinue.pos.y-9000;",
			"            ",
			"            if(inGamePlay){",
			"                this.btnRestart.alpha = 1;",
			"                this.btnRestart.pos.y = this.btnRestart.pos.y - 9000;",
			"                this.btnToHome.pos.y = this.btnToHome.pos.y-9000;",
			"            }",
			"            ",
			"            this.pauseFrame.pos.y -= 9000;",
			"            this.bg.pos.y = this.bg.pos.y - 9000;",
			"            this.speakerBar.pos.y = this.speakerBar.pos.y - 9000;",
			"            this.btnHelp.pos.y = this.btnHelp.pos.y - 9000; ",
			"        }",
			"    },",
			"    ",
			"    MoveSpeakerIcon : function(){",
			"        if(game.var.mute){",
			"            me.audio.muteAll();",
			"            this.speakerBar.setCurrentAnimation(\"disable\");",
			"        }",
			"        else{",
			"            me.audio.unmuteAll();",
			"            this.speakerBar.setCurrentAnimation(\"able\");",
			"        }",
			"        ",
			"        me.game.repaint();",
			"    },",
			"    ",
			"    Resume : function(){",
			"        me.timer.clearTimeout(this.container.pauseBtn.timer);",
			"        game.util.resumeGame();",
			"        ",
			"        this.Hide();",
			"    }"
		],
		"global-end": [
			" "
		]
	},
	"width": 100,
	"height": 100,
	"hasBody": false,
	"alpha": 1,
	"flipX": false,
	"flipY": false,
	"floating": true,
	"relativeX": "0.5",
	"relativeY": "0.5",
	"anchorX": 0.5,
	"anchorY": 0.5,
	"followed": "NONE",
	"alwaysUpdate": true,
	"updateWhenPaused": false,
	"isPersistent": false,
	"click": false,
	"keyUp": false,
	"keyDown": false,
	"collisionCheck": false,
	"gravityX": 0,
	"gravityY": 0.98,
	"collisionType": "ENEMY_OBJECT"
}