{
	"type": "object",
	"version": "0.0.2",
	"animations": {
		"list": [
			{
				"name": "able",
				"frames": [
					{
						"id": "1d7afb80-65e4-11eb-90d2-c37f1fdfab4e",
						"type": "image",
						"ext": "png",
						"image_name": "Pause_button_soundON",
						"data_path": "image/gameplay/Pause_button_soundON.png",
						"folder_name": "gameplay",
						"width": 297,
						"height": 180
					}
				],
				"duration": "100"
			},
			{
				"name": "disable",
				"frames": [
					{
						"id": "0dd20d50-5634-11eb-8aae-7d01d3ae8ae7",
						"type": "image",
						"ext": "png",
						"image_name": "Pause_button_soundOff",
						"data_path": "image/gameplay/Pause_button_soundOff.png",
						"folder_name": "gameplay",
						"width": 304,
						"height": 180
					}
				],
				"duration": "100"
			}
		],
		"default": "able"
	},
	"images": {
		"list": [
			{
				"id": "1d7afb81-65e4-11eb-90d2-c37f1fdfab4e",
				"type": "image",
				"ext": "png",
				"image_name": "Pause_button_soundOff",
				"data_path": "image/gameplay/Pause_button_soundOff.png",
				"folder_name": "gameplay",
				"width": 304,
				"height": 180
			},
			{
				"id": "1d7afb80-65e4-11eb-90d2-c37f1fdfab4e",
				"type": "image",
				"ext": "png",
				"image_name": "Pause_button_soundON",
				"data_path": "image/gameplay/Pause_button_soundON.png",
				"folder_name": "gameplay",
				"width": 297,
				"height": 180
			}
		]
	},
	"image": "1d7afb81-65e4-11eb-90d2-c37f1fdfab4e",
	"collisionMask": [
		"ALL_OBJECT"
	],
	"event": "<xml xmlns=\"http://www.w3.org/1999/xhtml\"><variables><variable type=\"\" id=\"nZNvmgtDc?Y0TCE.(dk|\">variable</variable></variables></xml>",
	"variables": [
		{
			"name": "variable",
			"description": "",
			"public": true,
			"init": false
		}
	],
	"userCode": {
		"global": [
			" "
		],
		"pre-super": [
			"        "
		],
		"init": [
			"        this.press = true;"
		],
		"update": [
			"        "
		],
		"onDraw": [
			"        "
		],
		"onActivateEvent": [
			"        "
		],
		"onDeactivateEvent": [
			"        "
		],
		"onClick": [
			"        this.ClickFunc();"
		],
		"userFunction": [
			"    ClickFunc : function(){",
			"        if(this.alpha == 1){",
			"            if(game.var.mute){",
			"                game.var.mute = false;",
			"            }",
			"            else{",
			"                game.var.mute = true;",
			"            }",
			"            ",
			"            ",
			"            this.container.MoveSpeakerIcon();",
			"        }",
			"    }"
		],
		"global-end": [
			" "
		]
	},
	"frameWidth": 100,
	"frameHeight": 100,
	"width": 100,
	"height": 100,
	"hasBody": false,
	"alpha": 1,
	"flipX": false,
	"flipY": false,
	"floating": true,
	"relativeX": "0.5",
	"relativeY": "0.5",
	"anchorX": 0.5,
	"anchorY": 0.5,
	"followed": "NONE",
	"alwaysUpdate": false,
	"updateWhenPaused": false,
	"isPersistent": false,
	"click": true,
	"keyUp": false,
	"keyDown": false,
	"collisionCheck": false,
	"gravityX": 0,
	"gravityY": 0.98,
	"collisionType": "ENEMY_OBJECT"
}