{
	"type": "object",
	"version": "2.1.0",
	"animations": {
		"list": [
			{
				"name": "Up",
				"frames": [
					{
						"id": "542c1f10-677e-11eb-92f8-2be08656bc8e",
						"type": "image",
						"ext": "png",
						"image_name": "addToBank - 00",
						"data_path": "image/gameplay/effect/addToBank - 00.png",
						"folder_name": "gameplay/effect",
						"width": 900,
						"height": 1400
					},
					{
						"id": "542c1f11-677e-11eb-92f8-2be08656bc8e",
						"type": "image",
						"ext": "png",
						"image_name": "addToBank - 01",
						"data_path": "image/gameplay/effect/addToBank - 01.png",
						"folder_name": "gameplay/effect",
						"width": 900,
						"height": 1400
					},
					{
						"id": "542c1f12-677e-11eb-92f8-2be08656bc8e",
						"type": "image",
						"ext": "png",
						"image_name": "addToBank - 02",
						"data_path": "image/gameplay/effect/addToBank - 02.png",
						"folder_name": "gameplay/effect",
						"width": 900,
						"height": 1400
					},
					{
						"id": "542c1f13-677e-11eb-92f8-2be08656bc8e",
						"type": "image",
						"ext": "png",
						"image_name": "addToBank - 03",
						"data_path": "image/gameplay/effect/addToBank - 03.png",
						"folder_name": "gameplay/effect",
						"width": 900,
						"height": 1400
					},
					{
						"id": "542c1f14-677e-11eb-92f8-2be08656bc8e",
						"type": "image",
						"ext": "png",
						"image_name": "addToBank - 04",
						"data_path": "image/gameplay/effect/addToBank - 04.png",
						"folder_name": "gameplay/effect",
						"width": 900,
						"height": 1400
					},
					{
						"id": "542c1f15-677e-11eb-92f8-2be08656bc8e",
						"type": "image",
						"ext": "png",
						"image_name": "addToBank - 05",
						"data_path": "image/gameplay/effect/addToBank - 05.png",
						"folder_name": "gameplay/effect",
						"width": 900,
						"height": 1400
					},
					{
						"id": "542c1f16-677e-11eb-92f8-2be08656bc8e",
						"type": "image",
						"ext": "png",
						"image_name": "addToBank - 06",
						"data_path": "image/gameplay/effect/addToBank - 06.png",
						"folder_name": "gameplay/effect",
						"width": 900,
						"height": 1400
					},
					{
						"id": "542c1f17-677e-11eb-92f8-2be08656bc8e",
						"type": "image",
						"ext": "png",
						"image_name": "addToBank - 07",
						"data_path": "image/gameplay/effect/addToBank - 07.png",
						"folder_name": "gameplay/effect",
						"width": 900,
						"height": 1400
					},
					{
						"id": "542c1f18-677e-11eb-92f8-2be08656bc8e",
						"type": "image",
						"ext": "png",
						"image_name": "addToBank - 08",
						"data_path": "image/gameplay/effect/addToBank - 08.png",
						"folder_name": "gameplay/effect",
						"width": 900,
						"height": 1400
					},
					{
						"id": "542c4620-677e-11eb-92f8-2be08656bc8e",
						"type": "image",
						"ext": "png",
						"image_name": "addToBank - 09",
						"data_path": "image/gameplay/effect/addToBank - 09.png",
						"folder_name": "gameplay/effect",
						"width": 900,
						"height": 1400
					},
					{
						"id": "542c4621-677e-11eb-92f8-2be08656bc8e",
						"type": "image",
						"ext": "png",
						"image_name": "addToBank - 10",
						"data_path": "image/gameplay/effect/addToBank - 10.png",
						"folder_name": "gameplay/effect",
						"width": 900,
						"height": 1400
					},
					{
						"id": "542c4622-677e-11eb-92f8-2be08656bc8e",
						"type": "image",
						"ext": "png",
						"image_name": "addToBank - 11",
						"data_path": "image/gameplay/effect/addToBank - 11.png",
						"folder_name": "gameplay/effect",
						"width": 900,
						"height": 1400
					},
					{
						"id": "542c4623-677e-11eb-92f8-2be08656bc8e",
						"type": "image",
						"ext": "png",
						"image_name": "addToBank - 12",
						"data_path": "image/gameplay/effect/addToBank - 12.png",
						"folder_name": "gameplay/effect",
						"width": 900,
						"height": 1400
					}
				],
				"duration": "70"
			},
			{
				"name": "spark",
				"frames": [
					{
						"id": "4fd34c40-677e-11eb-92f8-2be08656bc8e",
						"type": "image",
						"ext": "png",
						"image_name": "addToBankSpark - 00",
						"data_path": "image/gameplay/effect/addToBankSpark - 00.png",
						"folder_name": "gameplay/effect",
						"width": 500,
						"height": 500
					},
					{
						"id": "4fd34c41-677e-11eb-92f8-2be08656bc8e",
						"type": "image",
						"ext": "png",
						"image_name": "addToBankSpark - 01",
						"data_path": "image/gameplay/effect/addToBankSpark - 01.png",
						"folder_name": "gameplay/effect",
						"width": 500,
						"height": 500
					},
					{
						"id": "4fd37350-677e-11eb-92f8-2be08656bc8e",
						"type": "image",
						"ext": "png",
						"image_name": "addToBankSpark - 02",
						"data_path": "image/gameplay/effect/addToBankSpark - 02.png",
						"folder_name": "gameplay/effect",
						"width": 500,
						"height": 500
					},
					{
						"id": "4fd37351-677e-11eb-92f8-2be08656bc8e",
						"type": "image",
						"ext": "png",
						"image_name": "addToBankSpark - 03",
						"data_path": "image/gameplay/effect/addToBankSpark - 03.png",
						"folder_name": "gameplay/effect",
						"width": 500,
						"height": 500
					},
					{
						"id": "4fd37352-677e-11eb-92f8-2be08656bc8e",
						"type": "image",
						"ext": "png",
						"image_name": "addToBankSpark - 04",
						"data_path": "image/gameplay/effect/addToBankSpark - 04.png",
						"folder_name": "gameplay/effect",
						"width": 500,
						"height": 500
					},
					{
						"id": "4fd37353-677e-11eb-92f8-2be08656bc8e",
						"type": "image",
						"ext": "png",
						"image_name": "addToBankSpark - 05",
						"data_path": "image/gameplay/effect/addToBankSpark - 05.png",
						"folder_name": "gameplay/effect",
						"width": 500,
						"height": 500
					}
				],
				"duration": "70"
			}
		],
		"default": "Up"
	},
	"images": {
		"list": [
			{
				"id": "542c1f10-677e-11eb-92f8-2be08656bc8e",
				"type": "image",
				"ext": "png",
				"image_name": "addToBank - 00",
				"data_path": "image/gameplay/effect/addToBank - 00.png",
				"folder_name": "gameplay/effect",
				"width": 900,
				"height": 1400
			},
			{
				"id": "542c1f11-677e-11eb-92f8-2be08656bc8e",
				"type": "image",
				"ext": "png",
				"image_name": "addToBank - 01",
				"data_path": "image/gameplay/effect/addToBank - 01.png",
				"folder_name": "gameplay/effect",
				"width": 900,
				"height": 1400
			},
			{
				"id": "542c1f12-677e-11eb-92f8-2be08656bc8e",
				"type": "image",
				"ext": "png",
				"image_name": "addToBank - 02",
				"data_path": "image/gameplay/effect/addToBank - 02.png",
				"folder_name": "gameplay/effect",
				"width": 900,
				"height": 1400
			},
			{
				"id": "542c1f13-677e-11eb-92f8-2be08656bc8e",
				"type": "image",
				"ext": "png",
				"image_name": "addToBank - 03",
				"data_path": "image/gameplay/effect/addToBank - 03.png",
				"folder_name": "gameplay/effect",
				"width": 900,
				"height": 1400
			},
			{
				"id": "542c1f14-677e-11eb-92f8-2be08656bc8e",
				"type": "image",
				"ext": "png",
				"image_name": "addToBank - 04",
				"data_path": "image/gameplay/effect/addToBank - 04.png",
				"folder_name": "gameplay/effect",
				"width": 900,
				"height": 1400
			},
			{
				"id": "542c1f15-677e-11eb-92f8-2be08656bc8e",
				"type": "image",
				"ext": "png",
				"image_name": "addToBank - 05",
				"data_path": "image/gameplay/effect/addToBank - 05.png",
				"folder_name": "gameplay/effect",
				"width": 900,
				"height": 1400
			},
			{
				"id": "542c1f16-677e-11eb-92f8-2be08656bc8e",
				"type": "image",
				"ext": "png",
				"image_name": "addToBank - 06",
				"data_path": "image/gameplay/effect/addToBank - 06.png",
				"folder_name": "gameplay/effect",
				"width": 900,
				"height": 1400
			},
			{
				"id": "542c1f17-677e-11eb-92f8-2be08656bc8e",
				"type": "image",
				"ext": "png",
				"image_name": "addToBank - 07",
				"data_path": "image/gameplay/effect/addToBank - 07.png",
				"folder_name": "gameplay/effect",
				"width": 900,
				"height": 1400
			},
			{
				"id": "542c1f18-677e-11eb-92f8-2be08656bc8e",
				"type": "image",
				"ext": "png",
				"image_name": "addToBank - 08",
				"data_path": "image/gameplay/effect/addToBank - 08.png",
				"folder_name": "gameplay/effect",
				"width": 900,
				"height": 1400
			},
			{
				"id": "542c4620-677e-11eb-92f8-2be08656bc8e",
				"type": "image",
				"ext": "png",
				"image_name": "addToBank - 09",
				"data_path": "image/gameplay/effect/addToBank - 09.png",
				"folder_name": "gameplay/effect",
				"width": 900,
				"height": 1400
			},
			{
				"id": "542c4621-677e-11eb-92f8-2be08656bc8e",
				"type": "image",
				"ext": "png",
				"image_name": "addToBank - 10",
				"data_path": "image/gameplay/effect/addToBank - 10.png",
				"folder_name": "gameplay/effect",
				"width": 900,
				"height": 1400
			},
			{
				"id": "542c4622-677e-11eb-92f8-2be08656bc8e",
				"type": "image",
				"ext": "png",
				"image_name": "addToBank - 11",
				"data_path": "image/gameplay/effect/addToBank - 11.png",
				"folder_name": "gameplay/effect",
				"width": 900,
				"height": 1400
			},
			{
				"id": "542c4623-677e-11eb-92f8-2be08656bc8e",
				"type": "image",
				"ext": "png",
				"image_name": "addToBank - 12",
				"data_path": "image/gameplay/effect/addToBank - 12.png",
				"folder_name": "gameplay/effect",
				"width": 900,
				"height": 1400
			},
			{
				"id": "4fd34c40-677e-11eb-92f8-2be08656bc8e",
				"type": "image",
				"ext": "png",
				"image_name": "addToBankSpark - 00",
				"data_path": "image/gameplay/effect/addToBankSpark - 00.png",
				"folder_name": "gameplay/effect",
				"width": 500,
				"height": 500
			},
			{
				"id": "4fd34c41-677e-11eb-92f8-2be08656bc8e",
				"type": "image",
				"ext": "png",
				"image_name": "addToBankSpark - 01",
				"data_path": "image/gameplay/effect/addToBankSpark - 01.png",
				"folder_name": "gameplay/effect",
				"width": 500,
				"height": 500
			},
			{
				"id": "4fd37350-677e-11eb-92f8-2be08656bc8e",
				"type": "image",
				"ext": "png",
				"image_name": "addToBankSpark - 02",
				"data_path": "image/gameplay/effect/addToBankSpark - 02.png",
				"folder_name": "gameplay/effect",
				"width": 500,
				"height": 500
			},
			{
				"id": "4fd37351-677e-11eb-92f8-2be08656bc8e",
				"type": "image",
				"ext": "png",
				"image_name": "addToBankSpark - 03",
				"data_path": "image/gameplay/effect/addToBankSpark - 03.png",
				"folder_name": "gameplay/effect",
				"width": 500,
				"height": 500
			},
			{
				"id": "4fd37352-677e-11eb-92f8-2be08656bc8e",
				"type": "image",
				"ext": "png",
				"image_name": "addToBankSpark - 04",
				"data_path": "image/gameplay/effect/addToBankSpark - 04.png",
				"folder_name": "gameplay/effect",
				"width": 500,
				"height": 500
			},
			{
				"id": "4fd37353-677e-11eb-92f8-2be08656bc8e",
				"type": "image",
				"ext": "png",
				"image_name": "addToBankSpark - 05",
				"data_path": "image/gameplay/effect/addToBankSpark - 05.png",
				"folder_name": "gameplay/effect",
				"width": 500,
				"height": 500
			}
		]
	},
	"image": "542c1f10-677e-11eb-92f8-2be08656bc8e",
	"collisionMask": [
		"ALL_OBJECT"
	],
	"event": "<xml xmlns=\"http://www.w3.org/1999/xhtml\"><variables><variable type=\"\" id=\"h7@%l}Mt`Aq2@Jbu%-$g\">variable</variable></variables></xml>",
	"variables": [
		{
			"name": "variable",
			"description": "",
			"public": true,
			"init": false
		}
	],
	"userCode": {
		"global": [
			""
		],
		"pre-super": [
			"        "
		],
		"init": [
			"        "
		],
		"update": [
			"        "
		],
		"onDraw": [
			"        "
		],
		"onActivateEvent": [
			"        "
		],
		"onDeactivateEvent": [
			"        "
		],
		"userFunction": [
			"    "
		],
		"global-end": [
			""
		]
	},
	"frameWidth": 100,
	"frameHeight": 100,
	"width": 100,
	"height": 100,
	"hasBody": false,
	"alpha": 1,
	"flipX": false,
	"flipY": false,
	"floating": true,
	"relativeX": "0",
	"relativeY": "0",
	"anchorX": 0.5,
	"anchorY": 0.5,
	"followed": "NONE",
	"alwaysUpdate": false,
	"updateWhenPaused": false,
	"isPersistent": false,
	"click": false,
	"keyUp": false,
	"keyDown": false,
	"collisionCheck": false,
	"gravityX": 0,
	"gravityY": 0.98,
	"collisionType": "ENEMY_OBJECT"
}