{
	"type": "object",
	"version": "0.0.2",
	"animations": {
		"list": [],
		"default": null
	},
	"images": {
		"list": [
			{
				"id": "ff9c1ca2-2e04-11eb-89f0-d54b3bb16552",
				"type": "image",
				"ext": "png",
				"image_name": "angryEffect-3",
				"data_path": "image/gameplay/effect/angryEffect-3.png",
				"folder_name": "gameplay/effect",
				"width": 180,
				"height": 100
			}
		]
	},
	"image": "ff9c1ca2-2e04-11eb-89f0-d54b3bb16552",
	"collisionMask": [
		"ALL_OBJECT"
	],
	"event": "<xml xmlns=\"http://www.w3.org/1999/xhtml\"><variables><variable type=\"\" id=\"D#h=nEI{73p:^u)XpdVo\">variable</variable></variables></xml>",
	"variables": [
		{
			"name": "variable",
			"description": "",
			"public": true,
			"init": false
		}
	],
	"userCode": {
		"global": [
			" "
		],
		"pre-super": [
			"        "
		],
		"init": [
			"        this.life = true;",
			"        this.tweenPlay = false;"
		],
		"update": [
			"        "
		],
		"onDraw": [
			"        "
		],
		"onActivateEvent": [
			"        "
		],
		"onDeactivateEvent": [
			"        "
		],
		"userFunction": [
			"    tweenOn: function(){",
			"        this.tweenPlay = true;",
			"        this.tweenAlpha = new me.Tween(this)",
			"        .to({alpha:0.2}, 50)",
			"        .yoyo(true)",
			"        .repeat(15)",
			"        .onComplete(()=>{",
			"            this.tweenPlay = false;",
			"            if(this.life){",
			"                this.life = false;",
			"                me.game.world.removeChild(this);",
			"            }",
			"        });",
			"        ",
			"        this.tweenAlpha.start();",
			"    },",
			"    ",
			"    tweenOff: function(){",
			"        if(this.tweenPlay){",
			"            this.tweenAlpha.stop();",
			"            if(this.life){",
			"                this.life = false;",
			"                me.game.world.removeChild(this);",
			"            }",
			"        }",
			"    }"
		],
		"global-end": [
			" "
		]
	},
	"frameWidth": 100,
	"frameHeight": 100,
	"width": 100,
	"height": 100,
	"hasBody": false,
	"alpha": 1,
	"flipX": false,
	"flipY": false,
	"floating": true,
	"relativeX": "0",
	"relativeY": "0",
	"anchorX": 0.5,
	"anchorY": 0.5,
	"followed": "NONE",
	"alwaysUpdate": false,
	"updateWhenPaused": false,
	"isPersistent": false,
	"click": false,
	"keyUp": false,
	"keyDown": false,
	"collisionCheck": false,
	"gravityX": 0,
	"gravityY": 0.98,
	"collisionType": "ENEMY_OBJECT"
}