{
	"type": "object",
	"version": "0.0.2",
	"animations": {
		"list": [
			{
				"name": "idle",
				"frames": [
					{
						"id": "0066f0c0-3dea-11eb-9ec5-c3068ea02563",
						"type": "image",
						"ext": "png",
						"image_name": "Buff particle_0000",
						"data_path": "image/gameplay/effect/Buff particle_0000.png",
						"folder_name": "gameplay/effect",
						"width": 400,
						"height": 400
					},
					{
						"id": "0066f0c2-3dea-11eb-9ec5-c3068ea02563",
						"type": "image",
						"ext": "png",
						"image_name": "Buff particle_0002",
						"data_path": "image/gameplay/effect/Buff particle_0002.png",
						"folder_name": "gameplay/effect",
						"width": 400,
						"height": 400
					},
					{
						"id": "0066f0c3-3dea-11eb-9ec5-c3068ea02563",
						"type": "image",
						"ext": "png",
						"image_name": "Buff particle_0003",
						"data_path": "image/gameplay/effect/Buff particle_0003.png",
						"folder_name": "gameplay/effect",
						"width": 400,
						"height": 400
					},
					{
						"id": "0066f0c4-3dea-11eb-9ec5-c3068ea02563",
						"type": "image",
						"ext": "png",
						"image_name": "Buff particle_0004",
						"data_path": "image/gameplay/effect/Buff particle_0004.png",
						"folder_name": "gameplay/effect",
						"width": 400,
						"height": 400
					}
				],
				"duration": "70"
			}
		],
		"default": "idle"
	},
	"images": {
		"list": [
			{
				"id": "0066f0c0-3dea-11eb-9ec5-c3068ea02563",
				"type": "image",
				"ext": "png",
				"image_name": "Buff particle_0000",
				"data_path": "image/gameplay/effect/Buff particle_0000.png",
				"folder_name": "gameplay/effect",
				"width": 400,
				"height": 400
			},
			{
				"id": "0066f0c1-3dea-11eb-9ec5-c3068ea02563",
				"type": "image",
				"ext": "png",
				"image_name": "Buff particle_0001",
				"data_path": "image/gameplay/effect/Buff particle_0001.png",
				"folder_name": "gameplay/effect",
				"width": 400,
				"height": 400
			},
			{
				"id": "0066f0c2-3dea-11eb-9ec5-c3068ea02563",
				"type": "image",
				"ext": "png",
				"image_name": "Buff particle_0002",
				"data_path": "image/gameplay/effect/Buff particle_0002.png",
				"folder_name": "gameplay/effect",
				"width": 400,
				"height": 400
			},
			{
				"id": "0066f0c3-3dea-11eb-9ec5-c3068ea02563",
				"type": "image",
				"ext": "png",
				"image_name": "Buff particle_0003",
				"data_path": "image/gameplay/effect/Buff particle_0003.png",
				"folder_name": "gameplay/effect",
				"width": 400,
				"height": 400
			},
			{
				"id": "0066f0c4-3dea-11eb-9ec5-c3068ea02563",
				"type": "image",
				"ext": "png",
				"image_name": "Buff particle_0004",
				"data_path": "image/gameplay/effect/Buff particle_0004.png",
				"folder_name": "gameplay/effect",
				"width": 400,
				"height": 400
			},
			{
				"id": "0066f0c5-3dea-11eb-9ec5-c3068ea02563",
				"type": "image",
				"ext": "png",
				"image_name": "Buff particle_0005",
				"data_path": "image/gameplay/effect/Buff particle_0005.png",
				"folder_name": "gameplay/effect",
				"width": 400,
				"height": 400
			},
			{
				"id": "0066f0c6-3dea-11eb-9ec5-c3068ea02563",
				"type": "image",
				"ext": "png",
				"image_name": "Buff particle_0006",
				"data_path": "image/gameplay/effect/Buff particle_0006.png",
				"folder_name": "gameplay/effect",
				"width": 400,
				"height": 400
			}
		]
	},
	"image": "0066f0c0-3dea-11eb-9ec5-c3068ea02563",
	"collisionMask": [
		"ALL_OBJECT"
	],
	"event": "<xml xmlns=\"http://www.w3.org/1999/xhtml\"><variables><variable type=\"\" id=\"O5InP1$o}U|iKLdRLw_?\">variable</variable></variables></xml>",
	"variables": [
		{
			"name": "variable",
			"description": "",
			"public": true,
			"init": false
		}
	],
	"userCode": {
		"global": [
			" "
		],
		"pre-super": [
			"        "
		],
		"init": [
			"        "
		],
		"update": [
			"        "
		],
		"onDraw": [
			"        "
		],
		"onActivateEvent": [
			"        "
		],
		"onDeactivateEvent": [
			"        "
		],
		"userFunction": [
			"    "
		],
		"global-end": [
			" "
		]
	},
	"frameWidth": 100,
	"frameHeight": 100,
	"width": 100,
	"height": 100,
	"hasBody": false,
	"alpha": 1,
	"flipX": false,
	"flipY": false,
	"floating": true,
	"relativeX": "0.5",
	"relativeY": "0.5",
	"anchorX": 0.5,
	"anchorY": 0.5,
	"followed": "NONE",
	"alwaysUpdate": false,
	"updateWhenPaused": false,
	"isPersistent": false,
	"click": false,
	"keyUp": false,
	"keyDown": false,
	"collisionCheck": false,
	"gravityX": 0,
	"gravityY": 0.98,
	"collisionType": "ENEMY_OBJECT"
}