{
	"type": "object",
	"version": "0.0.2",
	"animations": {
		"list": [
			{
				"name": "Animation 1",
				"frames": [
					{
						"id": "01968450-351c-11eb-9d81-39261e810569",
						"type": "image",
						"ext": "png",
						"image_name": "coin_effect-00",
						"data_path": "image/gameplay/effect/coin_effect-00.png",
						"folder_name": "gameplay/effect",
						"width": 1080,
						"height": 1080
					},
					{
						"id": "0196ab60-351c-11eb-9d81-39261e810569",
						"type": "image",
						"ext": "png",
						"image_name": "coin_effect-01",
						"data_path": "image/gameplay/effect/coin_effect-01.png",
						"folder_name": "gameplay/effect",
						"width": 1080,
						"height": 1080
					},
					{
						"id": "0196ab61-351c-11eb-9d81-39261e810569",
						"type": "image",
						"ext": "png",
						"image_name": "coin_effect-02",
						"data_path": "image/gameplay/effect/coin_effect-02.png",
						"folder_name": "gameplay/effect",
						"width": 1080,
						"height": 1080
					},
					{
						"id": "0196ab62-351c-11eb-9d81-39261e810569",
						"type": "image",
						"ext": "png",
						"image_name": "coin_effect-03",
						"data_path": "image/gameplay/effect/coin_effect-03.png",
						"folder_name": "gameplay/effect",
						"width": 1080,
						"height": 1080
					},
					{
						"id": "0196ab63-351c-11eb-9d81-39261e810569",
						"type": "image",
						"ext": "png",
						"image_name": "coin_effect-04",
						"data_path": "image/gameplay/effect/coin_effect-04.png",
						"folder_name": "gameplay/effect",
						"width": 1080,
						"height": 1080
					},
					{
						"id": "0196ab64-351c-11eb-9d81-39261e810569",
						"type": "image",
						"ext": "png",
						"image_name": "coin_effect-05",
						"data_path": "image/gameplay/effect/coin_effect-05.png",
						"folder_name": "gameplay/effect",
						"width": 1080,
						"height": 1080
					}
				],
				"duration": "70"
			}
		],
		"default": "Animation 1"
	},
	"images": {
		"list": [
			{
				"id": "01968450-351c-11eb-9d81-39261e810569",
				"type": "image",
				"ext": "png",
				"image_name": "coin_effect-00",
				"data_path": "image/gameplay/effect/coin_effect-00.png",
				"folder_name": "gameplay/effect",
				"width": 1080,
				"height": 1080
			},
			{
				"id": "0196ab60-351c-11eb-9d81-39261e810569",
				"type": "image",
				"ext": "png",
				"image_name": "coin_effect-01",
				"data_path": "image/gameplay/effect/coin_effect-01.png",
				"folder_name": "gameplay/effect",
				"width": 1080,
				"height": 1080
			},
			{
				"id": "0196ab61-351c-11eb-9d81-39261e810569",
				"type": "image",
				"ext": "png",
				"image_name": "coin_effect-02",
				"data_path": "image/gameplay/effect/coin_effect-02.png",
				"folder_name": "gameplay/effect",
				"width": 1080,
				"height": 1080
			},
			{
				"id": "0196ab62-351c-11eb-9d81-39261e810569",
				"type": "image",
				"ext": "png",
				"image_name": "coin_effect-03",
				"data_path": "image/gameplay/effect/coin_effect-03.png",
				"folder_name": "gameplay/effect",
				"width": 1080,
				"height": 1080
			},
			{
				"id": "0196ab63-351c-11eb-9d81-39261e810569",
				"type": "image",
				"ext": "png",
				"image_name": "coin_effect-04",
				"data_path": "image/gameplay/effect/coin_effect-04.png",
				"folder_name": "gameplay/effect",
				"width": 1080,
				"height": 1080
			},
			{
				"id": "0196ab64-351c-11eb-9d81-39261e810569",
				"type": "image",
				"ext": "png",
				"image_name": "coin_effect-05",
				"data_path": "image/gameplay/effect/coin_effect-05.png",
				"folder_name": "gameplay/effect",
				"width": 1080,
				"height": 1080
			}
		]
	},
	"image": "01968450-351c-11eb-9d81-39261e810569",
	"collisionMask": [
		"ALL_OBJECT"
	],
	"event": "<xml xmlns=\"http://www.w3.org/1999/xhtml\"><variables><variable type=\"\" id=\"ZmoBz%M$e6@8oP{sqfs8\">variable</variable></variables></xml>",
	"variables": [
		{
			"name": "variable",
			"description": "",
			"public": true,
			"init": false
		}
	],
	"userCode": {
		"global": [
			" "
		],
		"pre-super": [
			"        "
		],
		"init": [
			"        verify(settings, [\"container\"]);",
			"        game.util.spread(this, settings, [\"container\"]);",
			"        this.setCurrentAnimation('Animation 1',()=>{",
			"            this.container.textScore.setText(this.container.angka);",
			"            me.game.world.removeChild(this);",
			"            return false;",
			"        });"
		],
		"update": [
			"        "
		],
		"onDraw": [
			"        "
		],
		"onActivateEvent": [
			"        "
		],
		"onDeactivateEvent": [
			"        "
		],
		"userFunction": [
			"    "
		],
		"global-end": [
			" "
		]
	},
	"frameWidth": 100,
	"frameHeight": 100,
	"width": 100,
	"height": 100,
	"hasBody": false,
	"alpha": 1,
	"flipX": false,
	"flipY": false,
	"floating": true,
	"relativeX": "0",
	"relativeY": "0",
	"anchorX": 0.5,
	"anchorY": 0.5,
	"followed": "NONE",
	"alwaysUpdate": false,
	"updateWhenPaused": false,
	"isPersistent": false,
	"click": false,
	"keyUp": false,
	"keyDown": false,
	"collisionCheck": false,
	"gravityX": 0,
	"gravityY": 0.98,
	"collisionType": "ENEMY_OBJECT"
}