{
	"type": "object",
	"version": "0.0.2",
	"animations": {
		"list": [
			{
				"name": "Animation 1",
				"frames": [
					{
						"id": "fbcdcdd0-351b-11eb-9d81-39261e810569",
						"type": "image",
						"ext": "png",
						"image_name": "coin_down-00",
						"data_path": "image/gameplay/effect/coin_down-00.png",
						"folder_name": "gameplay/effect",
						"width": 1080,
						"height": 1080
					},
					{
						"id": "fbcdcdd1-351b-11eb-9d81-39261e810569",
						"type": "image",
						"ext": "png",
						"image_name": "coin_down-01",
						"data_path": "image/gameplay/effect/coin_down-01.png",
						"folder_name": "gameplay/effect",
						"width": 1080,
						"height": 1080
					},
					{
						"id": "fbcdcdd2-351b-11eb-9d81-39261e810569",
						"type": "image",
						"ext": "png",
						"image_name": "coin_down-02",
						"data_path": "image/gameplay/effect/coin_down-02.png",
						"folder_name": "gameplay/effect",
						"width": 1080,
						"height": 1080
					},
					{
						"id": "fbcdcdd3-351b-11eb-9d81-39261e810569",
						"type": "image",
						"ext": "png",
						"image_name": "coin_down-03",
						"data_path": "image/gameplay/effect/coin_down-03.png",
						"folder_name": "gameplay/effect",
						"width": 1080,
						"height": 1080
					},
					{
						"id": "fbcdcdd4-351b-11eb-9d81-39261e810569",
						"type": "image",
						"ext": "png",
						"image_name": "coin_down-04",
						"data_path": "image/gameplay/effect/coin_down-04.png",
						"folder_name": "gameplay/effect",
						"width": 1080,
						"height": 1080
					},
					{
						"id": "fbcdf4e0-351b-11eb-9d81-39261e810569",
						"type": "image",
						"ext": "png",
						"image_name": "coin_down-05",
						"data_path": "image/gameplay/effect/coin_down-05.png",
						"folder_name": "gameplay/effect",
						"width": 1080,
						"height": 1080
					}
				],
				"duration": "100"
			},
			{
				"name": "up",
				"frames": [
					{
						"id": "f624d450-351b-11eb-9d81-39261e810569",
						"type": "image",
						"ext": "png",
						"image_name": "coin_up-00",
						"data_path": "image/gameplay/effect/coin_up-00.png",
						"folder_name": "gameplay/effect",
						"width": 500,
						"height": 1000
					},
					{
						"id": "f624fb61-351b-11eb-9d81-39261e810569",
						"type": "image",
						"ext": "png",
						"image_name": "coin_up-02",
						"data_path": "image/gameplay/effect/coin_up-02.png",
						"folder_name": "gameplay/effect",
						"width": 500,
						"height": 1000
					},
					{
						"id": "f624fb62-351b-11eb-9d81-39261e810569",
						"type": "image",
						"ext": "png",
						"image_name": "coin_up-03",
						"data_path": "image/gameplay/effect/coin_up-03.png",
						"folder_name": "gameplay/effect",
						"width": 500,
						"height": 1000
					},
					{
						"id": "f624fb63-351b-11eb-9d81-39261e810569",
						"type": "image",
						"ext": "png",
						"image_name": "coin_up-04",
						"data_path": "image/gameplay/effect/coin_up-04.png",
						"folder_name": "gameplay/effect",
						"width": 500,
						"height": 1000
					},
					{
						"id": "f624fb64-351b-11eb-9d81-39261e810569",
						"type": "image",
						"ext": "png",
						"image_name": "coin_up-05",
						"data_path": "image/gameplay/effect/coin_up-05.png",
						"folder_name": "gameplay/effect",
						"width": 500,
						"height": 1000
					},
					{
						"id": "f624fb65-351b-11eb-9d81-39261e810569",
						"type": "image",
						"ext": "png",
						"image_name": "coin_up-06",
						"data_path": "image/gameplay/effect/coin_up-06.png",
						"folder_name": "gameplay/effect",
						"width": 500,
						"height": 1000
					},
					{
						"id": "f624fb66-351b-11eb-9d81-39261e810569",
						"type": "image",
						"ext": "png",
						"image_name": "coin_up-07",
						"data_path": "image/gameplay/effect/coin_up-07.png",
						"folder_name": "gameplay/effect",
						"width": 500,
						"height": 1000
					},
					{
						"id": "f624fb67-351b-11eb-9d81-39261e810569",
						"type": "image",
						"ext": "png",
						"image_name": "coin_up-08",
						"data_path": "image/gameplay/effect/coin_up-08.png",
						"folder_name": "gameplay/effect",
						"width": 500,
						"height": 1000
					},
					{
						"id": "f624fb68-351b-11eb-9d81-39261e810569",
						"type": "image",
						"ext": "png",
						"image_name": "coin_up-09",
						"data_path": "image/gameplay/effect/coin_up-09.png",
						"folder_name": "gameplay/effect",
						"width": 500,
						"height": 1000
					}
				],
				"duration": "70"
			}
		],
		"default": "Animation 1"
	},
	"images": {
		"list": [
			{
				"id": "fbcdcdd0-351b-11eb-9d81-39261e810569",
				"type": "image",
				"ext": "png",
				"image_name": "coin_down-00",
				"data_path": "image/gameplay/effect/coin_down-00.png",
				"folder_name": "gameplay/effect",
				"width": 1080,
				"height": 1080
			},
			{
				"id": "fbcdcdd1-351b-11eb-9d81-39261e810569",
				"type": "image",
				"ext": "png",
				"image_name": "coin_down-01",
				"data_path": "image/gameplay/effect/coin_down-01.png",
				"folder_name": "gameplay/effect",
				"width": 1080,
				"height": 1080
			},
			{
				"id": "fbcdcdd2-351b-11eb-9d81-39261e810569",
				"type": "image",
				"ext": "png",
				"image_name": "coin_down-02",
				"data_path": "image/gameplay/effect/coin_down-02.png",
				"folder_name": "gameplay/effect",
				"width": 1080,
				"height": 1080
			},
			{
				"id": "fbcdcdd3-351b-11eb-9d81-39261e810569",
				"type": "image",
				"ext": "png",
				"image_name": "coin_down-03",
				"data_path": "image/gameplay/effect/coin_down-03.png",
				"folder_name": "gameplay/effect",
				"width": 1080,
				"height": 1080
			},
			{
				"id": "fbcdcdd4-351b-11eb-9d81-39261e810569",
				"type": "image",
				"ext": "png",
				"image_name": "coin_down-04",
				"data_path": "image/gameplay/effect/coin_down-04.png",
				"folder_name": "gameplay/effect",
				"width": 1080,
				"height": 1080
			},
			{
				"id": "fbcdf4e0-351b-11eb-9d81-39261e810569",
				"type": "image",
				"ext": "png",
				"image_name": "coin_down-05",
				"data_path": "image/gameplay/effect/coin_down-05.png",
				"folder_name": "gameplay/effect",
				"width": 1080,
				"height": 1080
			},
			{
				"id": "f624d450-351b-11eb-9d81-39261e810569",
				"type": "image",
				"ext": "png",
				"image_name": "coin_up-00",
				"data_path": "image/gameplay/effect/coin_up-00.png",
				"folder_name": "gameplay/effect",
				"width": 500,
				"height": 1000
			},
			{
				"id": "f624fb60-351b-11eb-9d81-39261e810569",
				"type": "image",
				"ext": "png",
				"image_name": "coin_up-01",
				"data_path": "image/gameplay/effect/coin_up-01.png",
				"folder_name": "gameplay/effect",
				"width": 500,
				"height": 1000
			},
			{
				"id": "f624fb61-351b-11eb-9d81-39261e810569",
				"type": "image",
				"ext": "png",
				"image_name": "coin_up-02",
				"data_path": "image/gameplay/effect/coin_up-02.png",
				"folder_name": "gameplay/effect",
				"width": 500,
				"height": 1000
			},
			{
				"id": "f624fb62-351b-11eb-9d81-39261e810569",
				"type": "image",
				"ext": "png",
				"image_name": "coin_up-03",
				"data_path": "image/gameplay/effect/coin_up-03.png",
				"folder_name": "gameplay/effect",
				"width": 500,
				"height": 1000
			},
			{
				"id": "f624fb63-351b-11eb-9d81-39261e810569",
				"type": "image",
				"ext": "png",
				"image_name": "coin_up-04",
				"data_path": "image/gameplay/effect/coin_up-04.png",
				"folder_name": "gameplay/effect",
				"width": 500,
				"height": 1000
			},
			{
				"id": "f624fb64-351b-11eb-9d81-39261e810569",
				"type": "image",
				"ext": "png",
				"image_name": "coin_up-05",
				"data_path": "image/gameplay/effect/coin_up-05.png",
				"folder_name": "gameplay/effect",
				"width": 500,
				"height": 1000
			},
			{
				"id": "f624fb65-351b-11eb-9d81-39261e810569",
				"type": "image",
				"ext": "png",
				"image_name": "coin_up-06",
				"data_path": "image/gameplay/effect/coin_up-06.png",
				"folder_name": "gameplay/effect",
				"width": 500,
				"height": 1000
			},
			{
				"id": "f624fb66-351b-11eb-9d81-39261e810569",
				"type": "image",
				"ext": "png",
				"image_name": "coin_up-07",
				"data_path": "image/gameplay/effect/coin_up-07.png",
				"folder_name": "gameplay/effect",
				"width": 500,
				"height": 1000
			},
			{
				"id": "f624fb67-351b-11eb-9d81-39261e810569",
				"type": "image",
				"ext": "png",
				"image_name": "coin_up-08",
				"data_path": "image/gameplay/effect/coin_up-08.png",
				"folder_name": "gameplay/effect",
				"width": 500,
				"height": 1000
			},
			{
				"id": "f624fb68-351b-11eb-9d81-39261e810569",
				"type": "image",
				"ext": "png",
				"image_name": "coin_up-09",
				"data_path": "image/gameplay/effect/coin_up-09.png",
				"folder_name": "gameplay/effect",
				"width": 500,
				"height": 1000
			}
		]
	},
	"image": "fbcdcdd0-351b-11eb-9d81-39261e810569",
	"collisionMask": [
		"ALL_OBJECT"
	],
	"event": "<xml xmlns=\"http://www.w3.org/1999/xhtml\"><variables><variable type=\"\" id=\",$p,)KjrQ()?eqoXU*VU\">variable</variable></variables></xml>",
	"variables": [
		{
			"name": "variable",
			"description": "",
			"public": true,
			"init": false
		}
	],
	"userCode": {
		"global": [
			" "
		],
		"pre-super": [
			"        "
		],
		"init": [
			"        "
		],
		"update": [
			"        "
		],
		"onDraw": [
			"        "
		],
		"onActivateEvent": [
			"        "
		],
		"onDeactivateEvent": [
			"        "
		],
		"userFunction": [
			"    "
		],
		"global-end": [
			" "
		]
	},
	"frameWidth": 100,
	"frameHeight": 100,
	"width": 100,
	"height": 100,
	"hasBody": false,
	"alpha": 1,
	"flipX": false,
	"flipY": false,
	"floating": true,
	"relativeX": "0.5",
	"relativeY": "0.5",
	"anchorX": 0.5,
	"anchorY": 0.5,
	"followed": "NONE",
	"alwaysUpdate": false,
	"updateWhenPaused": false,
	"isPersistent": false,
	"click": false,
	"keyUp": false,
	"keyDown": false,
	"collisionCheck": false,
	"gravityX": 0,
	"gravityY": 0.98,
	"collisionType": "ENEMY_OBJECT"
}