{
	"type": "object",
	"version": "0.0.2",
	"animations": {
		"list": [
			{
				"name": "idle",
				"frames": [
					{
						"id": "0a776312-3dea-11eb-9ec5-c3068ea02563",
						"type": "image",
						"ext": "png",
						"image_name": "Buff magic effect_0002",
						"data_path": "image/gameplay/effect/Buff magic effect_0002.png",
						"folder_name": "gameplay/effect",
						"width": 1080,
						"height": 900
					},
					{
						"id": "0a776314-3dea-11eb-9ec5-c3068ea02563",
						"type": "image",
						"ext": "png",
						"image_name": "Buff magic effect_0004",
						"data_path": "image/gameplay/effect/Buff magic effect_0004.png",
						"folder_name": "gameplay/effect",
						"width": 1080,
						"height": 900
					},
					{
						"id": "0a776316-3dea-11eb-9ec5-c3068ea02563",
						"type": "image",
						"ext": "png",
						"image_name": "Buff magic effect_0006",
						"data_path": "image/gameplay/effect/Buff magic effect_0006.png",
						"folder_name": "gameplay/effect",
						"width": 1080,
						"height": 900
					},
					{
						"id": "0a776318-3dea-11eb-9ec5-c3068ea02563",
						"type": "image",
						"ext": "png",
						"image_name": "Buff magic effect_0008",
						"data_path": "image/gameplay/effect/Buff magic effect_0008.png",
						"folder_name": "gameplay/effect",
						"width": 1080,
						"height": 900
					},
					{
						"id": "0a77631c-3dea-11eb-9ec5-c3068ea02563",
						"type": "image",
						"ext": "png",
						"image_name": "Buff magic effect_0012",
						"data_path": "image/gameplay/effect/Buff magic effect_0012.png",
						"folder_name": "gameplay/effect",
						"width": 1080,
						"height": 900
					},
					{
						"id": "0a773c00-3dea-11eb-9ec5-c3068ea02563",
						"type": "image",
						"ext": "png",
						"image_name": "Buff magic effect_0014",
						"data_path": "image/gameplay/effect/Buff magic effect_0014.png",
						"folder_name": "gameplay/effect",
						"width": 1080,
						"height": 900
					}
				],
				"duration": "100"
			}
		],
		"default": "idle"
	},
	"images": {
		"list": [
			{
				"id": "0a776310-3dea-11eb-9ec5-c3068ea02563",
				"type": "image",
				"ext": "png",
				"image_name": "Buff magic effect_0000",
				"data_path": "image/gameplay/effect/Buff magic effect_0000.png",
				"folder_name": "gameplay/effect",
				"width": 1080,
				"height": 900
			},
			{
				"id": "0a776311-3dea-11eb-9ec5-c3068ea02563",
				"type": "image",
				"ext": "png",
				"image_name": "Buff magic effect_0001",
				"data_path": "image/gameplay/effect/Buff magic effect_0001.png",
				"folder_name": "gameplay/effect",
				"width": 1080,
				"height": 900
			},
			{
				"id": "0a776312-3dea-11eb-9ec5-c3068ea02563",
				"type": "image",
				"ext": "png",
				"image_name": "Buff magic effect_0002",
				"data_path": "image/gameplay/effect/Buff magic effect_0002.png",
				"folder_name": "gameplay/effect",
				"width": 1080,
				"height": 900
			},
			{
				"id": "0a776313-3dea-11eb-9ec5-c3068ea02563",
				"type": "image",
				"ext": "png",
				"image_name": "Buff magic effect_0003",
				"data_path": "image/gameplay/effect/Buff magic effect_0003.png",
				"folder_name": "gameplay/effect",
				"width": 1080,
				"height": 900
			},
			{
				"id": "0a776314-3dea-11eb-9ec5-c3068ea02563",
				"type": "image",
				"ext": "png",
				"image_name": "Buff magic effect_0004",
				"data_path": "image/gameplay/effect/Buff magic effect_0004.png",
				"folder_name": "gameplay/effect",
				"width": 1080,
				"height": 900
			},
			{
				"id": "0a776315-3dea-11eb-9ec5-c3068ea02563",
				"type": "image",
				"ext": "png",
				"image_name": "Buff magic effect_0005",
				"data_path": "image/gameplay/effect/Buff magic effect_0005.png",
				"folder_name": "gameplay/effect",
				"width": 1080,
				"height": 900
			},
			{
				"id": "0a776316-3dea-11eb-9ec5-c3068ea02563",
				"type": "image",
				"ext": "png",
				"image_name": "Buff magic effect_0006",
				"data_path": "image/gameplay/effect/Buff magic effect_0006.png",
				"folder_name": "gameplay/effect",
				"width": 1080,
				"height": 900
			},
			{
				"id": "0a776317-3dea-11eb-9ec5-c3068ea02563",
				"type": "image",
				"ext": "png",
				"image_name": "Buff magic effect_0007",
				"data_path": "image/gameplay/effect/Buff magic effect_0007.png",
				"folder_name": "gameplay/effect",
				"width": 1080,
				"height": 900
			},
			{
				"id": "0a776318-3dea-11eb-9ec5-c3068ea02563",
				"type": "image",
				"ext": "png",
				"image_name": "Buff magic effect_0008",
				"data_path": "image/gameplay/effect/Buff magic effect_0008.png",
				"folder_name": "gameplay/effect",
				"width": 1080,
				"height": 900
			},
			{
				"id": "0a776319-3dea-11eb-9ec5-c3068ea02563",
				"type": "image",
				"ext": "png",
				"image_name": "Buff magic effect_0009",
				"data_path": "image/gameplay/effect/Buff magic effect_0009.png",
				"folder_name": "gameplay/effect",
				"width": 1080,
				"height": 900
			},
			{
				"id": "0a77631a-3dea-11eb-9ec5-c3068ea02563",
				"type": "image",
				"ext": "png",
				"image_name": "Buff magic effect_0010",
				"data_path": "image/gameplay/effect/Buff magic effect_0010.png",
				"folder_name": "gameplay/effect",
				"width": 1080,
				"height": 900
			},
			{
				"id": "0a77631b-3dea-11eb-9ec5-c3068ea02563",
				"type": "image",
				"ext": "png",
				"image_name": "Buff magic effect_0011",
				"data_path": "image/gameplay/effect/Buff magic effect_0011.png",
				"folder_name": "gameplay/effect",
				"width": 1080,
				"height": 900
			},
			{
				"id": "0a77631c-3dea-11eb-9ec5-c3068ea02563",
				"type": "image",
				"ext": "png",
				"image_name": "Buff magic effect_0012",
				"data_path": "image/gameplay/effect/Buff magic effect_0012.png",
				"folder_name": "gameplay/effect",
				"width": 1080,
				"height": 900
			},
			{
				"id": "0a77631d-3dea-11eb-9ec5-c3068ea02563",
				"type": "image",
				"ext": "png",
				"image_name": "Buff magic effect_0013",
				"data_path": "image/gameplay/effect/Buff magic effect_0013.png",
				"folder_name": "gameplay/effect",
				"width": 1080,
				"height": 900
			},
			{
				"id": "0a773c00-3dea-11eb-9ec5-c3068ea02563",
				"type": "image",
				"ext": "png",
				"image_name": "Buff magic effect_0014",
				"data_path": "image/gameplay/effect/Buff magic effect_0014.png",
				"folder_name": "gameplay/effect",
				"width": 1080,
				"height": 900
			}
		]
	},
	"image": "0a776310-3dea-11eb-9ec5-c3068ea02563",
	"collisionMask": [
		"ALL_OBJECT"
	],
	"event": "<xml xmlns=\"http://www.w3.org/1999/xhtml\"><variables><variable type=\"\" id=\"hm.JF/iyixO%[[{6IY!R\">variable</variable></variables></xml>",
	"variables": [
		{
			"name": "variable",
			"description": "",
			"public": true,
			"init": false
		}
	],
	"userCode": {
		"global": [
			" "
		],
		"pre-super": [
			"        "
		],
		"init": [
			"        "
		],
		"update": [
			"        "
		],
		"onDraw": [
			"        "
		],
		"onActivateEvent": [
			"        "
		],
		"onDeactivateEvent": [
			"        "
		],
		"userFunction": [
			"    "
		],
		"global-end": [
			" "
		]
	},
	"frameWidth": 100,
	"frameHeight": 100,
	"width": 100,
	"height": 100,
	"hasBody": false,
	"alpha": 1,
	"flipX": false,
	"flipY": false,
	"floating": true,
	"relativeX": "0.5",
	"relativeY": "0.5",
	"anchorX": 0.5,
	"anchorY": 0.5,
	"followed": "NONE",
	"alwaysUpdate": false,
	"updateWhenPaused": false,
	"isPersistent": false,
	"click": false,
	"keyUp": false,
	"keyDown": false,
	"collisionCheck": false,
	"gravityX": 0,
	"gravityY": 0.98,
	"collisionType": "ENEMY_OBJECT"
}