{
	"type": "object",
	"version": "0.0.2",
	"animations": {
		"list": [
			{
				"name": "Animation 1",
				"frames": [
					{
						"id": "c0da9730-2e04-11eb-89f0-d54b3bb16552",
						"type": "image",
						"ext": "png",
						"image_name": "particle-2-00",
						"data_path": "image/gameplay/effect/particle-2-00.png",
						"folder_name": "gameplay/effect",
						"width": 500,
						"height": 700
					},
					{
						"id": "c0da9731-2e04-11eb-89f0-d54b3bb16552",
						"type": "image",
						"ext": "png",
						"image_name": "particle-2-01",
						"data_path": "image/gameplay/effect/particle-2-01.png",
						"folder_name": "gameplay/effect",
						"width": 500,
						"height": 700
					},
					{
						"id": "c0da9732-2e04-11eb-89f0-d54b3bb16552",
						"type": "image",
						"ext": "png",
						"image_name": "particle-2-02",
						"data_path": "image/gameplay/effect/particle-2-02.png",
						"folder_name": "gameplay/effect",
						"width": 500,
						"height": 700
					},
					{
						"id": "c0da9733-2e04-11eb-89f0-d54b3bb16552",
						"type": "image",
						"ext": "png",
						"image_name": "particle-2-03",
						"data_path": "image/gameplay/effect/particle-2-03.png",
						"folder_name": "gameplay/effect",
						"width": 500,
						"height": 700
					},
					{
						"id": "c0da9734-2e04-11eb-89f0-d54b3bb16552",
						"type": "image",
						"ext": "png",
						"image_name": "particle-2-04",
						"data_path": "image/gameplay/effect/particle-2-04.png",
						"folder_name": "gameplay/effect",
						"width": 500,
						"height": 700
					},
					{
						"id": "c0da9735-2e04-11eb-89f0-d54b3bb16552",
						"type": "image",
						"ext": "png",
						"image_name": "particle-2-05",
						"data_path": "image/gameplay/effect/particle-2-05.png",
						"folder_name": "gameplay/effect",
						"width": 500,
						"height": 700
					},
					{
						"id": "c0dabe40-2e04-11eb-89f0-d54b3bb16552",
						"type": "image",
						"ext": "png",
						"image_name": "particle-2-06",
						"data_path": "image/gameplay/effect/particle-2-06.png",
						"folder_name": "gameplay/effect",
						"width": 500,
						"height": 700
					},
					{
						"id": "c0dabe41-2e04-11eb-89f0-d54b3bb16552",
						"type": "image",
						"ext": "png",
						"image_name": "particle-2-07",
						"data_path": "image/gameplay/effect/particle-2-07.png",
						"folder_name": "gameplay/effect",
						"width": 500,
						"height": 700
					},
					{
						"id": "c0dabe42-2e04-11eb-89f0-d54b3bb16552",
						"type": "image",
						"ext": "png",
						"image_name": "particle-2-08",
						"data_path": "image/gameplay/effect/particle-2-08.png",
						"folder_name": "gameplay/effect",
						"width": 500,
						"height": 700
					},
					{
						"id": "c0dabe43-2e04-11eb-89f0-d54b3bb16552",
						"type": "image",
						"ext": "png",
						"image_name": "particle-2-09",
						"data_path": "image/gameplay/effect/particle-2-09.png",
						"folder_name": "gameplay/effect",
						"width": 500,
						"height": 700
					},
					{
						"id": "c0dabe44-2e04-11eb-89f0-d54b3bb16552",
						"type": "image",
						"ext": "png",
						"image_name": "particle-2-10",
						"data_path": "image/gameplay/effect/particle-2-10.png",
						"folder_name": "gameplay/effect",
						"width": 500,
						"height": 700
					},
					{
						"id": "c0dabe45-2e04-11eb-89f0-d54b3bb16552",
						"type": "image",
						"ext": "png",
						"image_name": "particle-2-11",
						"data_path": "image/gameplay/effect/particle-2-11.png",
						"folder_name": "gameplay/effect",
						"width": 500,
						"height": 700
					},
					{
						"id": "c0dabe46-2e04-11eb-89f0-d54b3bb16552",
						"type": "image",
						"ext": "png",
						"image_name": "particle-2-12",
						"data_path": "image/gameplay/effect/particle-2-12.png",
						"folder_name": "gameplay/effect",
						"width": 500,
						"height": 700
					},
					{
						"id": "c0dabe47-2e04-11eb-89f0-d54b3bb16552",
						"type": "image",
						"ext": "png",
						"image_name": "particle-2-13",
						"data_path": "image/gameplay/effect/particle-2-13.png",
						"folder_name": "gameplay/effect",
						"width": 500,
						"height": 700
					},
					{
						"id": "c0dabe48-2e04-11eb-89f0-d54b3bb16552",
						"type": "image",
						"ext": "png",
						"image_name": "particle-2-14",
						"data_path": "image/gameplay/effect/particle-2-14.png",
						"folder_name": "gameplay/effect",
						"width": 500,
						"height": 700
					},
					{
						"id": "c0dabe49-2e04-11eb-89f0-d54b3bb16552",
						"type": "image",
						"ext": "png",
						"image_name": "particle-2-15",
						"data_path": "image/gameplay/effect/particle-2-15.png",
						"folder_name": "gameplay/effect",
						"width": 500,
						"height": 700
					},
					{
						"id": "c0dabe4a-2e04-11eb-89f0-d54b3bb16552",
						"type": "image",
						"ext": "png",
						"image_name": "particle-2-16",
						"data_path": "image/gameplay/effect/particle-2-16.png",
						"folder_name": "gameplay/effect",
						"width": 500,
						"height": 700
					},
					{
						"id": "c0dabe4b-2e04-11eb-89f0-d54b3bb16552",
						"type": "image",
						"ext": "png",
						"image_name": "particle-2-17",
						"data_path": "image/gameplay/effect/particle-2-17.png",
						"folder_name": "gameplay/effect",
						"width": 500,
						"height": 700
					},
					{
						"id": "c0dabe4c-2e04-11eb-89f0-d54b3bb16552",
						"type": "image",
						"ext": "png",
						"image_name": "particle-2-18",
						"data_path": "image/gameplay/effect/particle-2-18.png",
						"folder_name": "gameplay/effect",
						"width": 500,
						"height": 700
					},
					{
						"id": "c0dabe4d-2e04-11eb-89f0-d54b3bb16552",
						"type": "image",
						"ext": "png",
						"image_name": "particle-2-19",
						"data_path": "image/gameplay/effect/particle-2-19.png",
						"folder_name": "gameplay/effect",
						"width": 500,
						"height": 700
					},
					{
						"id": "c0dabe4e-2e04-11eb-89f0-d54b3bb16552",
						"type": "image",
						"ext": "png",
						"image_name": "particle-2-20",
						"data_path": "image/gameplay/effect/particle-2-20.png",
						"folder_name": "gameplay/effect",
						"width": 500,
						"height": 700
					},
					{
						"id": "c0dabe4f-2e04-11eb-89f0-d54b3bb16552",
						"type": "image",
						"ext": "png",
						"image_name": "particle-2-21",
						"data_path": "image/gameplay/effect/particle-2-21.png",
						"folder_name": "gameplay/effect",
						"width": 500,
						"height": 700
					},
					{
						"id": "c0dabe50-2e04-11eb-89f0-d54b3bb16552",
						"type": "image",
						"ext": "png",
						"image_name": "particle-2-22",
						"data_path": "image/gameplay/effect/particle-2-22.png",
						"folder_name": "gameplay/effect",
						"width": 500,
						"height": 700
					},
					{
						"id": "c0dae550-2e04-11eb-89f0-d54b3bb16552",
						"type": "image",
						"ext": "png",
						"image_name": "particle-2-23",
						"data_path": "image/gameplay/effect/particle-2-23.png",
						"folder_name": "gameplay/effect",
						"width": 500,
						"height": 700
					},
					{
						"id": "c0dae551-2e04-11eb-89f0-d54b3bb16552",
						"type": "image",
						"ext": "png",
						"image_name": "particle-2-24",
						"data_path": "image/gameplay/effect/particle-2-24.png",
						"folder_name": "gameplay/effect",
						"width": 500,
						"height": 700
					},
					{
						"id": "c0dae552-2e04-11eb-89f0-d54b3bb16552",
						"type": "image",
						"ext": "png",
						"image_name": "particle-2-25",
						"data_path": "image/gameplay/effect/particle-2-25.png",
						"folder_name": "gameplay/effect",
						"width": 500,
						"height": 700
					}
				],
				"duration": "100"
			}
		],
		"default": "Animation 1"
	},
	"images": {
		"list": [
			{
				"id": "c0da9730-2e04-11eb-89f0-d54b3bb16552",
				"type": "image",
				"ext": "png",
				"image_name": "particle-2-00",
				"data_path": "image/gameplay/effect/particle-2-00.png",
				"folder_name": "gameplay/effect",
				"width": 500,
				"height": 700
			},
			{
				"id": "c0da9731-2e04-11eb-89f0-d54b3bb16552",
				"type": "image",
				"ext": "png",
				"image_name": "particle-2-01",
				"data_path": "image/gameplay/effect/particle-2-01.png",
				"folder_name": "gameplay/effect",
				"width": 500,
				"height": 700
			},
			{
				"id": "c0da9732-2e04-11eb-89f0-d54b3bb16552",
				"type": "image",
				"ext": "png",
				"image_name": "particle-2-02",
				"data_path": "image/gameplay/effect/particle-2-02.png",
				"folder_name": "gameplay/effect",
				"width": 500,
				"height": 700
			},
			{
				"id": "c0da9733-2e04-11eb-89f0-d54b3bb16552",
				"type": "image",
				"ext": "png",
				"image_name": "particle-2-03",
				"data_path": "image/gameplay/effect/particle-2-03.png",
				"folder_name": "gameplay/effect",
				"width": 500,
				"height": 700
			},
			{
				"id": "c0da9734-2e04-11eb-89f0-d54b3bb16552",
				"type": "image",
				"ext": "png",
				"image_name": "particle-2-04",
				"data_path": "image/gameplay/effect/particle-2-04.png",
				"folder_name": "gameplay/effect",
				"width": 500,
				"height": 700
			},
			{
				"id": "c0da9735-2e04-11eb-89f0-d54b3bb16552",
				"type": "image",
				"ext": "png",
				"image_name": "particle-2-05",
				"data_path": "image/gameplay/effect/particle-2-05.png",
				"folder_name": "gameplay/effect",
				"width": 500,
				"height": 700
			},
			{
				"id": "c0dabe40-2e04-11eb-89f0-d54b3bb16552",
				"type": "image",
				"ext": "png",
				"image_name": "particle-2-06",
				"data_path": "image/gameplay/effect/particle-2-06.png",
				"folder_name": "gameplay/effect",
				"width": 500,
				"height": 700
			},
			{
				"id": "c0dabe41-2e04-11eb-89f0-d54b3bb16552",
				"type": "image",
				"ext": "png",
				"image_name": "particle-2-07",
				"data_path": "image/gameplay/effect/particle-2-07.png",
				"folder_name": "gameplay/effect",
				"width": 500,
				"height": 700
			},
			{
				"id": "c0dabe42-2e04-11eb-89f0-d54b3bb16552",
				"type": "image",
				"ext": "png",
				"image_name": "particle-2-08",
				"data_path": "image/gameplay/effect/particle-2-08.png",
				"folder_name": "gameplay/effect",
				"width": 500,
				"height": 700
			},
			{
				"id": "c0dabe43-2e04-11eb-89f0-d54b3bb16552",
				"type": "image",
				"ext": "png",
				"image_name": "particle-2-09",
				"data_path": "image/gameplay/effect/particle-2-09.png",
				"folder_name": "gameplay/effect",
				"width": 500,
				"height": 700
			},
			{
				"id": "c0dabe44-2e04-11eb-89f0-d54b3bb16552",
				"type": "image",
				"ext": "png",
				"image_name": "particle-2-10",
				"data_path": "image/gameplay/effect/particle-2-10.png",
				"folder_name": "gameplay/effect",
				"width": 500,
				"height": 700
			},
			{
				"id": "c0dabe45-2e04-11eb-89f0-d54b3bb16552",
				"type": "image",
				"ext": "png",
				"image_name": "particle-2-11",
				"data_path": "image/gameplay/effect/particle-2-11.png",
				"folder_name": "gameplay/effect",
				"width": 500,
				"height": 700
			},
			{
				"id": "c0dabe46-2e04-11eb-89f0-d54b3bb16552",
				"type": "image",
				"ext": "png",
				"image_name": "particle-2-12",
				"data_path": "image/gameplay/effect/particle-2-12.png",
				"folder_name": "gameplay/effect",
				"width": 500,
				"height": 700
			},
			{
				"id": "c0dabe47-2e04-11eb-89f0-d54b3bb16552",
				"type": "image",
				"ext": "png",
				"image_name": "particle-2-13",
				"data_path": "image/gameplay/effect/particle-2-13.png",
				"folder_name": "gameplay/effect",
				"width": 500,
				"height": 700
			},
			{
				"id": "c0dabe48-2e04-11eb-89f0-d54b3bb16552",
				"type": "image",
				"ext": "png",
				"image_name": "particle-2-14",
				"data_path": "image/gameplay/effect/particle-2-14.png",
				"folder_name": "gameplay/effect",
				"width": 500,
				"height": 700
			},
			{
				"id": "c0dabe49-2e04-11eb-89f0-d54b3bb16552",
				"type": "image",
				"ext": "png",
				"image_name": "particle-2-15",
				"data_path": "image/gameplay/effect/particle-2-15.png",
				"folder_name": "gameplay/effect",
				"width": 500,
				"height": 700
			},
			{
				"id": "c0dabe4a-2e04-11eb-89f0-d54b3bb16552",
				"type": "image",
				"ext": "png",
				"image_name": "particle-2-16",
				"data_path": "image/gameplay/effect/particle-2-16.png",
				"folder_name": "gameplay/effect",
				"width": 500,
				"height": 700
			},
			{
				"id": "c0dabe4b-2e04-11eb-89f0-d54b3bb16552",
				"type": "image",
				"ext": "png",
				"image_name": "particle-2-17",
				"data_path": "image/gameplay/effect/particle-2-17.png",
				"folder_name": "gameplay/effect",
				"width": 500,
				"height": 700
			},
			{
				"id": "c0dabe4c-2e04-11eb-89f0-d54b3bb16552",
				"type": "image",
				"ext": "png",
				"image_name": "particle-2-18",
				"data_path": "image/gameplay/effect/particle-2-18.png",
				"folder_name": "gameplay/effect",
				"width": 500,
				"height": 700
			},
			{
				"id": "c0dabe4d-2e04-11eb-89f0-d54b3bb16552",
				"type": "image",
				"ext": "png",
				"image_name": "particle-2-19",
				"data_path": "image/gameplay/effect/particle-2-19.png",
				"folder_name": "gameplay/effect",
				"width": 500,
				"height": 700
			},
			{
				"id": "c0dabe4e-2e04-11eb-89f0-d54b3bb16552",
				"type": "image",
				"ext": "png",
				"image_name": "particle-2-20",
				"data_path": "image/gameplay/effect/particle-2-20.png",
				"folder_name": "gameplay/effect",
				"width": 500,
				"height": 700
			},
			{
				"id": "c0dabe4f-2e04-11eb-89f0-d54b3bb16552",
				"type": "image",
				"ext": "png",
				"image_name": "particle-2-21",
				"data_path": "image/gameplay/effect/particle-2-21.png",
				"folder_name": "gameplay/effect",
				"width": 500,
				"height": 700
			},
			{
				"id": "c0dabe50-2e04-11eb-89f0-d54b3bb16552",
				"type": "image",
				"ext": "png",
				"image_name": "particle-2-22",
				"data_path": "image/gameplay/effect/particle-2-22.png",
				"folder_name": "gameplay/effect",
				"width": 500,
				"height": 700
			},
			{
				"id": "c0dae550-2e04-11eb-89f0-d54b3bb16552",
				"type": "image",
				"ext": "png",
				"image_name": "particle-2-23",
				"data_path": "image/gameplay/effect/particle-2-23.png",
				"folder_name": "gameplay/effect",
				"width": 500,
				"height": 700
			},
			{
				"id": "c0dae551-2e04-11eb-89f0-d54b3bb16552",
				"type": "image",
				"ext": "png",
				"image_name": "particle-2-24",
				"data_path": "image/gameplay/effect/particle-2-24.png",
				"folder_name": "gameplay/effect",
				"width": 500,
				"height": 700
			},
			{
				"id": "c0dae552-2e04-11eb-89f0-d54b3bb16552",
				"type": "image",
				"ext": "png",
				"image_name": "particle-2-25",
				"data_path": "image/gameplay/effect/particle-2-25.png",
				"folder_name": "gameplay/effect",
				"width": 500,
				"height": 700
			}
		]
	},
	"image": "c0da9730-2e04-11eb-89f0-d54b3bb16552",
	"collisionMask": [
		"ALL_OBJECT"
	],
	"event": "<xml xmlns=\"http://www.w3.org/1999/xhtml\"><variables><variable type=\"\" id=\"wWpib~h_pP,D,/@PL]*U\">variable</variable></variables></xml>",
	"variables": [
		{
			"name": "variable",
			"description": "",
			"public": true,
			"init": false
		}
	],
	"userCode": {
		"global": [
			" "
		],
		"pre-super": [
			"        "
		],
		"init": [
			"        // this.setCurrentAnimation('Animation 1',()=>{",
			"        //     me.game.world.removeChild(this);",
			"        //     return false;",
			"        // });"
		],
		"update": [
			"        "
		],
		"onDraw": [
			"        "
		],
		"onActivateEvent": [
			"        "
		],
		"onDeactivateEvent": [
			"        "
		],
		"userFunction": [
			"    "
		],
		"global-end": [
			" "
		]
	},
	"frameWidth": 100,
	"frameHeight": 100,
	"width": 100,
	"height": 100,
	"hasBody": false,
	"alpha": 1,
	"flipX": false,
	"flipY": false,
	"floating": true,
	"relativeX": "0",
	"relativeY": "0",
	"anchorX": 0.5,
	"anchorY": 0.5,
	"followed": "NONE",
	"alwaysUpdate": false,
	"updateWhenPaused": false,
	"isPersistent": false,
	"click": false,
	"keyUp": false,
	"keyDown": false,
	"collisionCheck": false,
	"gravityX": 0,
	"gravityY": 0.98,
	"collisionType": "ENEMY_OBJECT"
}