{
	"type": "object",
	"version": "0.0.2",
	"animations": {
		"list": [
			{
				"name": "Animation 1",
				"frames": [
					{
						"id": "c8aefc30-2e04-11eb-89f0-d54b3bb16552",
						"type": "image",
						"ext": "png",
						"image_name": "particle-1-00",
						"data_path": "image/gameplay/effect/particle-1-00.png",
						"folder_name": "gameplay/effect",
						"width": 400,
						"height": 400
					},
					{
						"id": "c8aefc31-2e04-11eb-89f0-d54b3bb16552",
						"type": "image",
						"ext": "png",
						"image_name": "particle-1-01",
						"data_path": "image/gameplay/effect/particle-1-01.png",
						"folder_name": "gameplay/effect",
						"width": 400,
						"height": 400
					},
					{
						"id": "c8aefc32-2e04-11eb-89f0-d54b3bb16552",
						"type": "image",
						"ext": "png",
						"image_name": "particle-1-02",
						"data_path": "image/gameplay/effect/particle-1-02.png",
						"folder_name": "gameplay/effect",
						"width": 400,
						"height": 400
					},
					{
						"id": "c8aefc33-2e04-11eb-89f0-d54b3bb16552",
						"type": "image",
						"ext": "png",
						"image_name": "particle-1-03",
						"data_path": "image/gameplay/effect/particle-1-03.png",
						"folder_name": "gameplay/effect",
						"width": 400,
						"height": 400
					},
					{
						"id": "c8aefc34-2e04-11eb-89f0-d54b3bb16552",
						"type": "image",
						"ext": "png",
						"image_name": "particle-1-04",
						"data_path": "image/gameplay/effect/particle-1-04.png",
						"folder_name": "gameplay/effect",
						"width": 400,
						"height": 400
					},
					{
						"id": "c8aefc35-2e04-11eb-89f0-d54b3bb16552",
						"type": "image",
						"ext": "png",
						"image_name": "particle-1-05",
						"data_path": "image/gameplay/effect/particle-1-05.png",
						"folder_name": "gameplay/effect",
						"width": 400,
						"height": 400
					},
					{
						"id": "c8aefc36-2e04-11eb-89f0-d54b3bb16552",
						"type": "image",
						"ext": "png",
						"image_name": "particle-1-06",
						"data_path": "image/gameplay/effect/particle-1-06.png",
						"folder_name": "gameplay/effect",
						"width": 400,
						"height": 400
					},
					{
						"id": "c8af2340-2e04-11eb-89f0-d54b3bb16552",
						"type": "image",
						"ext": "png",
						"image_name": "particle-1-07",
						"data_path": "image/gameplay/effect/particle-1-07.png",
						"folder_name": "gameplay/effect",
						"width": 400,
						"height": 400
					},
					{
						"id": "c8af2341-2e04-11eb-89f0-d54b3bb16552",
						"type": "image",
						"ext": "png",
						"image_name": "particle-1-08",
						"data_path": "image/gameplay/effect/particle-1-08.png",
						"folder_name": "gameplay/effect",
						"width": 400,
						"height": 400
					},
					{
						"id": "c8af2342-2e04-11eb-89f0-d54b3bb16552",
						"type": "image",
						"ext": "png",
						"image_name": "particle-1-09",
						"data_path": "image/gameplay/effect/particle-1-09.png",
						"folder_name": "gameplay/effect",
						"width": 400,
						"height": 400
					},
					{
						"id": "c8af2343-2e04-11eb-89f0-d54b3bb16552",
						"type": "image",
						"ext": "png",
						"image_name": "particle-1-10",
						"data_path": "image/gameplay/effect/particle-1-10.png",
						"folder_name": "gameplay/effect",
						"width": 400,
						"height": 400
					},
					{
						"id": "c8af2344-2e04-11eb-89f0-d54b3bb16552",
						"type": "image",
						"ext": "png",
						"image_name": "particle-1-11",
						"data_path": "image/gameplay/effect/particle-1-11.png",
						"folder_name": "gameplay/effect",
						"width": 400,
						"height": 400
					},
					{
						"id": "c8af2345-2e04-11eb-89f0-d54b3bb16552",
						"type": "image",
						"ext": "png",
						"image_name": "particle-1-12",
						"data_path": "image/gameplay/effect/particle-1-12.png",
						"folder_name": "gameplay/effect",
						"width": 400,
						"height": 400
					},
					{
						"id": "c8af2346-2e04-11eb-89f0-d54b3bb16552",
						"type": "image",
						"ext": "png",
						"image_name": "particle-1-13",
						"data_path": "image/gameplay/effect/particle-1-13.png",
						"folder_name": "gameplay/effect",
						"width": 400,
						"height": 400
					},
					{
						"id": "c8af2347-2e04-11eb-89f0-d54b3bb16552",
						"type": "image",
						"ext": "png",
						"image_name": "particle-1-14",
						"data_path": "image/gameplay/effect/particle-1-14.png",
						"folder_name": "gameplay/effect",
						"width": 400,
						"height": 400
					},
					{
						"id": "c8af2348-2e04-11eb-89f0-d54b3bb16552",
						"type": "image",
						"ext": "png",
						"image_name": "particle-1-15",
						"data_path": "image/gameplay/effect/particle-1-15.png",
						"folder_name": "gameplay/effect",
						"width": 400,
						"height": 400
					},
					{
						"id": "c8af2349-2e04-11eb-89f0-d54b3bb16552",
						"type": "image",
						"ext": "png",
						"image_name": "particle-1-16",
						"data_path": "image/gameplay/effect/particle-1-16.png",
						"folder_name": "gameplay/effect",
						"width": 400,
						"height": 400
					},
					{
						"id": "c8af234a-2e04-11eb-89f0-d54b3bb16552",
						"type": "image",
						"ext": "png",
						"image_name": "particle-1-17",
						"data_path": "image/gameplay/effect/particle-1-17.png",
						"folder_name": "gameplay/effect",
						"width": 400,
						"height": 400
					},
					{
						"id": "c8af234b-2e04-11eb-89f0-d54b3bb16552",
						"type": "image",
						"ext": "png",
						"image_name": "particle-1-18",
						"data_path": "image/gameplay/effect/particle-1-18.png",
						"folder_name": "gameplay/effect",
						"width": 400,
						"height": 400
					},
					{
						"id": "c8af234c-2e04-11eb-89f0-d54b3bb16552",
						"type": "image",
						"ext": "png",
						"image_name": "particle-1-19",
						"data_path": "image/gameplay/effect/particle-1-19.png",
						"folder_name": "gameplay/effect",
						"width": 400,
						"height": 400
					}
				],
				"duration": "30"
			}
		],
		"default": "Animation 1"
	},
	"images": {
		"list": [
			{
				"id": "c8aefc30-2e04-11eb-89f0-d54b3bb16552",
				"type": "image",
				"ext": "png",
				"image_name": "particle-1-00",
				"data_path": "image/gameplay/effect/particle-1-00.png",
				"folder_name": "gameplay/effect",
				"width": 550,
				"height": 550
			},
			{
				"id": "c8aefc31-2e04-11eb-89f0-d54b3bb16552",
				"type": "image",
				"ext": "png",
				"image_name": "particle-1-01",
				"data_path": "image/gameplay/effect/particle-1-01.png",
				"folder_name": "gameplay/effect",
				"width": 550,
				"height": 550
			},
			{
				"id": "c8aefc32-2e04-11eb-89f0-d54b3bb16552",
				"type": "image",
				"ext": "png",
				"image_name": "particle-1-02",
				"data_path": "image/gameplay/effect/particle-1-02.png",
				"folder_name": "gameplay/effect",
				"width": 550,
				"height": 550
			},
			{
				"id": "c8aefc33-2e04-11eb-89f0-d54b3bb16552",
				"type": "image",
				"ext": "png",
				"image_name": "particle-1-03",
				"data_path": "image/gameplay/effect/particle-1-03.png",
				"folder_name": "gameplay/effect",
				"width": 550,
				"height": 550
			},
			{
				"id": "c8aefc34-2e04-11eb-89f0-d54b3bb16552",
				"type": "image",
				"ext": "png",
				"image_name": "particle-1-04",
				"data_path": "image/gameplay/effect/particle-1-04.png",
				"folder_name": "gameplay/effect",
				"width": 550,
				"height": 550
			},
			{
				"id": "c8aefc35-2e04-11eb-89f0-d54b3bb16552",
				"type": "image",
				"ext": "png",
				"image_name": "particle-1-05",
				"data_path": "image/gameplay/effect/particle-1-05.png",
				"folder_name": "gameplay/effect",
				"width": 550,
				"height": 550
			},
			{
				"id": "c8aefc36-2e04-11eb-89f0-d54b3bb16552",
				"type": "image",
				"ext": "png",
				"image_name": "particle-1-06",
				"data_path": "image/gameplay/effect/particle-1-06.png",
				"folder_name": "gameplay/effect",
				"width": 550,
				"height": 550
			},
			{
				"id": "c8af2340-2e04-11eb-89f0-d54b3bb16552",
				"type": "image",
				"ext": "png",
				"image_name": "particle-1-07",
				"data_path": "image/gameplay/effect/particle-1-07.png",
				"folder_name": "gameplay/effect",
				"width": 550,
				"height": 550
			},
			{
				"id": "c8af2341-2e04-11eb-89f0-d54b3bb16552",
				"type": "image",
				"ext": "png",
				"image_name": "particle-1-08",
				"data_path": "image/gameplay/effect/particle-1-08.png",
				"folder_name": "gameplay/effect",
				"width": 550,
				"height": 550
			},
			{
				"id": "c8af2342-2e04-11eb-89f0-d54b3bb16552",
				"type": "image",
				"ext": "png",
				"image_name": "particle-1-09",
				"data_path": "image/gameplay/effect/particle-1-09.png",
				"folder_name": "gameplay/effect",
				"width": 550,
				"height": 550
			},
			{
				"id": "c8af2343-2e04-11eb-89f0-d54b3bb16552",
				"type": "image",
				"ext": "png",
				"image_name": "particle-1-10",
				"data_path": "image/gameplay/effect/particle-1-10.png",
				"folder_name": "gameplay/effect",
				"width": 550,
				"height": 550
			},
			{
				"id": "c8af2344-2e04-11eb-89f0-d54b3bb16552",
				"type": "image",
				"ext": "png",
				"image_name": "particle-1-11",
				"data_path": "image/gameplay/effect/particle-1-11.png",
				"folder_name": "gameplay/effect",
				"width": 550,
				"height": 550
			},
			{
				"id": "c8af2345-2e04-11eb-89f0-d54b3bb16552",
				"type": "image",
				"ext": "png",
				"image_name": "particle-1-12",
				"data_path": "image/gameplay/effect/particle-1-12.png",
				"folder_name": "gameplay/effect",
				"width": 550,
				"height": 550
			},
			{
				"id": "c8af2346-2e04-11eb-89f0-d54b3bb16552",
				"type": "image",
				"ext": "png",
				"image_name": "particle-1-13",
				"data_path": "image/gameplay/effect/particle-1-13.png",
				"folder_name": "gameplay/effect",
				"width": 550,
				"height": 550
			},
			{
				"id": "c8af2347-2e04-11eb-89f0-d54b3bb16552",
				"type": "image",
				"ext": "png",
				"image_name": "particle-1-14",
				"data_path": "image/gameplay/effect/particle-1-14.png",
				"folder_name": "gameplay/effect",
				"width": 550,
				"height": 550
			},
			{
				"id": "c8af2348-2e04-11eb-89f0-d54b3bb16552",
				"type": "image",
				"ext": "png",
				"image_name": "particle-1-15",
				"data_path": "image/gameplay/effect/particle-1-15.png",
				"folder_name": "gameplay/effect",
				"width": 550,
				"height": 550
			},
			{
				"id": "c8af2349-2e04-11eb-89f0-d54b3bb16552",
				"type": "image",
				"ext": "png",
				"image_name": "particle-1-16",
				"data_path": "image/gameplay/effect/particle-1-16.png",
				"folder_name": "gameplay/effect",
				"width": 550,
				"height": 550
			},
			{
				"id": "c8af234a-2e04-11eb-89f0-d54b3bb16552",
				"type": "image",
				"ext": "png",
				"image_name": "particle-1-17",
				"data_path": "image/gameplay/effect/particle-1-17.png",
				"folder_name": "gameplay/effect",
				"width": 550,
				"height": 550
			},
			{
				"id": "c8af234b-2e04-11eb-89f0-d54b3bb16552",
				"type": "image",
				"ext": "png",
				"image_name": "particle-1-18",
				"data_path": "image/gameplay/effect/particle-1-18.png",
				"folder_name": "gameplay/effect",
				"width": 550,
				"height": 550
			},
			{
				"id": "c8af234c-2e04-11eb-89f0-d54b3bb16552",
				"type": "image",
				"ext": "png",
				"image_name": "particle-1-19",
				"data_path": "image/gameplay/effect/particle-1-19.png",
				"folder_name": "gameplay/effect",
				"width": 550,
				"height": 550
			}
		]
	},
	"image": "c8aefc30-2e04-11eb-89f0-d54b3bb16552",
	"collisionMask": [
		"ALL_OBJECT"
	],
	"event": "<xml xmlns=\"http://www.w3.org/1999/xhtml\"><variables><variable type=\"\" id=\"EX9~n6(_sznwS.vXi;)#\">variable</variable></variables></xml>",
	"variables": [
		{
			"name": "variable",
			"description": "",
			"public": true,
			"init": false
		}
	],
	"userCode": {
		"global": [
			" "
		],
		"pre-super": [
			"        "
		],
		"init": [
			"        // this.setCurrentAnimation('Animation 1',()=>{",
			"        //     me.game.world.removeChild(this);",
			"        //     return false;",
			"        // });"
		],
		"update": [
			"        "
		],
		"onDraw": [
			"        "
		],
		"onActivateEvent": [
			"        "
		],
		"onDeactivateEvent": [
			"        "
		],
		"userFunction": [
			"    hapus:function(){",
			"            this.setCurrentAnimation('Animation 1',()=>{",
			"            me.game.world.removeChild(this);",
			"            return false;",
			"        });",
			"    },",
			"    "
		],
		"global-end": [
			" "
		]
	},
	"frameWidth": 500,
	"frameHeight": 500,
	"width": 100,
	"height": 100,
	"hasBody": false,
	"alpha": 1,
	"flipX": false,
	"flipY": false,
	"floating": true,
	"relativeX": "0",
	"relativeY": "0",
	"anchorX": 0.5,
	"anchorY": 0.5,
	"followed": "NONE",
	"alwaysUpdate": false,
	"updateWhenPaused": false,
	"isPersistent": false,
	"click": false,
	"keyUp": false,
	"keyDown": false,
	"collisionCheck": false,
	"gravityX": 0,
	"gravityY": 0.98,
	"collisionType": "ENEMY_OBJECT"
}