{
	"type": "object",
	"version": "0.0.2",
	"animations": {
		"list": [
			{
				"name": "Animation 1",
				"frames": [
					{
						"id": "25f77151-3455-11eb-8042-bdb220c498cb",
						"type": "image",
						"ext": "png",
						"image_name": "smoke effect_0000",
						"data_path": "image/efek/smoke/smoke effect_0000.png",
						"folder_name": "efek/smoke",
						"width": 800,
						"height": 500
					},
					{
						"id": "25f72330-3455-11eb-8042-bdb220c498cb",
						"type": "image",
						"ext": "png",
						"image_name": "smoke effect_0002",
						"data_path": "image/efek/smoke/smoke effect_0002.png",
						"folder_name": "efek/smoke",
						"width": 800,
						"height": 500
					},
					{
						"id": "25f74a40-3455-11eb-8042-bdb220c498cb",
						"type": "image",
						"ext": "png",
						"image_name": "smoke effect_0004",
						"data_path": "image/efek/smoke/smoke effect_0004.png",
						"folder_name": "efek/smoke",
						"width": 800,
						"height": 500
					},
					{
						"id": "25f74a42-3455-11eb-8042-bdb220c498cb",
						"type": "image",
						"ext": "png",
						"image_name": "smoke effect_0006",
						"data_path": "image/efek/smoke/smoke effect_0006.png",
						"folder_name": "efek/smoke",
						"width": 800,
						"height": 500
					},
					{
						"id": "25f74a44-3455-11eb-8042-bdb220c498cb",
						"type": "image",
						"ext": "png",
						"image_name": "smoke effect_0008",
						"data_path": "image/efek/smoke/smoke effect_0008.png",
						"folder_name": "efek/smoke",
						"width": 800,
						"height": 500
					},
					{
						"id": "25f74a46-3455-11eb-8042-bdb220c498cb",
						"type": "image",
						"ext": "png",
						"image_name": "smoke effect_0010",
						"data_path": "image/efek/smoke/smoke effect_0010.png",
						"folder_name": "efek/smoke",
						"width": 800,
						"height": 500
					},
					{
						"id": "25f74a48-3455-11eb-8042-bdb220c498cb",
						"type": "image",
						"ext": "png",
						"image_name": "smoke effect_0012",
						"data_path": "image/efek/smoke/smoke effect_0012.png",
						"folder_name": "efek/smoke",
						"width": 800,
						"height": 500
					},
					{
						"id": "25f74a4a-3455-11eb-8042-bdb220c498cb",
						"type": "image",
						"ext": "png",
						"image_name": "smoke effect_0014",
						"data_path": "image/efek/smoke/smoke effect_0014.png",
						"folder_name": "efek/smoke",
						"width": 800,
						"height": 500
					},
					{
						"id": "25f74a4c-3455-11eb-8042-bdb220c498cb",
						"type": "image",
						"ext": "png",
						"image_name": "smoke effect_0016",
						"data_path": "image/efek/smoke/smoke effect_0016.png",
						"folder_name": "efek/smoke",
						"width": 800,
						"height": 500
					},
					{
						"id": "25f74a4e-3455-11eb-8042-bdb220c498cb",
						"type": "image",
						"ext": "png",
						"image_name": "smoke effect_0018",
						"data_path": "image/efek/smoke/smoke effect_0018.png",
						"folder_name": "efek/smoke",
						"width": 800,
						"height": 500
					},
					{
						"id": "25f74a50-3455-11eb-8042-bdb220c498cb",
						"type": "image",
						"ext": "png",
						"image_name": "smoke effect_0020",
						"data_path": "image/efek/smoke/smoke effect_0020.png",
						"folder_name": "efek/smoke",
						"width": 800,
						"height": 500
					}
				],
				"duration": "50"
			}
		],
		"default": "Animation 1"
	},
	"images": {
		"list": [
			{
				"id": "25f77151-3455-11eb-8042-bdb220c498cb",
				"type": "image",
				"ext": "png",
				"image_name": "smoke effect_0000",
				"data_path": "image/efek/smoke/smoke effect_0000.png",
				"folder_name": "efek/smoke",
				"width": 800,
				"height": 500
			},
			{
				"id": "25f77152-3455-11eb-8042-bdb220c498cb",
				"type": "image",
				"ext": "png",
				"image_name": "smoke effect_0001",
				"data_path": "image/efek/smoke/smoke effect_0001.png",
				"folder_name": "efek/smoke",
				"width": 800,
				"height": 500
			},
			{
				"id": "25f72330-3455-11eb-8042-bdb220c498cb",
				"type": "image",
				"ext": "png",
				"image_name": "smoke effect_0002",
				"data_path": "image/efek/smoke/smoke effect_0002.png",
				"folder_name": "efek/smoke",
				"width": 800,
				"height": 500
			},
			{
				"id": "25f72331-3455-11eb-8042-bdb220c498cb",
				"type": "image",
				"ext": "png",
				"image_name": "smoke effect_0003",
				"data_path": "image/efek/smoke/smoke effect_0003.png",
				"folder_name": "efek/smoke",
				"width": 800,
				"height": 500
			},
			{
				"id": "25f74a40-3455-11eb-8042-bdb220c498cb",
				"type": "image",
				"ext": "png",
				"image_name": "smoke effect_0004",
				"data_path": "image/efek/smoke/smoke effect_0004.png",
				"folder_name": "efek/smoke",
				"width": 800,
				"height": 500
			},
			{
				"id": "25f74a41-3455-11eb-8042-bdb220c498cb",
				"type": "image",
				"ext": "png",
				"image_name": "smoke effect_0005",
				"data_path": "image/efek/smoke/smoke effect_0005.png",
				"folder_name": "efek/smoke",
				"width": 800,
				"height": 500
			},
			{
				"id": "25f74a42-3455-11eb-8042-bdb220c498cb",
				"type": "image",
				"ext": "png",
				"image_name": "smoke effect_0006",
				"data_path": "image/efek/smoke/smoke effect_0006.png",
				"folder_name": "efek/smoke",
				"width": 800,
				"height": 500
			},
			{
				"id": "25f74a43-3455-11eb-8042-bdb220c498cb",
				"type": "image",
				"ext": "png",
				"image_name": "smoke effect_0007",
				"data_path": "image/efek/smoke/smoke effect_0007.png",
				"folder_name": "efek/smoke",
				"width": 800,
				"height": 500
			},
			{
				"id": "25f74a44-3455-11eb-8042-bdb220c498cb",
				"type": "image",
				"ext": "png",
				"image_name": "smoke effect_0008",
				"data_path": "image/efek/smoke/smoke effect_0008.png",
				"folder_name": "efek/smoke",
				"width": 800,
				"height": 500
			},
			{
				"id": "25f74a45-3455-11eb-8042-bdb220c498cb",
				"type": "image",
				"ext": "png",
				"image_name": "smoke effect_0009",
				"data_path": "image/efek/smoke/smoke effect_0009.png",
				"folder_name": "efek/smoke",
				"width": 800,
				"height": 500
			},
			{
				"id": "25f74a46-3455-11eb-8042-bdb220c498cb",
				"type": "image",
				"ext": "png",
				"image_name": "smoke effect_0010",
				"data_path": "image/efek/smoke/smoke effect_0010.png",
				"folder_name": "efek/smoke",
				"width": 800,
				"height": 500
			},
			{
				"id": "25f74a47-3455-11eb-8042-bdb220c498cb",
				"type": "image",
				"ext": "png",
				"image_name": "smoke effect_0011",
				"data_path": "image/efek/smoke/smoke effect_0011.png",
				"folder_name": "efek/smoke",
				"width": 800,
				"height": 500
			},
			{
				"id": "25f74a48-3455-11eb-8042-bdb220c498cb",
				"type": "image",
				"ext": "png",
				"image_name": "smoke effect_0012",
				"data_path": "image/efek/smoke/smoke effect_0012.png",
				"folder_name": "efek/smoke",
				"width": 800,
				"height": 500
			},
			{
				"id": "25f74a49-3455-11eb-8042-bdb220c498cb",
				"type": "image",
				"ext": "png",
				"image_name": "smoke effect_0013",
				"data_path": "image/efek/smoke/smoke effect_0013.png",
				"folder_name": "efek/smoke",
				"width": 800,
				"height": 500
			},
			{
				"id": "25f74a4a-3455-11eb-8042-bdb220c498cb",
				"type": "image",
				"ext": "png",
				"image_name": "smoke effect_0014",
				"data_path": "image/efek/smoke/smoke effect_0014.png",
				"folder_name": "efek/smoke",
				"width": 800,
				"height": 500
			},
			{
				"id": "25f74a4b-3455-11eb-8042-bdb220c498cb",
				"type": "image",
				"ext": "png",
				"image_name": "smoke effect_0015",
				"data_path": "image/efek/smoke/smoke effect_0015.png",
				"folder_name": "efek/smoke",
				"width": 800,
				"height": 500
			},
			{
				"id": "25f74a4c-3455-11eb-8042-bdb220c498cb",
				"type": "image",
				"ext": "png",
				"image_name": "smoke effect_0016",
				"data_path": "image/efek/smoke/smoke effect_0016.png",
				"folder_name": "efek/smoke",
				"width": 800,
				"height": 500
			},
			{
				"id": "25f74a4d-3455-11eb-8042-bdb220c498cb",
				"type": "image",
				"ext": "png",
				"image_name": "smoke effect_0017",
				"data_path": "image/efek/smoke/smoke effect_0017.png",
				"folder_name": "efek/smoke",
				"width": 800,
				"height": 500
			},
			{
				"id": "25f74a4e-3455-11eb-8042-bdb220c498cb",
				"type": "image",
				"ext": "png",
				"image_name": "smoke effect_0018",
				"data_path": "image/efek/smoke/smoke effect_0018.png",
				"folder_name": "efek/smoke",
				"width": 800,
				"height": 500
			},
			{
				"id": "25f74a4f-3455-11eb-8042-bdb220c498cb",
				"type": "image",
				"ext": "png",
				"image_name": "smoke effect_0019",
				"data_path": "image/efek/smoke/smoke effect_0019.png",
				"folder_name": "efek/smoke",
				"width": 800,
				"height": 500
			},
			{
				"id": "25f74a50-3455-11eb-8042-bdb220c498cb",
				"type": "image",
				"ext": "png",
				"image_name": "smoke effect_0020",
				"data_path": "image/efek/smoke/smoke effect_0020.png",
				"folder_name": "efek/smoke",
				"width": 800,
				"height": 500
			},
			{
				"id": "25f77150-3455-11eb-8042-bdb220c498cb",
				"type": "image",
				"ext": "png",
				"image_name": "smoke effect_0021",
				"data_path": "image/efek/smoke/smoke effect_0021.png",
				"folder_name": "efek/smoke",
				"width": 800,
				"height": 500
			}
		]
	},
	"image": "25f77151-3455-11eb-8042-bdb220c498cb",
	"collisionMask": [
		"ALL_OBJECT"
	],
	"event": "<xml xmlns=\"http://www.w3.org/1999/xhtml\"><variables><variable type=\"\" id=\"R-_X{p*3Tcv{_}40^+Th\">variable</variable></variables></xml>",
	"variables": [
		{
			"name": "variable",
			"description": "",
			"public": true,
			"init": false
		}
	],
	"userCode": {
		"global": [
			" "
		],
		"pre-super": [
			"        "
		],
		"init": [
			"        "
		],
		"update": [
			"        "
		],
		"onDraw": [
			"        "
		],
		"onActivateEvent": [
			"        "
		],
		"onDeactivateEvent": [
			"        "
		],
		"userFunction": [
			"    "
		],
		"global-end": [
			" "
		]
	},
	"frameWidth": 800,
	"frameHeight": 500,
	"width": 100,
	"height": 100,
	"hasBody": false,
	"alpha": 1,
	"flipX": false,
	"flipY": false,
	"floating": false,
	"relativeX": "0",
	"relativeY": "0",
	"anchorX": 0,
	"anchorY": 0,
	"followed": "NONE",
	"alwaysUpdate": false,
	"updateWhenPaused": false,
	"isPersistent": false,
	"click": false,
	"keyUp": false,
	"keyDown": false,
	"collisionCheck": false,
	"gravityX": 0,
	"gravityY": 0.98,
	"collisionType": "ENEMY_OBJECT"
}