{
	"type": "object",
	"version": "0.0.2",
	"collisionMask": [
		"ALL_OBJECT"
	],
	"event": "<xml xmlns=\"http://www.w3.org/1999/xhtml\"><variables><variable type=\"\" id=\"g#?#CvdVh-n4!I?#?OY2\">variable</variable></variables></xml>",
	"variables": [
		{
			"name": "variable",
			"description": "",
			"public": true,
			"init": false
		}
	],
	"userCode": {
		"global": [
			" "
		],
		"pre-super": [
			"        "
		],
		"init": [
			"        this.tinggi = 350;",
			"        this.time = 14;",
			"        this.backColor = \"dimgrey\";",
			"        this.timeKurang = 0;"
		],
		"update": [
			"        "
		],
		"onDraw": [
			"        "
		],
		"onActivateEvent": [
			"        "
		],
		"onDeactivateEvent": [
			"        "
		],
		"userFunction": [
			"    draw : function(renderer){",
			"        this._super(me.Renderable, 'draw', [renderer]);",
			"        var x = this.pos.x,",
			"            y = this.pos.y,",
			"            green = \"#00FF00\",",
			"            red = \"red\",",
			"            yellow = \"yellow\";",
			"        ",
			"        renderer.setColor(this.backColor);",
			"        renderer.fillRect(x, y, 25, 350);",
			"        ",
			"        if(this.tinggi !== 0){",
			"            if(this.time >= 5){",
			"                renderer.setColor(green);",
			"            }else if(this.time >= 0){",
			"                renderer.setColor(red);",
			"            }",
			"            ",
			"            if(this.tinggi <= 0){",
			"                this.tinggi = 0;",
			"                renderer.fillRect(x, y, 25, 0);",
			"            }else{",
			"                renderer.fillRect(x, y, 25, this.tinggi);",
			"            }",
			"            ",
			"        }",
			"    },",
			"    ",
			"    barFunc: function(val){",
			"        let newWidth = val;",
			"        this.time = newWidth;",
			"        this.timeKurang += 0.015;",
			"        if(this.timeKurang >= 1){",
			"            this.timeKurang = 0;",
			"            this.tinggi -= 25;",
			"        }",
			"        return false;",
			"    },"
		],
		"global-end": [
			" "
		]
	},
	"width": 100,
	"height": 100,
	"hasBody": false,
	"alpha": 1,
	"flipX": false,
	"flipY": true,
	"floating": true,
	"relativeX": "0",
	"relativeY": "0",
	"anchorX": 0,
	"anchorY": 0,
	"followed": "NONE",
	"alwaysUpdate": false,
	"updateWhenPaused": false,
	"isPersistent": false,
	"click": false,
	"keyUp": false,
	"keyDown": false,
	"collisionCheck": false,
	"gravityX": 0,
	"gravityY": 0.98,
	"collisionType": "ENEMY_OBJECT"
}