{
	"type": "object",
	"version": "0.0.2",
	"animations": {
		"list": [],
		"default": null
	},
	"images": {
		"list": []
	},
	"shapes": [],
	"collisionMask": [
		"NO_OBJECT"
	],
	"event": "<xml xmlns=\"http://www.w3.org/1999/xhtml\"><variables><variable type=\"\" id=\"h2,FNPDc6cT[3:-A70VS\">variable</variable></variables></xml>",
	"variables": [
		{
			"name": "variable",
			"description": "",
			"public": true,
			"init": false
		}
	],
	"userCode": {
		"global": [
			" "
		],
		"pre-super": [
			"        this.id = settings.id;",
			"        this.angryEffect = settings.angryEffect;",
			"        this.animationMotions = settings.animationMotions;",
			"        this.blink = settings.blink;",
			"        settings.image = game.textureMap.get(\"gameplay\");",
			"        this.suarasenang = settings.suarasenang;",
			"        this.suaramarah = settings.suaramarah;",
			"        ",
			"        this.listAnimation = [];",
			"        let animationKeyList = {}, //for add animation, motion with imageNameList",
			"            imageNameList = [],",
			"            fullMotions = game.util.getFullMotionList(this.id, this.animationMotions);",
			"            ",
			"        fullMotions.forEach((motion) => {",
			"            let imageNames = game.util.createImageNameList(motion.name, motion.count);",
			"            animationKeyList[motion.name] = imageNames;",
			"            this.listAnimation.push(imageNames);",
			"            Array.prototype.push.apply(imageNameList, imageNames);",
			"        });",
			"        ",
			"        let atlasIndices = game.util.populateAtlasIndices(settings.image, imageNameList);",
			"        game.util.spreadAll(settings, atlasIndices);",
			"        // --",
			"        ",
			"        this.originX = x;",
			"        this.originY = y;"
		],
		"init": [
			"        verify(settings, [\"container\"]);",
			"        game.util.spread(this, settings, [\"container\"]);",
			"        ",
			"        this.addAnimation(\"angry\", this.listAnimation[0]);",
			"        this.addAnimation(\"sad\", this.listAnimation[2]);",
			"        this.addAnimation(\"happy\", this.listAnimation[3]);",
			"        if(this.blink){",
			"            this.addAnimation(\"basic\", [{name : this.listAnimation[1], delay:2000}, {name: this.listAnimation[4], delay:100}, {name : this.listAnimation[1], delay:1500}]);//{this.listAnimation[1], delay:50 }, {this.listAnimation[1], delay: 50 });",
			"        }else{",
			"            this.addAnimation(\"basic\", [{name : this.listAnimation[1], delay:2000}, {name: this.listAnimation[5], delay:2000}, {name: this.listAnimation[4], delay:2000}, {name : this.listAnimation[1], delay:1500}]);",
			"        }",
			"        ",
			"        this.setCurrentAnimation('basic');",
			"        ",
			"        this.finish = false;",
			"        this.angryEmotion = true;",
			"        this.end = false;",
			"        this.timeDuration = 14;",
			"        ",
			"        this.telahEnd = true;",
			"        ",
			"        this.timeIdle = 0;",
			"        this.karakterTimerPlay = false;",
			"        this.deleteKarakter = true;",
			"        this.timeOutBool = true;",
			"        this.idleCondition = false;",
			"        this.stopRun = true;",
			"        this.charXpos;",
			"        this.limit;",
			"        if(me.game.viewport.width > 1755){",
			"            this.charXpos = -877.5-550;",
			"            this.limit = me.game.viewport.width/2+877.5+this.width/2;",
			"        }else{",
			"            this.limit = me.game.viewport.width+this.width/2;",
			"            this.charXpos = -550;",
			"        }"
		],
		"update": [
			"        if(this.pos.x >= me.game.viewport.width/2 && this.stopRun){",
			"            this.stopRun = false;",
			"            this.body.vel.x = 0;",
			"            this.idleCondition = true;",
			"            ",
			"        }",
			"        ",
			"        if(this.idleCondition){",
			"            this.body.vel.x = 0;",
			"            this.timeIdle += 0.1;",
			"            if(this.pos.y <= 780 && this.timeIdle >= 2){",
			"                this.timeIdle = 0;",
			"                this.body.vel.y = 0.75;",
			"            }",
			"            ",
			"            if(this.pos.y >= 810 && this.timeIdle >= 2){",
			"                this.timeIdle = 0;",
			"                this.body.vel.y = -0.75;",
			"            }",
			"        }",
			"        ",
			"        if(this.karakterTimerPlay){",
			"            this.timeDuration -= 0.015;",
			"            ",
			"            this.barTime.barFunc(this.timeDuration);",
			"            ",
			"            if(this.timeDuration <= 14 && this.timeDuration > 8){",
			"                if(!this.isCurrentAnimation('basic')){",
			"                    this.setCurrentAnimation('basic');",
			"                }",
			"            }",
			"            ",
			"            if(this.timeDuration <= 8 && this.timeDuration > 5){",
			"                if(!this.isCurrentAnimation('sad')){",
			"                    this.setCurrentAnimation('sad');",
			"                }",
			"            }",
			"            ",
			"            if(this.timeDuration <= 5 && this.timeDuration > 3){",
			"                this.angryFunc();",
			"            }",
			"            ",
			"            if(this.timeDuration <= 0 || this.end){",
			"                this.stopRun = false;",
			"                this.idleCondition = false;",
			"                this.body.vel.y = 0;",
			"                this.karakterTimerPlay = false;",
			"                this.timeDuration = 0;",
			"                this.barTime.barFunc(0);",
			"                if(this.end){",
			"                    this.finishOrderTween(true);",
			"                }else{",
			"                    this.finishOrderTween(false);",
			"                }",
			"            }",
			"        }",
			"        ",
			"        if(this.pos.x >= this.limit && this.deleteKarakter){",
			"            this.deleteKarakter = false;",
			"            this.body.vel.x = 0;",
			"            this.pos.set(this.charXpos, 820, 2);",
			"        }"
		],
		"onCollision": [
			"        "
		],
		"onDraw": [
			"        "
		],
		"onActivateEvent": [
			"        "
		],
		"onDeactivateEvent": [
			"        me.timer.clearTimeout(this.timeoutEnd);",
			"        me.game.world.removeChild(this);"
		],
		"userFunction": [
			"    finishOrderTween: function(sukses){",
			"        if(this.telahEnd){",
			"            this.telahEnd = false;",
			"            this.end = true;",
			"            this.container.container.disablehook = true;",
			"            ",
			"            me.game.world.removeChild(this.container.PopUp);",
			"            me.game.world.removeChild(this.container.sushiObj[0]);",
			"            me.game.world.removeChild(this.container.sushiObj[1]);",
			"            me.game.world.removeChild(this.container.sushiObj[2]);",
			"            me.game.world.removeChild(this.barTime);",
			"            ",
			"            this.container.cekbenar1.alpha = 0;",
			"            this.container.cekbenar2.alpha = 0;",
			"            this.container.cekbenar3.alpha = 0;",
			"              ",
			"            let timeOut;",
			"            if(sukses && this.container.end){",
			"                if(!this.isCurrentAnimation('happy')){",
			"                    this.setCurrentAnimation('happy');",
			"                    if(gameSnacks_API){",
			"                        if (GAMESNACKS.isAudioEnabled()) {",
			"                            me.audio.play(this.suarasenang);",
			"                        }",
			"                    }else{",
			"                        me.audio.play(this.suarasenang);",
			"                    }",
			"                }",
			"                timeOut = 1500;",
			"                this.container.comboScore += 1;",
			"            } else {",
			"                if(!this.isCurrentAnimation('angry')){",
			"                    this.setCurrentAnimation('angry');",
			"                }",
			"                this.container.comboScore = 0;",
			"                timeOut = 1000;",
			"            }",
			"            ",
			"            let limitTimeout = true;",
			"            this.timeoutEnd = me.timer.setTimeout(()=>{",
			"                if(limitTimeout){",
			"                    limitTimeout = false;",
			"                    this.finish = true;",
			"                    if(sukses && this.container.end){",
			"                        this.container.bonusSpawn();",
			"                    }",
			"                    this.body.vel.x = 20;",
			"                    // console.log(this.body.vel.x);",
			"                }",
			"            }, timeOut);",
			"        }",
			"    },",
			"    ",
			"    orderTween: function(callback){",
			"        if(this.body == undefined){",
			"            ",
			"        }else{",
			"            this.body.vel.x = 20;",
			"            if(!this.isCurrentAnimation('basic')){",
			"                this.setCurrentAnimation('basic');",
			"            }",
			"            this.finish = false;",
			"            this.angryEmotion = true;",
			"            this.end = false;",
			"            this.timeDuration = 14;",
			"            this.telahEnd = true;",
			"            this.timeIdle = 0;",
			"            this.karakterTimerPlay = false;",
			"            this.deleteKarakter = true;",
			"            this.timeOutBool = true;",
			"            this.idleCondition = false;",
			"            this.stopRun = true;",
			"            this.barTime = me.pool.pull(\"karakterBarTimer\", me.game.viewport.width/2+400, me.game.viewport.height/2-515);",
			"            me.game.world.addChild(this.barTime, 20);",
			"            this.karakterTimerPlay = true;",
			"        }",
			"    },",
			"    ",
			"    angryFunc: function(){",
			"        if(this.angryEmotion){",
			"            this.angryEmotion = false;",
			"            if(gameSnacks_API){",
			"                if (GAMESNACKS.isAudioEnabled()) {",
			"                    me.audio.play(this.suaramarah);",
			"                }",
			"            }else{",
			"                me.audio.play(this.suaramarah);",
			"            }",
			"                ",
			"            if(this.angryEffect == \"effect1\"){",
			"                this.angryEffect1();",
			"            }else if(this.angryEffect == \"effect2\"){",
			"                this.angryEffect2();",
			"            }else if(this.angryEffect == \"effect3\"){",
			"                this.angryEffect3();",
			"            }else if(this.angryEffect == \"effect4\"){",
			"                this.angryEffect4();",
			"            }",
			"            ",
			"            if(!this.isCurrentAnimation('angry')){",
			"                this.setCurrentAnimation('angry');",
			"            }",
			"        }",
			"    },",
			"    ",
			"    angryEffect1: function(){",
			"        this.effect1 = me.pool.pull(\"angryEffect1\", this.pos.x, this.pos.y-350,{sudutX:0, sudutY:0});",
			"        this.effect2 = me.pool.pull(\"angryEffect1\", this.pos.x+250, this.pos.y-250,{sudutX:50, sudutY:-25}),",
			"        this.effect3 = me.pool.pull(\"angryEffect1\", this.pos.x+300, this.pos.y-150, {sudutX:50, sudutY:0});",
			"        this.effect4 = me.pool.pull(\"angryEffect1\", this.pos.x-200, this.pos.y-250, {sudutX:50, sudutY:-25});",
			"        this.effect5 = me.pool.pull(\"angryEffect1\", this.pos.x-250, this.pos.y-150, {sudutX:50, sudutY:0});",
			"        me.game.world.addChild(this.effect1, 25);",
			"        me.game.world.addChild(this.effect2, 25);",
			"        me.game.world.addChild(this.effect3, 25);",
			"        me.game.world.addChild(this.effect4, 25);",
			"        me.game.world.addChild(this.effect5, 25);",
			"        this.effect4.flipX(true);",
			"        this.effect5.flipX(true);",
			"        this.effect1.tweenOn();",
			"        this.effect2.tweenOn();",
			"        this.effect3.tweenOn();",
			"        this.effect4.tweenOn();",
			"        this.effect5.tweenOn();",
			"    },",
			"    ",
			"    angryEffect2: function(){",
			"        this.effect1 = me.pool.pull(\"angryEffect2\", this.pos.x, this.pos.y-350, {sudutX:0, sudutY:0});",
			"        this.effect2 = me.pool.pull(\"angryEffect2\", this.pos.x+300, this.pos.y-150, {sudutX:50, sudutY:-25});",
			"        this.effect3 = me.pool.pull(\"angryEffect2\", this.pos.x-250, this.pos.y-150, {sudutX:50, sudutY:-25});",
			"        me.game.world.addChild(this.effect1, 25);",
			"        me.game.world.addChild(this.effect2, 25);",
			"        me.game.world.addChild(this.effect3, 25);",
			"        this.effect3.flipX(true);",
			"        this.effect1.tweenOn();",
			"        this.effect2.tweenOn();",
			"        this.effect3.tweenOn();",
			"    },",
			"    ",
			"    angryEffect3: function(){",
			"        this.effect1 = me.pool.pull(\"angryEffect3\", this.pos.x-250, this.pos.y-130);",
			"        this.effect2 = me.pool.pull(\"angryEffect3\", this.pos.x+300, this.pos.y-130);",
			"        me.game.world.addChild(this.effect1, 25);",
			"        me.game.world.addChild(this.effect2, 25);",
			"        this.effect1.flipX(true);",
			"        this.effect1.tweenOn();",
			"        this.effect2.tweenOn();",
			"    },",
			"    ",
			"    angryEffect4: function(){",
			"        this.effect1 = me.pool.pull(\"angryEffect4\", this.pos.x, this.pos.y-150);",
			"        me.game.world.addChild(this.effect1, 5);",
			"        this.effect1.tweenOn();",
			"    },"
		],
		"global-end": [
			" "
		]
	},
	"frameWidth": 100,
	"frameHeight": 100,
	"width": 100,
	"height": 100,
	"hasBody": true,
	"alpha": 1,
	"flipX": false,
	"flipY": false,
	"floating": true,
	"relativeX": "0.5",
	"relativeY": "0.5",
	"anchorX": 0.5,
	"anchorY": 0.5,
	"followed": "NONE",
	"alwaysUpdate": true,
	"updateWhenPaused": false,
	"isPersistent": false,
	"click": false,
	"keyUp": false,
	"keyDown": false,
	"collisionCheck": false,
	"gravityX": 0,
	"gravityY": 0,
	"collisionType": "NO_OBJECT"
}