{
	"type": "object",
	"version": "0.0.2",
	"userCode": {
		"global": [
			" "
		],
		"init": [
			"        settings.id             =\"karakter01\";",
			"        settings.angryEffect    =\"effect2\";",
			"        settings.blink          =false;",
			"        settings.suaramarah     =\"sfx-anakmuda-marah\";",
			"        settings.suarasenang    =\"sfx-anakmuda-senang\";",
			"        settings.animationMotions = [",
			"            {name: \"angry\", count: 1},",
			"            {name: \"basic\", count: 1},",
			"            {name: \"sad\", count: 1},",
			"            {name: \"happy\", count: 1},",
			"            {name: \"basic_kanan\", count: 1},",
			"            {name: \"basic_kiri\", count: 1}",
			"        ];",
			"        this._super(game.object.karakterBase, 'init', [x, y, settings]);"
		],
		"userFunction": [
			" "
		],
		"global-end": [
			" "
		]
	}
}