{
	"type": "object",
	"version": "0.0.2",
	"layers": [],
	"collisionMask": [
		"ALL_OBJECT"
	],
	"event": "<xml xmlns=\"http://www.w3.org/1999/xhtml\"><variables><variable type=\"\" id=\"zq}L0?K}IW1Z~%r^jPGa\">variable</variable></variables></xml>",
	"variables": [
		{
			"name": "variable",
			"description": "",
			"public": true,
			"init": false
		}
	],
	"userCode": {
		"global": [
			" "
		],
		"pre-super": [
			"        "
		],
		"init": [
			"        this.index = 0;",
			"        this.tutor = [];",
			"        ",
			"        this.bg = me.pool.pull(\"BGPause\", 0, 0);",
			"        me.game.world.addChild(this.bg, 5);",
			"        ",
			"        for(let i = 1; i < 8; i++){",
			"            let tutorpos= {};",
			"            ",
			"            if(i == 1)",
			"                tutorpos = {x : 150, y : -200};",
			"            else if(i == 2)",
			"                tutorpos = {x : 0, y : 0};",
			"            else if(i == 3)",
			"                tutorpos = {x : 0, y : 0};",
			"            else if(i == 4)",
			"                tutorpos = {x : 0, y : 0};",
			"            else if(i == 5)",
			"                tutorpos = {x : 0, y : 0};",
			"            else if(i == 6)",
			"                tutorpos = {x : 0, y : 0};",
			"            else if(i == 7)",
			"                tutorpos = {x : 0, y : 0};",
			"            else if(i == 6)",
			"                tutorpos = {x : 0, y : 0};",
			"            ",
			"            let t = me.pool.pull(\"Tutor\" + i, tutorpos.x, tutorpos.y);",
			"            me.game.world.addChild(t, 6);",
			"            this.tutor.push(t);",
			"        }",
			"        ",
			"        for(let i in this.tutor){",
			"            if(i != 0)",
			"                this.tutor[i].alpha = 0;",
			"        }",
			"        ",
			"        this.tapArea = me.pool.pull(\"Day0Tap\", 0, 0);",
			"        me.game.world.addChild(this.tapArea, 300);",
			"        this.tapArea.container = this;"
		],
		"update": [
			"        "
		],
		"onDraw": [
			"        "
		],
		"onActivateEvent": [
			"        "
		],
		"onDeactivateEvent": [
			"        "
		],
		"userFunction": [
			"    Next : function(){",
			"        this.index ++;",
			"        for(let i in this.tutor){",
			"            if(i != this.index)",
			"                this.tutor[i].alpha = 0;",
			"            else",
			"                this.tutor[i].alpha = 1;",
			"        }",
			"    }"
		],
		"global-end": [
			" "
		]
	},
	"width": 100,
	"height": 100,
	"hasBody": false,
	"alpha": 1,
	"flipX": false,
	"flipY": false,
	"floating": true,
	"relativeX": "0.5",
	"relativeY": "0.5",
	"anchorX": 0.5,
	"anchorY": 0.5,
	"followed": "NONE",
	"alwaysUpdate": false,
	"updateWhenPaused": false,
	"isPersistent": false,
	"click": false,
	"keyUp": false,
	"keyDown": false,
	"collisionCheck": false,
	"gravityX": 0,
	"gravityY": 0.98,
	"collisionType": "ENEMY_OBJECT"
}