{
	"type": "object",
	"version": "0.0.2",
	"animations": {
		"list": [],
		"default": null
	},
	"images": {
		"list": [
			{
				"id": "487faa80-3f72-11eb-8b07-539cddf7cbe4",
				"type": "image",
				"ext": "png",
				"image_name": "bg-pause",
				"data_path": "image/gameplay/bg-pause.png",
				"folder_name": "gameplay",
				"width": 1080,
				"height": 2340
			}
		]
	},
	"image": "487faa80-3f72-11eb-8b07-539cddf7cbe4",
	"collisionMask": [
		"ALL_OBJECT"
	],
	"event": "<xml xmlns=\"http://www.w3.org/1999/xhtml\"><variables><variable type=\"\" id=\"yo^csu;^!V?9vAvS)jh2\">variable</variable></variables></xml>",
	"variables": [
		{
			"name": "variable",
			"description": "",
			"public": true,
			"init": false
		}
	],
	"userCode": {
		"global": [
			""
		],
		"pre-super": [
			"        "
		],
		"init": [
			"        this.alpha = 0;"
		],
		"update": [
			"        "
		],
		"onDraw": [
			"        "
		],
		"onActivateEvent": [
			"        "
		],
		"onDeactivateEvent": [
			"        "
		],
		"onClick": [
			"        this.container.Next();"
		],
		"userFunction": [
			"    "
		],
		"global-end": [
			""
		]
	},
	"frameWidth": 100,
	"frameHeight": 100,
	"width": 100,
	"height": 100,
	"hasBody": false,
	"alpha": 1,
	"flipX": false,
	"flipY": false,
	"floating": true,
	"relativeX": "0.5",
	"relativeY": "0.5",
	"anchorX": 0.5,
	"anchorY": 0.5,
	"followed": "NONE",
	"alwaysUpdate": false,
	"updateWhenPaused": false,
	"isPersistent": false,
	"click": true,
	"keyUp": false,
	"keyDown": false,
	"collisionCheck": false,
	"gravityX": 0,
	"gravityY": 0.98,
	"collisionType": "ENEMY_OBJECT"
}