{
	"type": "object",
	"version": "0.0.2",
	"animations": {
		"list": [
			{
				"name": "idle",
				"frames": [
					{
						"id": "377e6880-669a-11eb-9098-0bfff73742af",
						"type": "image",
						"ext": "png",
						"image_name": "tutor_button_back",
						"data_path": "image/gameplay/tutor_button_back.png",
						"folder_name": "gameplay",
						"width": 280,
						"height": 80
					}
				],
				"duration": "100"
			},
			{
				"name": "pressed",
				"frames": [
					{
						"id": "66f41361-66ce-11eb-9098-0bfff73742af",
						"type": "image",
						"ext": "png",
						"image_name": "tutor_button_back_pressed",
						"data_path": "image/gameplay/tutor_button_back_pressed.png",
						"folder_name": "gameplay",
						"width": 224,
						"height": 64
					}
				],
				"duration": "100"
			}
		],
		"default": "idle"
	},
	"images": {
		"list": [
			{
				"id": "377e6880-669a-11eb-9098-0bfff73742af",
				"type": "image",
				"ext": "png",
				"image_name": "tutor_button_back",
				"data_path": "image/gameplay/tutor_button_back.png",
				"folder_name": "gameplay",
				"width": 280,
				"height": 80
			},
			{
				"id": "66f41361-66ce-11eb-9098-0bfff73742af",
				"type": "image",
				"ext": "png",
				"image_name": "tutor_button_back_pressed",
				"data_path": "image/gameplay/tutor_button_back_pressed.png",
				"folder_name": "gameplay",
				"width": 224,
				"height": 64
			}
		]
	},
	"image": "377e6880-669a-11eb-9098-0bfff73742af",
	"collisionMask": [
		"ALL_OBJECT"
	],
	"event": "<xml xmlns=\"http://www.w3.org/1999/xhtml\"><variables><variable type=\"\" id=\"?yy=!WzJf3mPdZJHb8I^\">variable</variable></variables></xml>",
	"variables": [
		{
			"name": "variable",
			"description": "",
			"public": true,
			"init": false
		}
	],
	"userCode": {
		"global": [
			" "
		],
		"pre-super": [
			"        "
		],
		"init": [
			"        "
		],
		"update": [
			"        "
		],
		"onDraw": [
			"        "
		],
		"onActivateEvent": [
			"        "
		],
		"onDeactivateEvent": [
			"        "
		],
		"onClick": [
			"        this.setCurrentAnimation(\"pressed\");",
			"        setTimeout(function(){",
			"            this.setCurrentAnimation(\"idle\");",
			"            me.game.repaint();",
			"            this.container.Move(this.direction);",
			"        }.bind(this), 200);"
		],
		"userFunction": [
			"    "
		],
		"global-end": [
			" "
		]
	},
	"frameWidth": 100,
	"frameHeight": 100,
	"width": 100,
	"height": 100,
	"hasBody": false,
	"alpha": 1,
	"flipX": false,
	"flipY": false,
	"floating": true,
	"relativeX": "0.5",
	"relativeY": "0.5",
	"anchorX": 0.5,
	"anchorY": 0.5,
	"followed": "NONE",
	"alwaysUpdate": false,
	"updateWhenPaused": false,
	"isPersistent": false,
	"click": true,
	"keyUp": false,
	"keyDown": false,
	"collisionCheck": false,
	"gravityX": 0,
	"gravityY": 0.98,
	"collisionType": "ENEMY_OBJECT"
}