{
	"type": "object",
	"version": "0.0.2",
	"animations": {
		"list": [
			{
				"name": "idle",
				"frames": [
					{
						"id": "1f2bba91-5703-11eb-b0e0-2360cb833219",
						"type": "image",
						"ext": "png",
						"image_name": "tutor_button_close",
						"data_path": "image/gameplay/tutor_button_close.png",
						"folder_name": "gameplay",
						"width": 113,
						"height": 113
					}
				],
				"duration": "100"
			},
			{
				"name": "pressed",
				"frames": [
					{
						"id": "a6e06210-5708-11eb-b0e0-2360cb833219",
						"type": "image",
						"ext": "png",
						"image_name": "tutor_button_close _small",
						"data_path": "image/gameplay/tutor_button_close _small.png",
						"folder_name": "gameplay",
						"width": 85,
						"height": 85
					}
				],
				"duration": "100"
			}
		],
		"default": "idle"
	},
	"images": {
		"list": [
			{
				"id": "1f2bba91-5703-11eb-b0e0-2360cb833219",
				"type": "image",
				"ext": "png",
				"image_name": "tutor_button_close",
				"data_path": "image/gameplay/tutor_button_close.png",
				"folder_name": "gameplay",
				"width": 113,
				"height": 113
			},
			{
				"id": "a6e06210-5708-11eb-b0e0-2360cb833219",
				"type": "image",
				"ext": "png",
				"image_name": "tutor_button_close _small",
				"data_path": "image/gameplay/tutor_button_close _small.png",
				"folder_name": "gameplay",
				"width": 85,
				"height": 85
			}
		]
	},
	"image": "1f2bba91-5703-11eb-b0e0-2360cb833219",
	"collisionMask": [
		"ALL_OBJECT"
	],
	"event": "<xml xmlns=\"http://www.w3.org/1999/xhtml\"><variables><variable type=\"\" id=\"3IIpg[~39=ihA_,tj6+J\">variable</variable></variables></xml>",
	"variables": [
		{
			"name": "variable",
			"description": "",
			"public": true,
			"init": false
		}
	],
	"userCode": {
		"global": [
			" "
		],
		"pre-super": [
			"        "
		],
		"init": [
			"        "
		],
		"update": [
			"        "
		],
		"onDraw": [
			"        "
		],
		"onActivateEvent": [
			"        "
		],
		"onDeactivateEvent": [
			"        "
		],
		"userFunction": [
			"    onClick: function(event){",
			"        if(this.alpha == 1){",
			"            if(this.isCurrentAnimation('idle')){",
			"                this.setCurrentAnimation('pressed');",
			"            }",
			"        }",
			"    },",
			"    ",
			"    onRelease: function(){",
			"        me.game.repaint();",
			"        if(this.isCurrentAnimation('pressed')){",
			"            this.func();",
			"        }",
			"            ",
			"        //this.setCurrentAnimation('idle', function(){",
			"                ",
			"            //}.bind(this));",
			"            ",
			"    },",
			"    ",
			"    func : function(){",
			"        this.container.Hide();",
			"        this.container.pauseContainer.Show();",
			"        //this.timer = me.timer.setTimeout(()=>{game.util.pauseGame()}, 1000);",
			"        me.game.repaint();",
			"    }"
		],
		"global-end": [
			" "
		]
	},
	"frameWidth": 100,
	"frameHeight": 100,
	"width": 100,
	"height": 100,
	"hasBody": false,
	"alpha": 1,
	"flipX": false,
	"flipY": false,
	"floating": true,
	"relativeX": "0.5",
	"relativeY": "0.5",
	"anchorX": 0.5,
	"anchorY": 0.5,
	"followed": "NONE",
	"alwaysUpdate": false,
	"updateWhenPaused": false,
	"isPersistent": false,
	"click": false,
	"keyUp": false,
	"keyDown": false,
	"collisionCheck": false,
	"gravityX": 0,
	"gravityY": 0.98,
	"collisionType": "ENEMY_OBJECT"
}