{
	"type": "object",
	"version": "0.0.2",
	"layers": [],
	"collisionMask": [
		"ALL_OBJECT"
	],
	"event": "<xml xmlns=\"http://www.w3.org/1999/xhtml\"><variables><variable type=\"\" id=\"+0p`YE`Bh(wsY+6mF)1n\">variable</variable></variables></xml>",
	"variables": [
		{
			"name": "variable",
			"description": "",
			"public": true,
			"init": false
		}
	],
	"userCode": {
		"global": [
			" "
		],
		"pre-super": [
			"        "
		],
		"init": [
			"        this.finishClick = false;",
			"        this.currentSlot = 0;",
			"        this.show = true;",
			"        ",
			"        this.bg = me.pool.pull(\"bgCoklat\", me.game.viewport.width/2, me.game.viewport.height/2);",
			"        me.game.world.addChild(this.bg, 150);",
			"        ",
			"        this.tutor = [];",
			"        this.start = false;",
			"        for(let i = 1; i <= 5; i++){",
			"        let tutor = me.pool.pull (\"me.Sprite\", 542, 1150, {",
			"                image: game.textureMap.get(\"gameplay\"),",
			"                region: \"tutorial_\" + i",
			"            });",
			"            me.game.world.addChild(tutor, 200);",
			"            this.tutor.push(tutor);",
			"        }",
			"        ",
			"        this.nextRight = me.pool.pull(\"NextTutorBtn\", 340, 1000);",
			"        me.game.world.addChild(this.nextRight, 202);",
			"        this.nextRight.direction = \"right\";",
			"        this.nextRight.container = this;",
			"        ",
			"        this.nextLeft = me.pool.pull(\"BackTutorBtn\", -340, 1000);",
			"        me.game.world.addChild(this.nextLeft, 202);",
			"        this.nextLeft.direction = \"left\";",
			"        this.nextLeft.container = this;",
			"        ",
			"        this.Hide();",
			"        //this.StartTutorial();"
		],
		"update": [
			"        "
		],
		"onDraw": [
			"        "
		],
		"onActivateEvent": [
			"        "
		],
		"onDeactivateEvent": [
			"        me.game.world.removeChild(this.nextRight);",
			"        me.game.world.removeChild(this.nextLeft);"
		],
		"userFunction": [
			"    StartTutorial : function(){",
			"        this.start = true;",
			"        this.Show();",
			"    },",
			"    ",
			"    Show : function(){",
			"        if(this.show == false){",
			"            this.bg.pos.y -= 9000;",
			"            this.nextLeft.pos.y -= 9000;",
			"            this.nextRight.pos.y -= 9000;",
			"            ",
			"            for(let i in this.tutor){",
			"                this.tutor[i].alpha = 1; //-= 9000;",
			"            }",
			"            ",
			"            this.show = true;",
			"            ",
			"            this.currentSlot = -1;",
			"            this.Move(\"right\");",
			"        }",
			"    },",
			"    ",
			"    Hide : function(){",
			"        if(this.show == true){",
			"            this.bg.pos.y += 9000;",
			"            this.nextLeft.pos.y += 9000;",
			"            this.nextRight.pos.y += 9000;",
			"            ",
			"            for(let i in this.tutor){",
			"                this.tutor[i].alpha = 0; //+= 9000; ",
			"            }",
			"            ",
			"            this.show = true;",
			"            ",
			"            this.currentSlot = 0;",
			"            this.show = false;",
			"        }",
			"    },",
			"    ",
			"    Move : function(direction){",
			"        if(direction == \"right\"){",
			"            if(this.currentSlot + 1 <= 5){",
			"                this.currentSlot++;",
			"            }",
			"        }",
			"        else if(direction == \"left\"){",
			"            if(this.currentSlot - 1 >= 0){",
			"                this.currentSlot--;",
			"            }",
			"        }",
			"        ",
			"        if(this.currentSlot == 0){",
			"            this.nextLeft.alpha = 0;",
			"        }",
			"        else{",
			"            this.nextLeft.alpha = 1;",
			"        }",
			"            ",
			"        if(this.currentSlot == 5){",
			"            //this.nextRight.alpha = 0;",
			"        }",
			"        else{",
			"            this.nextRight.alpha = 1;",
			"        }",
			"        ",
			"        if(this.currentSlot < 5){",
			"            for(let i in this.tutor){",
			"                if(i != this.currentSlot){",
			"                    this.tutor[i].alpha = 0;",
			"                }",
			"                else{",
			"                    this.tutor[i].alpha = 1;",
			"                }",
			"            }",
			"        }",
			"        else{",
			"            this.Hide();",
			"            if(this.start == false){",
			"                if(inGamePlay){",
			"                    let firstPlay = true;",
			"                    me.timer.setTimeout(()=>{",
			"                        if(firstPlay){",
			"                            firstPlay = false;",
			"                            this.container.orderFunc();",
			"                        }",
			"                    }, 1000);",
			"                }else{",
			"                    this.pauseContainer.Show();",
			"                }",
			"            }",
			"            else{",
			"                this.start = false;",
			"            }",
			"        }",
			"    },"
		],
		"global-end": [
			" "
		]
	},
	"width": 100,
	"height": 100,
	"hasBody": false,
	"alpha": 1,
	"flipX": false,
	"flipY": false,
	"floating": true,
	"relativeX": "0.5",
	"relativeY": "0.5",
	"anchorX": 0.5,
	"anchorY": 0.5,
	"followed": "NONE",
	"alwaysUpdate": false,
	"updateWhenPaused": false,
	"isPersistent": false,
	"click": false,
	"keyUp": false,
	"keyDown": false,
	"collisionCheck": false,
	"gravityX": 0,
	"gravityY": 0.98,
	"collisionType": "ENEMY_OBJECT"
}