{
	"type": "object",
	"version": "0.0.2",
	"animations": {
		"list": [
			{
				"name": "disable",
				"frames": [
					{
						"id": "249e8730-645c-11eb-be9d-83adf7570b62",
						"type": "image",
						"ext": "png",
						"image_name": "shop_button_unavailable",
						"data_path": "image/Shop/shop_button_unavailable.png",
						"folder_name": "Shop",
						"width": 243,
						"height": 86
					}
				],
				"duration": "100"
			},
			{
				"name": "pressed",
				"frames": [
					{
						"id": "96ceb7e0-6460-11eb-be9d-83adf7570b62",
						"type": "image",
						"ext": "png",
						"image_name": "shop_button_upgrade_pressed",
						"data_path": "image/Shop/shop_button_upgrade_pressed.png",
						"folder_name": "Shop",
						"width": 194,
						"height": 69
					}
				],
				"duration": "100"
			},
			{
				"name": "able",
				"frames": [
					{
						"id": "893cbff0-6460-11eb-be9d-83adf7570b62",
						"type": "image",
						"ext": "png",
						"image_name": "shop_button_upgrade",
						"data_path": "image/Shop/shop_button_upgrade.png",
						"folder_name": "Shop",
						"width": 243,
						"height": 86
					}
				],
				"duration": "100"
			},
			{
				"name": "max",
				"frames": [
					{
						"id": "929a3820-646f-11eb-9758-8136cd4cf454",
						"type": "image",
						"ext": "png",
						"image_name": "shop_button_sold",
						"data_path": "image/Shop/shop_button_sold.png",
						"folder_name": "Shop",
						"width": 243,
						"height": 86
					}
				],
				"duration": "100"
			}
		],
		"default": "able"
	},
	"images": {
		"list": [
			{
				"id": "6a1538d2-5620-11eb-8aae-7d01d3ae8ae7",
				"type": "image",
				"ext": "png",
				"image_name": "shop_button_buy",
				"data_path": "image/Shop/shop_button_buy.png",
				"folder_name": "Shop",
				"width": 240,
				"height": 95
			},
			{
				"id": "249e8730-645c-11eb-be9d-83adf7570b62",
				"type": "image",
				"ext": "png",
				"image_name": "shop_button_unavailable",
				"data_path": "image/Shop/shop_button_unavailable.png",
				"folder_name": "Shop",
				"width": 243,
				"height": 86
			},
			{
				"id": "893cbff0-6460-11eb-be9d-83adf7570b62",
				"type": "image",
				"ext": "png",
				"image_name": "shop_button_upgrade",
				"data_path": "image/Shop/shop_button_upgrade.png",
				"folder_name": "Shop",
				"width": 243,
				"height": 86
			},
			{
				"id": "96ceb7e0-6460-11eb-be9d-83adf7570b62",
				"type": "image",
				"ext": "png",
				"image_name": "shop_button_upgrade_pressed",
				"data_path": "image/Shop/shop_button_upgrade_pressed.png",
				"folder_name": "Shop",
				"width": 194,
				"height": 69
			},
			{
				"id": "929a3820-646f-11eb-9758-8136cd4cf454",
				"type": "image",
				"ext": "png",
				"image_name": "shop_button_sold",
				"data_path": "image/Shop/shop_button_sold.png",
				"folder_name": "Shop",
				"width": 243,
				"height": 86
			}
		]
	},
	"image": "6a1538d2-5620-11eb-8aae-7d01d3ae8ae7",
	"collisionMask": [
		"ALL_OBJECT"
	],
	"event": "<xml xmlns=\"http://www.w3.org/1999/xhtml\"><variables><variable type=\"\" id=\"D{qEI$Mt[Fg1uR!BA=^C\">variable</variable></variables></xml>",
	"variables": [
		{
			"name": "variable",
			"description": "",
			"public": true,
			"init": false
		}
	],
	"userCode": {
		"global": [
			" "
		],
		"pre-super": [
			"        "
		],
		"init": [
			"        impose(settings, \"func\", function(){});",
			"        impose(settings, \"scaleX\", 0.99);",
			"        impose(settings, \"scaleY\", 0.99);",
			"        impose(settings, \"isPenetrate\", false);",
			"        game.util.spread(this, settings, [\"func\", \"scaleX\", \"scaleY\", \"isPenetrate\", \"btnImages\"]);",
			"        ",
			"        this.adjustPosSub = me.event.subscribe(me.event.LEVEL_LOADED, () => {",
			"            this.pos.x += me.game.world.pos.x;",
			"            this.pos.y += me.game.world.pos.y;",
			"            ",
			"            if(Array.isArray(this.btnUnion)){",
			"                this.btnUnion.forEach(btn => {",
			"                    btn.pos.x += me.game.world.pos.x;",
			"                    btn.pos.y += me.game.world.pos.y;",
			"                });",
			"            }",
			"        });"
		],
		"update": [
			"        if(this.itemData != undefined){",
			"            this.CheckPrice();",
			"        }"
		],
		"onDraw": [
			"        "
		],
		"onActivateEvent": [
			"        "
		],
		"onDeactivateEvent": [
			"         me.event.unsubscribe(this.adjustPosSub);"
		],
		"onClick": [
			"        if(event.button === 0){",
			"            if(this.isCurrentAnimation(\"able\") && this.alpha == 1){",
			"                me.audio.play(\"sfx-belanja\");",
			"                this.setCurrentAnimation(\"pressed\");",
			"                ",
			"                game.controller.data.upgradeItem(this.itemData.id, this.itemData.lvl + 1, this.itemData.cost[this.itemData.lvl]",
			"                    , function(success){",
			"                        if(success){",
			"                            this.itemData.lvl ++;",
			"                        }",
			"                        ",
			"                    setTimeout(function(){",
			"                        this.setCurrentAnimation(\"able\");",
			"                        this.itemData.container.bank = game.user.userData.bank;",
			"                        this.CheckPrice();",
			"                    }.bind(this), 200);",
			"                }.bind(this));",
			"            }",
			"        }"
		],
		"userFunction": [
			"    onRelease: function(){",
			"         // me.audio.play(\"button click\", false, null, game.data.dynamic.sound.SFX);",
			"                //this.CheckPrice();       ",
			"        return this.isPenetrate;",
			"    },",
			"    ",
			"    CheckPrice : function(){",
			"        if(this.itemData.lvl == this.itemData.maxLvl){",
			"            if(!this.isCurrentAnimation('pressed')){",
			"                this.setCurrentAnimation(\"max\")",
			"            }",
			"            ",
			"            this.itemData.priceTxt.setText(\"0\");",
			"        }",
			"        else{",
			"            if(this.itemData.cost[this.itemData.lvl] < this.itemData.container.bank){",
			"                //this.setCurrentAnimation(\"able\");",
			"            }else{",
			"                if(!this.isCurrentAnimation(\"pressed\")){",
			"                    this.setCurrentAnimation(\"disable\");",
			"                }",
			"            }",
			"            ",
			"            this.itemData.priceTxt.setText(this.itemData.cost[this.itemData.lvl]);",
			"        }",
			"        ",
			"        for(let i in this.itemData.counterList){",
			"            if(i >= this.itemData.lvl)",
			"                this.itemData.counterList[i].alpha = 0;",
			"            else",
			"                this.itemData.counterList[i].alpha = 1;",
			"        }",
			"        ",
			"        let buffDesc = \"\";",
			"        ",
			"        if(this.itemData.id == \"I000\")",
			"            buffDesc = \"x\" + this.itemData.buff[Math.min(this.itemData.lvl, this.itemData.buff.length - 1)];",
			"        else if(this.itemData.id == \"I001\")",
			"            buffDesc = \"$\" + this.itemData.buff[Math.min(this.itemData.lvl, this.itemData.buff.length - 1)];",
			"        else if(this.itemData.id == \"I002\")",
			"            buffDesc = \"+ \" + this.itemData.buff[Math.min(this.itemData.lvl, this.itemData.buff.length - 1)] + \" seconds\";",
			"        ",
			"        this.itemData.buffTxt.setText(buffDesc);",
			"    },",
			"    ",
			"    ",
			"    "
		],
		"global-end": [
			" "
		]
	},
	"frameWidth": 100,
	"frameHeight": 100,
	"width": 100,
	"height": 100,
	"hasBody": false,
	"alpha": 1,
	"flipX": false,
	"flipY": false,
	"floating": true,
	"relativeX": "0.5",
	"relativeY": "0.5",
	"anchorX": 0.5,
	"anchorY": 0.5,
	"followed": "NONE",
	"alwaysUpdate": true,
	"updateWhenPaused": false,
	"isPersistent": false,
	"click": true,
	"keyUp": false,
	"keyDown": false,
	"collisionCheck": false,
	"gravityX": 0,
	"gravityY": 0.98,
	"collisionType": "ENEMY_OBJECT"
}