{
	"type": "object",
	"version": "0.0.2",
	"animations": {
		"list": [
			{
				"name": "idle",
				"frames": [
					{
						"id": "ac6bf486-3456-11eb-b98b-b5a38b48570a",
						"type": "image",
						"ext": "png",
						"image_name": "coin",
						"data_path": "image/shop/coin.png",
						"folder_name": "shop",
						"width": 261,
						"height": 106
					}
				],
				"duration": "100"
			},
			{
				"name": "disable",
				"frames": [
					{
						"id": "ac6bf487-3456-11eb-b98b-b5a38b48570a",
						"type": "image",
						"ext": "png",
						"image_name": "coin_bw",
						"data_path": "image/shop/coin_bw.png",
						"folder_name": "shop",
						"width": 261,
						"height": 106
					}
				],
				"duration": "100"
			}
		],
		"default": "idle"
	},
	"images": {
		"list": [
			{
				"id": "ac6bf486-3456-11eb-b98b-b5a38b48570a",
				"type": "image",
				"ext": "png",
				"image_name": "coin",
				"data_path": "image/shop/coin.png",
				"folder_name": "shop",
				"width": 261,
				"height": 106
			},
			{
				"id": "ac6bf487-3456-11eb-b98b-b5a38b48570a",
				"type": "image",
				"ext": "png",
				"image_name": "coin_bw",
				"data_path": "image/shop/coin_bw.png",
				"folder_name": "shop",
				"width": 261,
				"height": 106
			}
		]
	},
	"image": "ac6bf486-3456-11eb-b98b-b5a38b48570a",
	"collisionMask": [
		"ALL_OBJECT"
	],
	"event": "<xml xmlns=\"http://www.w3.org/1999/xhtml\"><variables><variable type=\"\" id=\"GO(i~+vxe/,cO[AHut@V\">variable</variable></variables></xml>",
	"variables": [
		{
			"name": "variable"
		}
	],
	"userCode": {
		"global": [
			""
		],
		"pre-super": [
			"        "
		],
		"init": [
			"        "
		],
		"update": [
			"        "
		],
		"onDraw": [
			"        "
		],
		"onActivateEvent": [
			"        "
		],
		"onDeactivateEvent": [
			"        "
		],
		"userFunction": [
			"    "
		],
		"global-end": [
			""
		]
	},
	"frameWidth": 100,
	"frameHeight": 100,
	"width": 100,
	"height": 100,
	"hasBody": false,
	"alpha": 1,
	"flipX": false,
	"flipY": false,
	"floating": false,
	"relativeX": "0",
	"relativeY": "0",
	"anchorX": 0,
	"anchorY": 0,
	"followed": "NONE",
	"alwaysUpdate": false,
	"updateWhenPaused": false,
	"isPersistent": false,
	"click": false,
	"keyUp": false,
	"keyDown": false,
	"collisionCheck": false,
	"gravityX": 0,
	"gravityY": 0.98,
	"collisionType": "ENEMY_OBJECT"
}