{
	"type": "object",
	"version": "0.0.2",
	"animations": {
		"list": [
			{
				"name": "I000able",
				"frames": [
					{
						"id": "b2b65e23-3456-11eb-b98b-b5a38b48570a",
						"type": "image",
						"ext": "png",
						"image_name": "strength",
						"data_path": "image/shop/strength.png",
						"folder_name": "shop",
						"width": 279,
						"height": 318
					}
				],
				"duration": "100"
			},
			{
				"name": "I000disable",
				"frames": [
					{
						"id": "b2b65e24-3456-11eb-b98b-b5a38b48570a",
						"type": "image",
						"ext": "png",
						"image_name": "strength_bw",
						"data_path": "image/shop/strength_bw.png",
						"folder_name": "shop",
						"width": 279,
						"height": 318
					}
				],
				"duration": "100"
			},
			{
				"name": "I001able",
				"frames": [
					{
						"id": "b2b65e20-3456-11eb-b98b-b5a38b48570a",
						"type": "image",
						"ext": "png",
						"image_name": "time",
						"data_path": "image/shop/time.png",
						"folder_name": "shop",
						"width": 279,
						"height": 318
					}
				],
				"duration": "100"
			},
			{
				"name": "I001buy",
				"frames": [
					{
						"id": "b2b65e21-3456-11eb-b98b-b5a38b48570a",
						"type": "image",
						"ext": "png",
						"image_name": "time_bw",
						"data_path": "image/shop/time_bw.png",
						"folder_name": "shop",
						"width": 279,
						"height": 318
					}
				],
				"duration": "100"
			},
			{
				"name": "I001disable",
				"frames": [
					{
						"id": "b2b65e22-3456-11eb-b98b-b5a38b48570a",
						"type": "image",
						"ext": "png",
						"image_name": "time_unready",
						"data_path": "image/shop/time_unready.png",
						"folder_name": "shop",
						"width": 279,
						"height": 318
					}
				],
				"duration": "100"
			},
			{
				"name": "I002able",
				"frames": [
					{
						"id": "ac6bcd70-3456-11eb-b98b-b5a38b48570a",
						"type": "image",
						"ext": "png",
						"image_name": "money",
						"data_path": "image/shop/money.png",
						"folder_name": "shop",
						"width": 279,
						"height": 318
					}
				],
				"duration": "100"
			},
			{
				"name": "I002buy",
				"frames": [
					{
						"id": "ac6bcd71-3456-11eb-b98b-b5a38b48570a",
						"type": "image",
						"ext": "png",
						"image_name": "money_bw",
						"data_path": "image/shop/money_bw.png",
						"folder_name": "shop",
						"width": 279,
						"height": 318
					}
				],
				"duration": "100"
			},
			{
				"name": "I002disable",
				"frames": [
					{
						"id": "ac6bcd72-3456-11eb-b98b-b5a38b48570a",
						"type": "image",
						"ext": "png",
						"image_name": "money_unready",
						"data_path": "image/shop/money_unready.png",
						"folder_name": "shop",
						"width": 279,
						"height": 318
					}
				],
				"duration": "100"
			},
			{
				"name": "I003able",
				"frames": [
					{
						"id": "ac6bf483-3456-11eb-b98b-b5a38b48570a",
						"type": "image",
						"ext": "png",
						"image_name": "cat",
						"data_path": "image/shop/cat.png",
						"folder_name": "shop",
						"width": 279,
						"height": 318
					}
				],
				"duration": "100"
			},
			{
				"name": "I003disable",
				"frames": [
					{
						"id": "ac6bf485-3456-11eb-b98b-b5a38b48570a",
						"type": "image",
						"ext": "png",
						"image_name": "cat_unready",
						"data_path": "image/shop/cat_unready.png",
						"folder_name": "shop",
						"width": 279,
						"height": 318
					}
				],
				"duration": "100"
			},
			{
				"name": "I003buy",
				"frames": [
					{
						"id": "ac6bf484-3456-11eb-b98b-b5a38b48570a",
						"type": "image",
						"ext": "png",
						"image_name": "cat_bw",
						"data_path": "image/shop/cat_bw.png",
						"folder_name": "shop",
						"width": 279,
						"height": 318
					}
				],
				"duration": "100"
			},
			{
				"name": "I004disable",
				"frames": [
					{
						"id": "ac6bf482-3456-11eb-b98b-b5a38b48570a",
						"type": "image",
						"ext": "png",
						"image_name": "cake_unready",
						"data_path": "image/shop/cake_unready.png",
						"folder_name": "shop",
						"width": 279,
						"height": 318
					}
				],
				"duration": "100"
			},
			{
				"name": "I004able",
				"frames": [
					{
						"id": "ac6bf480-3456-11eb-b98b-b5a38b48570a",
						"type": "image",
						"ext": "png",
						"image_name": "cake",
						"data_path": "image/shop/cake.png",
						"folder_name": "shop",
						"width": 279,
						"height": 318
					}
				],
				"duration": "100"
			},
			{
				"name": "I004buy",
				"frames": [
					{
						"id": "ac6bf481-3456-11eb-b98b-b5a38b48570a",
						"type": "image",
						"ext": "png",
						"image_name": "cake_bw",
						"data_path": "image/shop/cake_bw.png",
						"folder_name": "shop",
						"width": 279,
						"height": 318
					}
				],
				"duration": "100"
			},
			{
				"name": "I000buy",
				"frames": [
					{
						"id": "b2b65e24-3456-11eb-b98b-b5a38b48570a",
						"type": "image",
						"ext": "png",
						"image_name": "strength_bw",
						"data_path": "image/shop/strength_bw.png",
						"folder_name": "shop",
						"width": 279,
						"height": 318
					}
				],
				"duration": "100"
			}
		],
		"default": null
	},
	"images": {
		"list": []
	},
	"collisionMask": [
		"ALL_OBJECT"
	],
	"event": "<xml xmlns=\"http://www.w3.org/1999/xhtml\"><variables><variable type=\"\" id=\"O(ZaU{?C[87#K/^u|T}I\">variable</variable></variables></xml>",
	"variables": [
		{
			"name": "variable",
			"description": "",
			"public": true,
			"init": false
		}
	],
	"userCode": {
		"global": [
			" "
		],
		"pre-super": [
			"        this.originX = x;",
			"        this.originY = y;"
		],
		"init": [
			"        impose(settings, \"func\", function(){});",
			"        impose(settings, \"scaleX\", 0.99);",
			"        impose(settings, \"scaleY\", 0.99);",
			"        impose(settings, \"isPenetrate\", false);",
			"        game.util.spread(this, settings, [\"func\", \"scaleX\", \"scaleY\", \"isPenetrate\", \"btnImages\"]);",
			"        ",
			"        this.adjustPosSub = me.event.subscribe(me.event.LEVEL_LOADED, () => {",
			"            this.pos.x += this.originX;",
			"            this.pos.y += this.originY;",
			"            ",
			"            if(Array.isArray(this.btnUnion)){",
			"                this.btnUnion.forEach(btn => {",
			"                    btn.pos.x += this.originX;",
			"                    btn.pos.y += this.originY;",
			"                });",
			"            }",
			"        });",
			"        ",
			"        this.audioPlay = false;"
		],
		"update": [
			"        "
		],
		"onDraw": [
			"        "
		],
		"onActivateEvent": [
			"        "
		],
		"onDeactivateEvent": [
			"        me.event.unsubscribe(this.adjustPosSub);"
		],
		"onClick": [
			"        "
		],
		"userFunction": [
			"    onClick: function(event){",
			"        if(event.button === 0){",
			"            this.currentTransform.translate(this.originX, this.originY);",
			"            this.currentTransform.scale(this.scaleX, this.scaleY);",
			"            this.currentTransform.translate(-this.originX, -this.originY);",
			"            ",
			"            if(Array.isArray(this.btnImages)){",
			"                this.btnImages.forEach((img) => {",
			"                    img.currentTransform.translate(this.originX, this.originY);",
			"                    img.currentTransform.scale(this.scaleX, this.scaleY);",
			"                    img.currentTransform.translate(-this.originX, -this.originY);",
			"                });",
			"            }",
			"            if(this.audioPlay){me.audio.play(\"sfx-belanja\")}",
			"            me.game.repaint();",
			"            return this.isPenetrate;",
			"        }",
			"    },",
			"    onRelease: function(){",
			"        this.currentTransform.identity();",
			"        if(Array.isArray(this.btnImages)){",
			"            this.btnImages.forEach(function(img){",
			"                img.currentTransform.identity();",
			"            });",
			"        }",
			"        ",
			"        me.game.repaint();",
			"        this.func();",
			"        return this.isPenetrate;",
			"    },",
			"    ",
			"    func : function(){",
			"        if(this.container.score >= this.cost && this.isCurrentAnimation(this.id + \"able\")){",
			"            this.container.score -= this.cost;",
			"            this.container.playerItem .push(this.id);",
			"            this.setCurrentAnimation(this.id + \"buy\");",
			"            this.coinPlate.setCurrentAnimation(\"disable\");",
			"            this.audioPlay = false;",
			"        }",
			"    }"
		],
		"global-end": [
			" "
		]
	},
	"frameWidth": 100,
	"frameHeight": 100,
	"width": 100,
	"height": 100,
	"hasBody": false,
	"alpha": 1,
	"flipX": false,
	"flipY": false,
	"floating": true,
	"relativeX": "0.5",
	"relativeY": "0.5",
	"anchorX": 0.5,
	"anchorY": 0.5,
	"followed": "NONE",
	"alwaysUpdate": false,
	"updateWhenPaused": false,
	"isPersistent": false,
	"click": false,
	"keyUp": false,
	"keyDown": false,
	"collisionCheck": false,
	"gravityX": 0,
	"gravityY": 0.98,
	"collisionType": "ENEMY_OBJECT"
}