{
	"type": "object",
	"version": "0.0.2",
	"animations": {
		"list": [
			{
				"name": "I000able",
				"frames": [
					{
						"id": "964bbe81-645b-11eb-be9d-83adf7570b62",
						"type": "image",
						"ext": "png",
						"image_name": "shop_frame_crane",
						"data_path": "image/Shop/shop_frame_crane.png",
						"folder_name": "Shop",
						"width": 989,
						"height": 256
					}
				],
				"duration": "100"
			},
			{
				"name": "I002able",
				"frames": [
					{
						"id": "964bbe83-645b-11eb-be9d-83adf7570b62",
						"type": "image",
						"ext": "png",
						"image_name": "shop_frame_time",
						"data_path": "image/Shop/shop_frame_time.png",
						"folder_name": "Shop",
						"width": 989,
						"height": 256
					}
				],
				"duration": "100"
			},
			{
				"name": "I003able",
				"frames": [
					{
						"id": "249e8731-645c-11eb-be9d-83adf7570b62",
						"type": "image",
						"ext": "png",
						"image_name": "shop_frame_cake",
						"data_path": "image/Shop/shop_frame_cake.png",
						"folder_name": "Shop",
						"width": 989,
						"height": 256
					}
				],
				"duration": "100"
			},
			{
				"name": "I001able",
				"frames": [
					{
						"id": "4a9cfc90-54b8-11eb-abe3-c15efb660d7b",
						"type": "image",
						"ext": "png",
						"image_name": "shop_frame_money",
						"data_path": "image/shop/shop_frame_money.png",
						"folder_name": "shop",
						"width": 1000,
						"height": 260
					}
				],
				"duration": "100"
			}
		],
		"default": "I000able"
	},
	"images": {
		"list": [
			{
				"id": "249e8731-645c-11eb-be9d-83adf7570b62",
				"type": "image",
				"ext": "png",
				"image_name": "shop_frame_cake",
				"data_path": "image/Shop/shop_frame_cake.png",
				"folder_name": "Shop",
				"width": 989,
				"height": 256
			},
			{
				"id": "964bbe81-645b-11eb-be9d-83adf7570b62",
				"type": "image",
				"ext": "png",
				"image_name": "shop_frame_crane",
				"data_path": "image/Shop/shop_frame_crane.png",
				"folder_name": "Shop",
				"width": 989,
				"height": 256
			},
			{
				"id": "964bbe83-645b-11eb-be9d-83adf7570b62",
				"type": "image",
				"ext": "png",
				"image_name": "shop_frame_time",
				"data_path": "image/Shop/shop_frame_time.png",
				"folder_name": "Shop",
				"width": 989,
				"height": 256
			},
			{
				"id": "b9280210-646a-11eb-9758-8136cd4cf454",
				"type": "image",
				"ext": "png",
				"image_name": "shop_frame_money",
				"data_path": "image/Shop/shop_frame_money.png",
				"folder_name": "Shop",
				"width": 989,
				"height": 256
			}
		]
	},
	"image": "249e8731-645c-11eb-be9d-83adf7570b62",
	"collisionMask": [
		"ALL_OBJECT"
	],
	"event": "<xml xmlns=\"http://www.w3.org/1999/xhtml\"><variables><variable type=\"\" id=\"`5*EBY8wmy+3RWBCq-kO\">variable</variable></variables></xml>",
	"variables": [
		{
			"name": "variable",
			"description": "",
			"public": true,
			"init": false
		}
	],
	"userCode": {
		"global": [
			" "
		],
		"pre-super": [
			"        "
		],
		"init": [
			"        "
		],
		"update": [
			"        "
		],
		"onDraw": [
			"        "
		],
		"onActivateEvent": [
			"        "
		],
		"onDeactivateEvent": [
			"        "
		],
		"onClick": [
			" "
		],
		"userFunction": [
			"    "
		],
		"global-end": [
			" "
		]
	},
	"frameWidth": 100,
	"frameHeight": 100,
	"width": 100,
	"height": 100,
	"hasBody": false,
	"alpha": 1,
	"flipX": false,
	"flipY": false,
	"floating": true,
	"relativeX": "0.5",
	"relativeY": "0.5",
	"anchorX": 0.5,
	"anchorY": 0.5,
	"followed": "NONE",
	"alwaysUpdate": true,
	"updateWhenPaused": false,
	"isPersistent": false,
	"click": true,
	"keyUp": false,
	"keyDown": false,
	"collisionCheck": false,
	"gravityX": 0,
	"gravityY": 0.98,
	"collisionType": "ENEMY_OBJECT"
}