{
	"type": "object",
	"version": "0.0.2",
	"layers": [],
	"collisionMask": [
		"ALL_OBJECT"
	],
	"event": "<xml xmlns=\"http://www.w3.org/1999/xhtml\"><variables><variable type=\"\" id=\"t=B4E|{LSwPuh^4*YYwP\">variable</variable></variables></xml>",
	"variables": [
		{
			"name": "variable",
			"description": "",
			"public": true,
			"init": false
		}
	],
	"userCode": {
		"global": [
			" "
		],
		"pre-super": [
			"        "
		],
		"init": [
			"        this.bank = game.user.userData.bank;",
			"        this.bg = me.pool.pull(\"BGShop\", 0, 0);",
			"        this.addChild(this.bg, 1);",
			"        ",
			"        this.itemList = [];",
			"        ",
			"        this.bankTxt = me.pool.pull('me.BitmapText', me.game.world.width/2-275, -675, {",
			"                                             font: \"fontSushiKotak\",",
			"                                             size : 2,",
			"                                             text : this.bank,",
			"                                             textAlign : 'left',",
			"                                             textBaseAlign : 'middle',",
			"                                             anchorPoint : {x: 1,y: 0.5}",
			"                                             }); ",
			"        this.addChild(this.bankTxt, 30);",
			"        ",
			"        this.playBtn = me.pool.pull(\"BtnPlayShop\", 0, 910,{",
			"          region: \"button_play_small\",",
			"          container: this",
			"        });",
			"        me.game.world.addChild(this.playBtn, 22);",
			"        ",
			"        this.playBtn.container = this;",
			"        this.SpawnItem();",
			"        ",
			"        // this.Hide();",
			"        // this.Show();"
		],
		"update": [
			"        this.bankTxt.setText(this.bank);"
		],
		"onDraw": [
			"        "
		],
		"onActivateEvent": [
			"        "
		],
		"onDeactivateEvent": [
			"        this.removeChild(this.bankTxt);",
			"        me.game.world.removeChild(this.playBtn);",
			"        ",
			"        for(let i in this.itemList){",
			"            this.removeChild(this.itemList[i].priceTxt);",
			"            this.removeChild(this.itemList[i].buffTxt);",
			"            ",
			"            for(let j in this.itemList[i].counterList){",
			"                this.removeChild(this.itemList[i].counterList[j]);",
			"            }",
			"            ",
			"            this.removeChild(this.itemList[i].btn);",
			"            this.removeChild(this.itemList[i]);",
			"        }",
			"        ",
			"        me.game.world.removeChild(this);"
		],
		"userFunction": [
			"    SpawnItem : function(){",
			"        let playerItem = game.user.userData.item;",
			"        let itemInfo = game.controller.data.getDataItemInfo();",
			"        let posX = 0, posY = -322, distanceY = 300, txtPosX = 0, txtPosY = -100; ",
			"        ",
			"        for(let i in itemInfo){",
			"            let item = me.pool.pull(\"Item\", posX, posY);",
			"            this.addChild(item, 2);",
			"            this.itemList[item.id] = item;",
			"            ",
			"            item.id = itemInfo[i].id;",
			"            if(playerItem[itemInfo[i].id] != undefined)",
			"                item.lvl = playerItem[itemInfo[i].id];",
			"            else",
			"                item.lvl = 0;",
			"            ",
			"            item.maxLvl = itemInfo[i].cost.length;",
			"            item.cost = itemInfo[i].cost;",
			"            item.buff = itemInfo[i].buff;",
			"            item.setCurrentAnimation(itemInfo[i].id + \"able\");",
			"            item.container = this;",
			"                ",
			"            let text = me.pool.pull('me.BitmapText', posX + 495, posY -10, {",
			"                                             font: \"fontSushiKotak\",",
			"                                             size : 1.2,",
			"                                             text : itemInfo[i].cost[item.lvl],",
			"                                             textAlign : 'left',",
			"                                             textBaseAlign : 'middle',",
			"                                             anchorPoint : {x: 1,y: 0.5}",
			"                                             }); ",
			"            this.addChild(text, 30);",
			"            item.priceTxt = text;",
			"            ",
			"            let buffTxt = me.pool.pull('me.BitmapText', posX  + 220, posY + 22, {",
			"                                             font: \"fontSushiKotak\",",
			"                                             size : 0.9,",
			"                                             text : 100,",
			"                                             textAlign : 'left',",
			"                                             textBaseAlign : 'middle',",
			"                                             anchorPoint : {x: 1,y: 0.5}",
			"                                             }); ",
			"            this.addChild(buffTxt, 30);",
			"            item.buffTxt = buffTxt;",
			"            ",
			"            let counterList = [];",
			"            for(let j = 0; j < itemInfo[i].cost.length; j++){",
			"                let counter = me.pool.pull(\"LvlCounter\", posX - 213 + (j * 87), posY + 49);",
			"                this.addChild(counter, 31);",
			"                counterList.push(counter);",
			"            }",
			"            item.counterList = counterList;",
			"            ",
			"            let buyBtn = me.pool.pull(\"BuyBtn\", posX + 338, posY + 48);",
			"            this.addChild(buyBtn, 30);",
			"            buyBtn.itemData = item;",
			"            buyBtn.CheckPrice();",
			"            item.btn = buyBtn;",
			"        ",
			"            this.itemList.push(item);",
			"            ",
			"            posY += distanceY;",
			"        }",
			"    },",
			"    ",
			"    Hide : function(){",
			"        if(mainMenu){",
			"            me.game.viewport.fadeIn(\"#000000\", 1000,()=>{",
			"                this.bankTxt.pos.y += 9000;",
			"                this.playBtn.pos.y += 9000;",
			"                ",
			"                for(let i in this.itemList){",
			"                    this.itemList[i].priceTxt.pos.y += 9000;",
			"                    this.itemList[i].buffTxt.pos.y += 9000;",
			"                    ",
			"                    for(let j in this.itemList[i].counterList){",
			"                        this.itemList[i].counterList[j].pos.y += 9000;",
			"                    }",
			"                    ",
			"                    this.itemList[i].btn.pos.y += 9000;",
			"                    this.itemList[i].pos.y += 9000;",
			"                }",
			"                ",
			"                this.bg.pos.y += 9000;",
			"                me.state.change(game.state.mainmenu);",
			"            });",
			"        }else{",
			"            me.game.viewport.fadeIn(\"#000000\", 1000,()=>{",
			"                this.bankTxt.pos.y += 9000;",
			"                this.playBtn.pos.y += 9000;",
			"                ",
			"                for(let i in this.itemList){",
			"                    this.itemList[i].priceTxt.pos.y += 9000;",
			"                    this.itemList[i].buffTxt.pos.y += 9000;",
			"                    ",
			"                    for(let j in this.itemList[i].counterList){",
			"                        this.itemList[i].counterList[j].pos.y += 9000;",
			"                    }",
			"                    ",
			"                    this.itemList[i].btn.pos.y += 9000;",
			"                    this.itemList[i].pos.y += 9000;",
			"                }",
			"                ",
			"                this.bg.pos.y += 9000;",
			"                me.state.change(game.state.level1);",
			"            });",
			"        }",
			"",
			"    },",
			"    ",
			"    Show : function(){",
			"        this.bankTxt.pos.y -= 9000;",
			"        this.playBtn.pos.y -= 9000;",
			"        ",
			"        for(let i in this.itemList){",
			"            this.itemList[i].priceTxt.pos.y -= 9000;",
			"            this.itemList[i].buffTxt.pos.y -= 9000;",
			"            ",
			"            for(let j in this.itemList[i].counterList){",
			"                this.itemList[i].counterList[j].pos.y -= 9000;",
			"            }",
			"            ",
			"            this.itemList[i].btn.pos.y -= 9000;",
			"            this.itemList[i].pos.y -= 9000;",
			"        }",
			"        ",
			"        this.bg.pos.y -= 9000;",
			"    },"
		],
		"global-end": [
			" "
		]
	},
	"width": 100,
	"height": 100,
	"hasBody": false,
	"alpha": 1,
	"flipX": false,
	"flipY": false,
	"floating": true,
	"relativeX": "0.5",
	"relativeY": "0.5",
	"anchorX": 0.5,
	"anchorY": 0.5,
	"followed": "NONE",
	"alwaysUpdate": true,
	"updateWhenPaused": false,
	"isPersistent": false,
	"click": false,
	"keyUp": false,
	"keyDown": false,
	"collisionCheck": false,
	"gravityX": 0,
	"gravityY": 0.98,
	"collisionType": "ENEMY_OBJECT"
}