{
	"type": "text",
	"version": "0.0.2",
	"userCode": {
		"global": [
			"var baseDatabase = me.Object.extend({",
			"    init: function(){",
			"        ",
			"    },",
			"    ",
			"    createDatabase: function(){",
			"        throw \"this function must be created in the child object\";",
			"    },",
			"    ",
			"    loadDatabase: function(){",
			"        throw \"this function must be created in the child object\";",
			"    },",
			"    ",
			"    saveToDatabase: function(obj, callback){",
			"        throw \"this function must be created in the child object\";",
			"    }",
			"});"
		]
	}
}