{
	"type": "text",
	"version": "0.0.2",
	"userCode": {
		"global": [
			"var testDatabase = baseDatabase.extend({",
			"    init: function(){",
			"        ",
			"    },",
			"    ",
			"    createDatabase: function(callback){",
			"        let db = game.data.initUser;",
			"        ",
			"        // populate db",
			"        db.device.platform = \"Test Database\";",
			"        db.device.os = game.util.getDevicePlatform();",
			"        // --",
			"        ",
			"        console.log(\"[TEST] database created.\");",
			"        callback();",
			"    },",
			"    ",
			"    loadDatabase: function(){",
			"        console.log(\"[TEST DATABASE] load database\");",
			"        let db = game.data.initUser;",
			"        ",
			"        if(DATABASE_TEST_FULL){",
			"            db.device.platform = \"DEBUG\";",
			"\t        db.device.os = \"Windows\";",
			"\t        db.device.lastlogin = 0;",
			"\t        db.device.deviceid = \"001\";",
			"\t        db.device.haveLogin   = 1;",
			"\t        ",
			"\t        db.userData.name = \"cacad\";",
			"\t       // db.userData.score = 2000;",
			"\t       // db.userData.highScore = 100000;",
			"\t       // db.userData.day = 2;",
			"\t       // db.userData.item = {I000 : 2, I001 : 2, I002 : 3, I001 : 1};",
			"\t       // db.userData.bank = 10000;",
			"        }   ",
			"        ",
			"        return new Promise((resolve, reject) => {",
			"            resolve(db);",
			"        });",
			"    },",
			"    ",
			"    saveToDatabase: function(obj, callback){",
			"        // console.log(\"[TEST DATABASE] success save to database, this is the object that you save\");",
			"        console.log(obj);",
			"    },",
			"    ",
			"    getData: function(sequence){",
			"        let res = game.user;",
			"        // console.log(res);",
			"        for(let i = 0; i < sequence.length; i++){",
			"            if(res != null) res = res[sequence[i]];",
			"        }",
			"        return new Promise((resolve, reject) => {",
			"            resolve(res);",
			"        });",
			"    },",
			"    ",
			"    setData: function(sequence, value){",
			"        // success set data",
			"        let res = game.data.initUser;",
			"        for(let i = 0; i < sequence.length; i++){",
			"            let temp = res[sequence[i]];",
			"            if(typeof temp === \"undefined\"){",
			"                res = value;",
			"                break;",
			"            }",
			"            res = temp;",
			"        }",
			"        return res;",
			"    }",
			"});"
		]
	}
}